12 12 12
   	-0.08606   	-0.036548   	-0.0415368   	-0.0501068   	-0.048636   	-0.0671425   	-0.132871   	-0.232196   	-0.300791   	-0.297994   	-0.250738   	-0.179531
   	-0.0848746   	-0.053993   	-0.0541173   	-0.0477306   	-0.0402223   	-0.06425   	-0.160762   	-0.316572   	-0.393128   	-0.325085   	-0.230299   	-0.152258
   	-0.128726   	-0.135382   	-0.106901   	-0.0576926   	-0.0306741   	-0.0472864   	-0.131994   	-0.255063   	-0.264592   	-0.170627   	-0.124085   	-0.112577
   	-0.215784   	-0.253736   	-0.175362   	-0.0711107   	-0.0220808   	-0.0337786   	-0.118712   	-0.234648   	-0.199793   	-0.0875163   	-0.0708396   	-0.113106
   	-0.254394   	-0.278949   	-0.177916   	-0.066459   	-0.0244275   	-0.0670863   	-0.242129   	-0.501102   	-0.466867   	-0.219061   	-0.119091   	-0.145197
   	-0.195563   	-0.179258   	-0.105921   	-0.0417476   	-0.0393737   	-0.138219   	-0.405084   	-0.766673   	-0.74497   	-0.389526   	-0.194085   	-0.162328
   	-0.111275   	-0.0764891   	-0.0414134   	-0.0228411   	-0.0517836   	-0.15454   	-0.330222   	-0.505572   	-0.50062   	-0.320837   	-0.191982   	-0.140257
   	-0.0594546   	-0.0268949   	-0.0153209   	-0.0207112   	-0.0542722   	-0.108068   	-0.143548   	-0.153562   	-0.158112   	-0.148495   	-0.13177   	-0.10319
   	-0.0435404   	-0.0163271   	-0.016336   	-0.0320004   	-0.0547227   	-0.0626497   	-0.0378989   	-0.0130469   	-0.0210196   	-0.0541747   	-0.084511   	-0.0816137
   	-0.0541195   	-0.0272392   	-0.0310201   	-0.048565   	-0.0580497   	-0.0465044   	-0.0151183   	0.00685046   	-0.000768048   	-0.0340402   	-0.0740956   	-0.0867719
   	-0.0792478   	-0.0447509   	-0.0462429   	-0.0594847   	-0.0599294   	-0.0509534   	-0.0359629   	-0.0258314   	-0.0352269   	-0.0652535   	-0.103713   	-0.117558
   	-0.0852054   	-0.04469   	-0.0455892   	-0.0555659   	-0.0541236   	-0.0585822   	-0.0774815   	-0.102707   	-0.127539   	-0.149177   	-0.160936   	-0.143165

   	-0.0734962   	-0.0216253   	-0.0570323   	-0.0733812   	-0.0610009   	-0.077833   	-0.175202   	-0.364306   	-0.517959   	-0.484875   	-0.350657   	-0.203073
   	-0.0279411   	-0.00366641   	-0.035407   	-0.0468306   	-0.0418875   	-0.0794258   	-0.248535   	-0.599506   	-0.826401   	-0.613006   	-0.316003   	-0.126904
   	-0.0705489   	-0.0996719   	-0.0980553   	-0.0561357   	-0.0287553   	-0.0662602   	-0.242199   	-0.56695   	-0.642608   	-0.350064   	-0.14678   	-0.0654213
   	-0.149443   	-0.210806   	-0.161874   	-0.0664253   	-0.0209831   	-0.065741   	-0.262584   	-0.560253   	-0.460605   	-0.137695   	-0.0449548   	-0.0585432
   	-0.178107   	-0.219804   	-0.15102   	-0.0546554   	-0.0249101   	-0.120021   	-0.474627   	-1.04329   	-0.89562   	-0.306407   	-0.098777   	-0.092489
   	-0.139119   	-0.136976   	-0.0870045   	-0.0325673   	-0.0423115   	-0.197115   	-0.679692   	-1.49839   	-1.50366   	-0.681275   	-0.244197   	-0.133569
   	-0.0862593   	-0.0564304   	-0.0328745   	-0.0184325   	-0.0519541   	-0.176383   	-0.457212   	-0.912163   	-1.07439   	-0.667034   	-0.305353   	-0.147365
   	-0.0539912   	-0.0167709   	-0.0100161   	-0.0156624   	-0.0402157   	-0.0684857   	-0.0986608   	-0.205014   	-0.348993   	-0.346747   	-0.238209   	-0.131632
   	-0.0549411   	-0.0178168   	-0.0186748   	-0.0286419   	-0.0301362   	0.00833495   	0.0669027   	0.0447049   	-0.0526515   	-0.139914   	-0.162031   	-0.122181
   	-0.102671   	-0.0703547   	-0.0704389   	-0.0675687   	-0.0438664   	0.00983632   	0.0680975   	0.0632374   	0.00103289   	-0.0759621   	-0.136444   	-0.147207
   	-0.177766   	-0.154205   	-0.147762   	-0.11651   	-0.068396   	-0.0242703   	0.00799544   	0.00428814   	-0.0371612   	-0.0971886   	-0.165669   	-0.201679
   	-0.163633   	-0.134518   	-0.145591   	-0.121878   	-0.0769208   	-0.0560937   	-0.0713526   	-0.119535   	-0.176056   	-0.217533   	-0.243781   	-0.224007

   	-0.128347   	-0.101448   	-0.145296   	-0.120633   	-0.0709357   	-0.0603472   	-0.126249   	-0.306413   	-0.48843   	-0.465609   	-0.344701   	-0.224367
   	0.00782837   	0.0409526   	-0.00482939   	-0.0302138   	-0.0301631   	-0.0630416   	-0.213053   	-0.565894   	-0.840297   	-0.612803   	-0.28404   	-0.0914576
   	-0.00937717   	-0.0264839   	-0.0404016   	-0.0247435   	-0.0129008   	-0.0541053   	-0.222126   	-0.558289   	-0.68121   	-0.37095   	-0.122013   	-0.0213465
   	-0.0673143   	-0.116064   	-0.0964717   	-0.0387751   	-0.0137963   	-0.0650749   	-0.2446   	-0.503793   	-0.419671   	-0.126942   	-0.0210399   	-0.0122483
   	-0.0835712   	-0.123708   	-0.0925669   	-0.0349796   	-0.0245561   	-0.11485   	-0.390006   	-0.770438   	-0.614565   	-0.189856   	-0.0405909   	-0.0281395
   	-0.0599316   	-0.0719885   	-0.0503727   	-0.0193015   	-0.0339893   	-0.153523   	-0.502365   	-1.1008   	-1.14003   	-0.526161   	-0.159951   	-0.056071
   	-0.0364466   	-0.0230184   	-0.0127873   	-0.00245756   	-0.0149367   	-0.0689001   	-0.254546   	-0.714983   	-1.00617   	-0.647059   	-0.254129   	-0.085297
   	-0.0292489   	-0.00143746   	0.00339708   	0.010731   	0.0374321   	0.122004   	0.170041   	-0.0595731   	-0.379539   	-0.399532   	-0.232971   	-0.100748
   	-0.0665344   	-0.0347425   	-0.026303   	-0.00488899   	0.0593972   	0.223999   	0.371633   	0.226507   	-0.0437545   	-0.188982   	-0.191301   	-0.133169
   	-0.226371   	-0.232574   	-0.191546   	-0.0966006   	0.0103729   	0.163063   	0.297122   	0.221271   	0.0287402   	-0.116861   	-0.197218   	-0.228932
   	-0.490568   	-0.610902   	-0.498636   	-0.246657   	-0.067247   	0.0570801   	0.143846   	0.113904   	-0.00401337   	-0.11787   	-0.234139   	-0.356538
   	-0.430985   	-0.5426   	-0.498334   	-0.280027   	-0.111327   	-0.0253353   	0.00293801   	-0.0468485   	-0.140308   	-0.214704   	-0.292588   	-0.35812

   	-0.200392   	-0.251108   	-0.244106   	-0.14272   	-0.0588945   	-0.0206289   	-0.0393166   	-0.148244   	-0.263748   	-0.254375   	-0.205181   	-0.183675
   	0.00530457   	0.0311315   	0.00175597   	-0.0116056   	-0.00996368   	-0.029082   	-0.115229   	-0.305906   	-0.447143   	-0.332294   	-0.159462   	-0.0559357
   	0.0046143   	0.0164076   	0.00983136   	0.00898305   	0.00658033   	-0.0234814   	-0.116545   	-0.284393   	-0.360645   	-0.226582   	-0.0871324   	-0.0191047
   	-0.0408671   	-0.0463655   	-0.029891   	-0.00539957   	-0.000884752   	-0.034547   	-0.115362   	-0.206131   	-0.180057   	-0.0838879   	-0.0344684   	-0.0210678
   	-0.0505109   	-0.058084   	-0.0368115   	-0.0105041   	-0.0128622   	-0.0609589   	-0.155666   	-0.234547   	-0.169839   	-0.0669492   	-0.0273126   	-0.0208332
   	-0.0288116   	-0.029634   	-0.0149772   	0.000914494   	-0.00765372   	-0.0568922   	-0.170449   	-0.341856   	-0.373919   	-0.207741   	-0.0704191   	-0.0191409
   	-0.010109   	-0.00115814   	0.00956527   	0.025052   	0.0435399   	0.0665939   	0.0225618   	-0.209326   	-0.407651   	-0.293379   	-0.111357   	-0.0258742
   	-0.0114115   	0.00481789   	0.0179272   	0.0490642   	0.135067   	0.322974   	0.44812   	0.194084   	-0.141567   	-0.198592   	-0.109295   	-0.0414153
   	-0.0826694   	-0.0705753   	-0.0381558   	0.0279491   	0.167783   	0.483177   	0.765994   	0.496223   	0.0637157   	-0.114471   	-0.126956   	-0.103423
   	-0.385936   	-0.469281   	-0.330138   	-0.106629   	0.0888215   	0.387207   	0.692325   	0.52714   	0.128929   	-0.101249   	-0.200519   	-0.277557
   	-0.902965   	-1.27501   	-0.901778   	-0.338924   	-0.0340651   	0.193737   	0.400263   	0.346205   	0.0952797   	-0.0984263   	-0.253407   	-0.481282
   	-0.749077   	-1.09875   	-0.866582   	-0.388749   	-0.114398   	0.0345732   	0.127693   	0.0916948   	-0.0357085   	-0.134143   	-0.24179   	-0.420644

   	-0.136531   	-0.217168   	-0.186394   	-0.100212   	-0.0291222   	0.0246688   	0.0456482   	-0.00989668   	-0.0815749   	-0.0810848   	-0.0526791   	-0.0606097
   	0.00962052   	0.00108674   	-0.00973491   	-0.00728524   	0.000197442   	-0.000817317   	-0.0342278   	-0.114296   	-0.169735   	-0.126855   	-0.052215   	-0.00575561
   	0.00567279   	0.0177635   	0.0177299   	0.0163769   	0.0127131   	-0.00168965   	-0.04113   	-0.110493   	-0.155144   	-0.121414   	-0.0592162   	-0.0151734
   	-0.0282989   	-0.01157   	0.00262843   	0.0106456   	0.00768338   	-0.0084406   	-0.0354544   	-0.06536   	-0.0803887   	-0.0751288   	-0.0551724   	-0.0322748
   	-0.0351651   	-0.0201775   	-0.00385536   	0.00558881   	0.000559514   	-0.0194503   	-0.0423609   	-0.0513267   	-0.0482304   	-0.0494948   	-0.0432608   	-0.0275319
   	-0.0183883   	-0.00677313   	0.00656227   	0.0154401   	0.0125427   	-0.00510689   	-0.0352599   	-0.0734073   	-0.0948346   	-0.0733435   	-0.03631   	-0.0101069
   	-0.00327436   	0.00671453   	0.0210517   	0.0401919   	0.0651107   	0.0908359   	0.0805307   	-0.00680241   	-0.0917303   	-0.0772017   	-0.0267594   	0.00178152
   	-0.00594314   	0.00182903   	0.0211811   	0.0622034   	0.147798   	0.293071   	0.37788   	0.219525   	0.0127087   	-0.0409276   	-0.0185097   	-0.00120165
   	-0.0661472   	-0.0689808   	-0.0327174   	0.0407685   	0.182247   	0.473604   	0.740394   	0.516912   	0.132113   	-0.0232667   	-0.0429905   	-0.0440335
   	-0.295428   	-0.368098   	-0.24861   	-0.0635685   	0.124398   	0.464715   	0.872572   	0.730177   	0.259316   	-0.00297255   	-0.0956427   	-0.162567
   	-0.638289   	-0.889921   	-0.614433   	-0.225219   	0.0214887   	0.293724   	0.619133   	0.594723   	0.263385   	0.0248052   	-0.110095   	-0.278665
   	-0.507692   	-0.757127   	-0.577292   	-0.262882   	-0.0599715   	0.102677   	0.2526   	0.239003   	0.0897697   	-0.0136961   	-0.0837239   	-0.21352

   	-0.0314474   	-0.0826985   	-0.0851493   	-0.0558209   	-0.0136403   	0.0407414   	0.0828417   	0.0526649   	-0.00725086   	-0.0130476   	0.0148641   	0.0222153
   	0.0012965   	-0.0110418   	-0.015796   	-0.0125807   	-0.00409693   	0.00730889   	0.00576213   	-0.0305994   	-0.0682301   	-0.0578313   	-0.0199495   	0.00485619
   	-0.0037122   	0.00313108   	0.00596295   	0.00688074   	0.00651246   	0.00464532   	-0.00621387   	-0.0392335   	-0.0778083   	-0.0793975   	-0.0469731   	-0.0153279
   	-0.0146041   	0.000238336   	0.0068398   	0.00731014   	0.00569683   	0.0026013   	-0.00255722   	-0.017676   	-0.0488044   	-0.0688963   	-0.0548266   	-0.0254306
   	-0.013906   	-0.00127336   	0.00301406   	0.00194588   	0.000575762   	-0.00418048   	-0.00774139   	-0.00911562   	-0.0242014   	-0.0427093   	-0.0379231   	-0.0151139
   	-0.00419228   	0.00240347   	0.00606833   	0.00789276   	0.00865041   	0.000943628   	-0.0101866   	-0.0159135   	-0.0211167   	-0.0199036   	-0.00929015   	0.00585358
   	0.00562173   	0.00649266   	0.0137227   	0.0261001   	0.0401496   	0.0438605   	0.0301041   	0.00627674   	-0.00777462   	0.00329351   	0.0183487   	0.0245818
   	0.0120637   	0.00422807   	0.0138445   	0.0408001   	0.0847459   	0.136823   	0.153384   	0.0940331   	0.0270478   	0.0203811   	0.037959   	0.0406174
   	0.00861551   	-0.0175954   	-0.0107865   	0.0279719   	0.104443   	0.243091   	0.370036   	0.295384   	0.126151   	0.0575412   	0.0616346   	0.0603377
   	-0.0332292   	-0.100442   	-0.0884963   	-0.0219979   	0.0822204   	0.294145   	0.580058   	0.585046   	0.33423   	0.165716   	0.113058   	0.0815494
   	-0.111519   	-0.234014   	-0.201459   	-0.0889483   	0.0351129   	0.23768   	0.523504   	0.581676   	0.375673   	0.210353   	0.138141   	0.0780215
   	-0.0974755   	-0.211569   	-0.199616   	-0.113404   	-0.0157322   	0.113926   	0.261636   	0.270286   	0.154666   	0.0855293   	0.0704606   	0.0424793

   	0.0112451   	-0.0268172   	-0.0468143   	-0.0422797   	-0.0154087   	0.0327058   	0.0765827   	0.054084   	0.000123587   	-0.00245789   	0.0317344   	0.0528038
   	-0.00908839   	-0.0195145   	-0.0275417   	-0.0273974   	-0.0166378   	0.00415256   	0.020891   	-0.000174414   	-0.040998   	-0.0470325   	-0.0221874   	-0.000129669
   	-0.0119236   	-0.0101048   	-0.0130907   	-0.0151696   	-0.00821862   	0.00475988   	0.0126654   	-0.00644609   	-0.0493041   	-0.0666351   	-0.0449946   	-0.0166937
   	-0.00509296   	-0.00113147   	-0.0105167   	-0.0236902   	-0.0152711   	0.00492369   	0.0177808   	0.0115326   	-0.024692   	-0.0527292   	-0.0406407   	-0.0124236
   	0.00283653   	-0.000501322   	-0.020198   	-0.0422302   	-0.0314891   	-0.00857149   	0.00733213   	0.0180182   	0.00646027   	-0.01289   	-0.0108841   	0.00545757
   	0.00937922   	-0.0022335   	-0.0207846   	-0.0350124   	-0.0258036   	-0.0150362   	-0.00696274   	0.0110553   	0.0259657   	0.0296314   	0.0285867   	0.0283233
   	0.0196142   	0.00188553   	-0.00850434   	-0.00972914   	-0.00154811   	-0.000562259   	-0.00343506   	0.0078604   	0.0335074   	0.0589245   	0.0652692   	0.0537625
   	0.040184   	0.0111886   	0.00356145   	0.0109327   	0.0250494   	0.0350907   	0.0364174   	0.0348175   	0.0488955   	0.0850376   	0.10817   	0.0935224
   	0.0791325   	0.0239852   	0.00512948   	0.0116267   	0.0353002   	0.0792416   	0.130716   	0.147619   	0.142775   	0.165632   	0.19238   	0.170732
   	0.120948   	0.0268787   	-0.0104372   	-0.00547513   	0.0298424   	0.116585   	0.253915   	0.33349   	0.318475   	0.305093   	0.308324   	0.269911
   	0.11404   	0.0010885   	-0.04216   	-0.0296292   	0.0179646   	0.120175   	0.274213   	0.348081   	0.312575   	0.292987   	0.303252   	0.279481
   	0.0639526   	-0.021309   	-0.059876   	-0.0495752   	-0.00446678   	0.0791626   	0.17486   	0.177561   	0.116459   	0.111977   	0.151906   	0.166518

   	0.0284659   	-0.0208956   	-0.0508066   	-0.0510671   	-0.0250696   	0.0201708   	0.0593735   	0.0409819   	-0.00307068   	0.00396503   	0.0503761   	0.0777431
   	-0.00523297   	-0.0301909   	-0.0532199   	-0.0571204   	-0.0354083   	-0.000742121   	0.0271478   	0.0118483   	-0.0303736   	-0.039247   	-0.012674   	0.0130822
   	-0.00873629   	-0.0245695   	-0.0544554   	-0.0734583   	-0.0430169   	0.00336672   	0.0287712   	0.0132889   	-0.0357504   	-0.0579286   	-0.0355019   	-0.00520906
   	0.00202025   	-0.0186044   	-0.0791307   	-0.148838   	-0.101883   	-0.00594655   	0.0386571   	0.0390192   	-0.00205223   	-0.0336281   	-0.021944   	0.00316461
   	0.0103832   	-0.0218983   	-0.106859   	-0.212279   	-0.165352   	-0.0471504   	0.0180926   	0.049322   	0.0422911   	0.0200569   	0.0160479   	0.0221127
   	0.0154488   	-0.0201783   	-0.0844761   	-0.149579   	-0.124142   	-0.0581408   	-0.00623751   	0.0407121   	0.0683094   	0.0692574   	0.0575708   	0.04305
   	0.0262603   	-0.00691411   	-0.0405995   	-0.064371   	-0.0561755   	-0.0363784   	-0.010664   	0.0295083   	0.0726556   	0.0982304   	0.0938159   	0.0678295
   	0.0487671   	0.0110956   	-0.00822682   	-0.0148927   	-0.0124196   	-0.00730052   	0.00670698   	0.037016   	0.0817477   	0.127195   	0.140651   	0.109662
   	0.0918492   	0.0324251   	0.00735447   	0.000567715   	0.00288339   	0.0160554   	0.04582   	0.086966   	0.136478   	0.19599   	0.227585   	0.190689
   	0.144076   	0.0506474   	0.00938281   	-0.00183796   	0.00436281   	0.0345967   	0.0931748   	0.153358   	0.204731   	0.272279   	0.324143   	0.290039
   	0.15203   	0.0440217   	-0.00494243   	-0.0131973   	0.00329128   	0.047403   	0.110888   	0.144984   	0.160137   	0.222133   	0.301897   	0.301028
   	0.0986385   	0.0107391   	-0.0328973   	-0.0354112   	-0.0076573   	0.046368   	0.0984355   	0.0865249   	0.053079   	0.0922815   	0.175357   	0.202127

   	0.0173971   	-0.0381814   	-0.0671954   	-0.0620228   	-0.0304653   	0.012905   	0.0454832   	0.0357669   	0.00950468   	0.0213357   	0.0613952   	0.0728688
   	-0.00903033   	-0.0488458   	-0.0863876   	-0.0919024   	-0.0520596   	-0.000904243   	0.0316163   	0.021213   	-0.0123288   	-0.0190703   	0.00304217   	0.0190616
   	-0.0102563   	-0.0528506   	-0.132259   	-0.186481   	-0.110628   	-0.006445   	0.0383601   	0.0257345   	-0.0208048   	-0.0422323   	-0.0227217   	0.00211587
   	-0.00404397   	-0.0717952   	-0.246639   	-0.451296   	-0.311355   	-0.0572458   	0.0405249   	0.0507521   	0.0111345   	-0.0199181   	-0.0103495   	0.00932738
   	0.000749394   	-0.0797439   	-0.295239   	-0.590385   	-0.461803   	-0.145162   	0.00393492   	0.0577306   	0.0533506   	0.0299714   	0.0237313   	0.0240722
   	0.00853439   	-0.0506675   	-0.180624   	-0.339891   	-0.295839   	-0.135649   	-0.0238733   	0.044228   	0.0720678   	0.0683137   	0.0546206   	0.0378807
   	0.0182623   	-0.0181451   	-0.0720795   	-0.124276   	-0.118295   	-0.0733748   	-0.0217499   	0.0295064   	0.0680835   	0.0829256   	0.0739088   	0.0503989
   	0.0302976   	0.00268391   	-0.018875   	-0.0329759   	-0.0346324   	-0.0268898   	-0.00639434   	0.0266997   	0.0636788   	0.0919513   	0.0945784   	0.0697702
   	0.0547251   	0.0191217   	0.0016806   	-0.00607068   	-0.00894645   	-0.00511296   	0.0115724   	0.0395811   	0.0754795   	0.116308   	0.136519   	0.112923
   	0.0896215   	0.032467   	0.00610376   	-0.00348595   	-0.00440113   	0.00569847   	0.0280382   	0.0529378   	0.0839577   	0.138152   	0.187076   	0.173682
   	0.101484   	0.0267821   	-0.0064369   	-0.012783   	-0.00443253   	0.0162644   	0.0402207   	0.0473013   	0.0564064   	0.112531   	0.188745   	0.195308
   	0.0689188   	-0.00657751   	-0.0387819   	-0.0365011   	-0.0120135   	0.0265489   	0.0563742   	0.0451519   	0.0276499   	0.0689211   	0.143474   	0.155523

   	-0.0293245   	-0.0626429   	-0.0725094   	-0.0586066   	-0.0281023   	0.00585558   	0.0280472   	0.0270301   	0.0175152   	0.0221521   	0.0320799   	0.0138619
   	-0.0386132   	-0.0671351   	-0.0949404   	-0.0945709   	-0.0523986   	-0.00343186   	0.0226266   	0.0185495   	0.00184028   	-0.00528926   	-0.00419509   	-0.0124531
   	-0.0304232   	-0.0792852   	-0.168265   	-0.219248   	-0.133324   	-0.022615   	0.0243988   	0.0195469   	-0.00984562   	-0.0271828   	-0.022348   	-0.0148169
   	-0.0335032   	-0.134685   	-0.340137   	-0.520437   	-0.345752   	-0.0884813   	0.0162127   	0.0337401   	0.00695666   	-0.0179313   	-0.0148284   	-0.00603009
   	-0.0351331   	-0.147192   	-0.379494   	-0.631314   	-0.474729   	-0.17148   	-0.0220235   	0.0304589   	0.0295797   	0.011735   	0.00705818   	0.00332852
   	-0.0172977   	-0.0797716   	-0.202992   	-0.344696   	-0.30628   	-0.158562   	-0.0513589   	0.00878235   	0.0327213   	0.0315429   	0.0236698   	0.0110951
   	-0.00169315   	-0.0269975   	-0.0720147   	-0.120794   	-0.123992   	-0.0889331   	-0.0452463   	-0.0042026   	0.024891   	0.0343775   	0.0283689   	0.0150321
   	0.00484459   	-0.00606338   	-0.020124   	-0.0327224   	-0.0386275   	-0.0379243   	-0.0257908   	-0.00313033   	0.0200029   	0.0326857   	0.0302887   	0.0184917
   	0.0141003   	0.00348994   	-0.00399717   	-0.00935311   	-0.0142539   	-0.0170662   	-0.0111027   	0.00367845   	0.0216949   	0.0376998   	0.0425904   	0.0326289
   	0.0281515   	0.00757934   	-0.00341041   	-0.00898842   	-0.0113477   	-0.00910373   	-0.000971175   	0.00931335   	0.0227278   	0.0453   	0.0644598   	0.0577741
   	0.0293013   	-0.00371221   	-0.0171526   	-0.0182995   	-0.0122226   	-0.00106285   	0.00961842   	0.0123165   	0.0169331   	0.0430381   	0.0754978   	0.0702125
   	0.00751523   	-0.0336756   	-0.0451228   	-0.036328   	-0.0156701   	0.010141   	0.0278341   	0.0250168   	0.0196693   	0.0411135   	0.0722711   	0.0589031

   	-0.074795   	-0.0720829   	-0.0625019   	-0.0482503   	-0.0290339   	-0.0115806   	-0.0041578   	-0.00541926   	-0.0091467   	-0.015817   	-0.031404   	-0.0612712
   	-0.0702261   	-0.0698352   	-0.0729713   	-0.0660365   	-0.041151   	-0.0156747   	-0.00758312   	-0.0115994   	-0.0140798   	-0.0197614   	-0.0367323   	-0.0600185
   	-0.0573035   	-0.0826429   	-0.116314   	-0.121745   	-0.0759209   	-0.0235485   	-0.00241254   	-0.00622262   	-0.0157329   	-0.0231867   	-0.0319223   	-0.0423598
   	-0.0795363   	-0.157698   	-0.230964   	-0.243497   	-0.151969   	-0.0498886   	-0.00226431   	0.00390409   	-0.0117155   	-0.0254543   	-0.027666   	-0.0350038
   	-0.097135   	-0.184147   	-0.258599   	-0.286971   	-0.206013   	-0.0973219   	-0.0375068   	-0.0179519   	-0.0193639   	-0.0239441   	-0.0229223   	-0.0364734
   	-0.0680641   	-0.105595   	-0.139479   	-0.170868   	-0.158334   	-0.116734   	-0.0839466   	-0.0595322   	-0.0358436   	-0.0207883   	-0.0179479   	-0.0326307
   	-0.0336907   	-0.0388251   	-0.0485789   	-0.0659183   	-0.0797759   	-0.0867321   	-0.082622   	-0.0613458   	-0.0312155   	-0.0135694   	-0.0142262   	-0.024804
   	-0.0175205   	-0.0134649   	-0.0147714   	-0.0213549   	-0.0343745   	-0.0501455   	-0.052284   	-0.0351   	-0.0135905   	-0.00485636   	-0.010592   	-0.0184809
   	-0.0107951   	-0.0066704   	-0.00756826   	-0.0128687   	-0.0224872   	-0.031789   	-0.0292111   	-0.0146746   	-0.00080325   	0.00281837   	-0.0041258   	-0.0119178
   	-0.0094499   	-0.00894971   	-0.01179   	-0.0178374   	-0.0234303   	-0.0244825   	-0.0173437   	-0.0056743   	0.00345249   	0.00706159   	0.00302569   	-0.00658786
   	-0.0212484   	-0.0237434   	-0.0244385   	-0.0258753   	-0.0243714   	-0.018747   	-0.0107355   	-0.00420274   	-0.000400136   	0.00312497   	0.00149982   	-0.0130632
   	-0.0409862   	-0.0462813   	-0.0417043   	-0.0342478   	-0.0231877   	-0.0108929   	-0.00313556   	-0.00237194   	-0.00392728   	-0.00180572   	-0.00366111   	-0.0256931

   	-0.0837763   	-0.0584514   	-0.0483671   	-0.0437728   	-0.0366144   	-0.036345   	-0.0532423   	-0.0777751   	-0.0936882   	-0.100428   	-0.105153   	-0.106413
   	-0.0780934   	-0.0629732   	-0.0576017   	-0.0498153   	-0.0378098   	-0.0357473   	-0.0598912   	-0.0941559   	-0.102194   	-0.0905026   	-0.0879838   	-0.088356
   	-0.0805581   	-0.0912705   	-0.085198   	-0.0631664   	-0.0394208   	-0.0275593   	-0.0420304   	-0.0680311   	-0.0672404   	-0.0499331   	-0.050662   	-0.0606473
   	-0.128442   	-0.17361   	-0.149849   	-0.092656   	-0.0467686   	-0.0229642   	-0.0295137   	-0.055164   	-0.0609427   	-0.0457736   	-0.0426395   	-0.0620677
   	-0.165179   	-0.209853   	-0.168299   	-0.102414   	-0.0605516   	-0.0511526   	-0.0836539   	-0.13702   	-0.137776   	-0.0893026   	-0.0618556   	-0.0817848
   	-0.131628   	-0.137598   	-0.099847   	-0.065851   	-0.0624181   	-0.096988   	-0.170592   	-0.237016   	-0.207903   	-0.122036   	-0.0783721   	-0.0882982
   	-0.0752197   	-0.059219   	-0.0379562   	-0.0293342   	-0.0490346   	-0.101303   	-0.162509   	-0.186561   	-0.148416   	-0.0935317   	-0.07202   	-0.074572
   	-0.0410223   	-0.0230939   	-0.0140697   	-0.0165206   	-0.0382468   	-0.074109   	-0.0931281   	-0.0797968   	-0.0557397   	-0.0458935   	-0.05285   	-0.0563637
   	-0.0290755   	-0.0140562   	-0.0122704   	-0.0210911   	-0.037776   	-0.0515605   	-0.0444997   	-0.0229186   	-0.0108679   	-0.0189797   	-0.0378269   	-0.0454922
   	-0.0318062   	-0.0176875   	-0.01844   	-0.0297137   	-0.0400774   	-0.0405201   	-0.0262256   	-0.0081503   	-0.00268164   	-0.014413   	-0.0350788   	-0.0464135
   	-0.0473524   	-0.0296198   	-0.0267544   	-0.0347311   	-0.0391201   	-0.0364009   	-0.0270766   	-0.0174473   	-0.0178122   	-0.0304792   	-0.0496578   	-0.0622985
   	-0.0609354   	-0.0417221   	-0.0336122   	-0.0354747   	-0.0350545   	-0.0342838   	-0.0373769   	-0.0426925   	-0.0502258   	-0.0594423   	-0.0687669   	-0.0757389

