12 12 12
   	1.19105   	-0.625698   	-0.729238   	1.37281   	2.59751   	3.77422   	-2.52953   	-4.29486   	-0.678133   	-6.40963   	0.0186776   	0.918997
   	-4.98758   	-0.612257   	-5.34041   	-4.34307   	-1.51685   	-5.42987   	2.92758   	-0.145484   	3.14852   	0.713972   	0.701182   	2.01345
   	-2.8528   	6.44702   	10.7369   	3.6462   	0.000926172   	-8.39352   	-1.1776   	-0.439019   	-2.80252   	-3.30477   	-2.22352   	1.2901
   	3.17157   	7.44027   	-0.520784   	-2.9618   	0.0238685   	-4.42207   	2.64633   	-4.79816   	-3.57502   	-6.22696   	-5.93991   	-0.886742
   	-2.77093   	-0.333642   	0.933709   	-5.89662   	-2.27681   	0.73731   	-0.790811   	0.389363   	2.3807   	-1.6951   	8.05552   	-3.44394
   	-0.416822   	0.0937292   	-1.33811   	-2.19339   	3.16384   	8.36913   	3.37978   	-0.872439   	-1.86821   	3.10124   	-0.749417   	-1.23681
   	4.50826   	-1.21458   	-5.20569   	-0.241587   	4.2073   	-0.621041   	-0.72232   	-2.39844   	-1.38504   	3.76293   	5.58414   	4.79563
   	-5.32163   	5.64101   	1.62061   	8.82448   	-2.11891   	-1.6113   	-1.8066   	6.34015   	6.10085   	-4.18225   	-4.68571   	9.3608
   	-10.0357   	0.332755   	-2.03383   	-7.27785   	1.09178   	0.826221   	-1.00696   	-1.26229   	-6.7108   	2.91536   	-4.7157   	4.79588
   	-4.24216   	0.604998   	-1.79071   	-1.86581   	-2.79411   	-1.29451   	-1.04622   	-2.97516   	3.30177   	-6.8377   	-2.41655   	-0.827298
   	-0.30616   	9.1892   	-2.05644   	-0.832886   	1.4414   	-2.05671   	1.31124   	-2.52156   	0.542646   	-1.96224   	1.07543   	0.563528
   	-0.590919   	-0.467474   	2.45952   	3.84536   	-0.774468   	0.302021   	2.99947   	4.38652   	2.58445   	-1.5328   	5.37619   	1.53087

   	-4.88367   	-1.31086   	-1.71   	-5.59928   	2.33165   	0.113033   	-1.44353   	-0.67783   	-1.99242   	0.77655   	1.82625   	3.22929
   	-12.2786   	-4.29683   	7.03038   	-1.64221   	-0.13493   	-0.215126   	4.27056   	-3.39627   	-9.16312   	-0.560881   	0.103371   	9.26181
   	6.08714   	2.20552   	-8.22921   	1.95071   	-0.782647   	-2.33801   	4.06422   	5.28941   	-3.42389   	8.05658   	0.881507   	1.05244
   	1.38173   	-2.20498   	-1.12115   	-2.11222   	1.69288   	2.72821   	-3.29264   	-3.78636   	0.537291   	-3.4474   	3.03154   	0.399057
   	-0.457594   	2.38996   	-4.42503   	1.30636   	0.0245852   	3.02981   	0.393734   	-1.28336   	0.951475   	-5.5964   	-6.23322   	1.14158
   	1.83828   	3.31049   	-2.69424   	-0.217301   	-1.02062   	-7.56638   	-7.71058   	-0.33284   	-2.23484   	0.624347   	3.96299   	-3.74279
   	-12.3534   	3.82905   	-0.954229   	-2.71955   	2.01063   	-2.80338   	-2.87412   	-1.06501   	-1.85539   	-7.98257   	2.46088   	-2.09894
   	6.74163   	0.745717   	-1.17107   	-10.4247   	-0.588264   	3.22905   	-2.04147   	1.02002   	-2.60536   	-2.46669   	-4.47604   	-2.25055
   	-4.21672   	2.2321   	2.93575   	-2.60703   	3.64833   	-7.37642   	0.760283   	3.40412   	-4.64742   	-2.99508   	-5.44119   	-2.66956
   	0.355805   	-1.48929   	1.02271   	-2.54256   	0.224068   	11.6557   	-3.19043   	-1.77167   	-1.89568   	-0.43376   	4.27162   	-2.20975
   	-1.02915   	5.40861   	3.81195   	-2.48122   	-5.65626   	0.630885   	1.36919   	-5.0536   	5.52222   	1.91717   	6.44134   	0.920725
   	-1.51133   	0.643548   	-3.66951   	2.19746   	-0.557486   	-2.10737   	-0.19603   	2.66694   	-1.87537   	1.49356   	2.42561   	7.19799

   	4.33248   	-0.838796   	2.45246   	-2.35105   	2.81312   	3.35243   	-0.912768   	6.58444   	-5.14917   	-2.00025   	-0.977333   	1.73874
   	-7.4775   	-2.07464   	1.37122   	13.2337   	2.5011   	-0.980389   	-0.107092   	6.79971   	-7.20209   	4.50739   	2.13165   	0.540713
   	-0.0451766   	4.28122   	-9.60021   	0.706022   	4.30198   	-0.214406   	-1.77967   	6.77273   	1.52959   	-0.124036   	-4.31858   	-0.863301
   	-0.632812   	1.26642   	-3.23866   	-14.6175   	2.41626   	-0.623726   	1.98089   	2.39864   	1.51306   	-1.52341   	0.883544   	1.23845
   	-0.151435   	-0.433522   	4.54824   	1.73031   	11.1781   	-4.50671   	-6.09737   	-2.28718   	-3.12459   	-5.45655   	-0.117831   	0.954903
   	0.603826   	1.48968   	-0.510899   	1.55277   	3.09951   	-1.33564   	-10.8034   	-0.914815   	-1.55198   	0.587135   	2.46595   	2.50995
   	2.94096   	1.65227   	0.669058   	1.52013   	-3.69705   	-1.18436   	-1.92022   	-0.0371851   	-1.32602   	1.47116   	0.930238   	-1.98815
   	2.73646   	1.55224   	2.78928   	-0.164321   	3.27551   	-3.30403   	0.0654951   	0.71405   	0.167781   	-4.49143   	6.09351   	-0.939437
   	-3.23104   	-0.0717238   	4.06168   	4.94107   	-2.68803   	-1.90661   	1.42668   	-0.282579   	2.68529   	-5.10496   	-9.0516   	-4.665
   	2.07152   	3.04384   	-0.430643   	-4.29674   	-2.69075   	3.49522   	-2.00827   	-1.09235   	-0.80826   	-2.36753   	-5.43907   	-0.950489
   	-1.77844   	2.17452   	0.19204   	-0.265917   	-6.99732   	-3.83924   	-3.50409   	-2.72761   	0.52087   	-1.79024   	3.73891   	-0.74957
   	1.44296   	1.07877   	0.109291   	-0.517304   	-0.757424   	1.88455   	-2.9041   	-1.71668   	-0.00169995   	-0.915211   	5.46798   	-0.180411

   	0.663927   	2.11253   	3.37097   	-6.5865   	1.18696   	4.5681   	-1.60899   	-3.94011   	-3.85039   	-0.884008   	4.06824   	0.559012
   	0.541054   	-2.66614   	-0.270795   	-3.40426   	-1.25292   	3.59913   	-0.343007   	-0.0742201   	-5.29308   	-1.54442   	-4.01798   	2.60965
   	2.78423   	-3.07955   	-1.28946   	6.54062   	-0.396705   	-0.705343   	-2.59087   	-3.84936   	1.88374   	-1.07004   	0.814958   	1.53292
   	2.70998   	0.638378   	-0.333252   	-12.9351   	1.51955   	-0.39242   	1.53936   	1.65322   	2.50973   	0.976194   	0.692072   	0.0734616
   	-1.4104   	2.93308   	2.6137   	-8.18944   	0.464847   	-0.718522   	1.18909   	0.259045   	-3.75611   	5.80315   	-3.33026   	-3.33138
   	-0.398206   	2.3627   	0.88111   	-1.07064   	5.06734   	1.58174   	-2.01701   	0.377679   	-3.73515   	-0.444876   	0.0616245   	-0.981953
   	3.82309   	2.41507   	0.207141   	-1.16445   	0.304343   	-0.387225   	0.558573   	-0.780986   	-0.372859   	-2.55566   	7.0987   	-1.09414
   	-0.89453   	-0.50855   	-2.95246   	0.248235   	-5.07157   	-2.79955   	-0.3497   	0.0983562   	2.34608   	8.22214   	-8.43791   	-1.74789
   	-0.226491   	-2.30467   	-4.69392   	1.71697   	-4.34974   	1.39041   	-2.12329   	2.36037   	-2.77522   	0.341954   	-0.787016   	0.920345
   	-1.74293   	0.317038   	3.55431   	0.147379   	-3.91118   	0.147836   	-4.95272   	1.65172   	-1.35774   	-1.12421   	-3.61947   	-1.47169
   	6.39425   	3.41445   	-1.4046   	-2.19914   	-3.23702   	-0.192336   	-3.95371   	-6.57729   	-1.80418   	-1.58019   	-0.708108   	-7.95663
   	0.869143   	7.64438   	4.37376   	2.24668   	0.463045   	-1.67696   	-1.10327   	0.473527   	2.14599   	0.797871   	8.6112   	1.17267

   	0.971747   	-3.50323   	-0.169116   	-1.55066   	-0.591612   	-1.43288   	-0.910889   	1.38525   	-1.95689   	0.660681   	-3.25511   	-3.51934
   	2.82564   	-1.89092   	-9.04224   	0.103054   	-0.360402   	-4.31677   	2.7606   	0.566041   	2.99518   	0.683373   	1.42859   	-0.458888
   	3.66871   	-3.96541   	-2.24536   	-0.0142695   	-0.166434   	1.10126   	-1.82691   	-1.25648   	-2.20121   	1.58692   	1.71783   	0.401198
   	-2.52139   	-2.43819   	1.33512   	0.354999   	-5.19585   	-2.77945   	-1.7511   	-3.37449   	-3.42684   	1.4236   	0.290959   	0.365939
   	0.517506   	3.5349   	-0.27483   	3.4588   	1.57254   	2.0329   	-0.370422   	-0.889737   	5.38123   	1.51216   	-0.493251   	1.48021
   	7.93935   	2.11326   	1.18986   	-0.713677   	-2.17234   	-2.18588   	1.56318   	5.39694   	4.72913   	-3.4279   	-1.48356   	-0.0126095
   	-2.0063   	2.79383   	2.06519   	0.531802   	0.725163   	3.45153   	4.63944   	7.05249   	0.31104   	-2.5073   	1.57279   	-2.9352
   	-1.8677   	-0.789498   	-0.28226   	0.796385   	3.22621   	-4.32249   	0.0225123   	-1.26408   	0.908613   	3.91796   	-1.76915   	0.409813
   	2.90112   	1.01284   	-1.92156   	4.19208   	-0.172109   	1.33487   	-0.577571   	4.59885   	6.32513   	-0.838105   	-4.68166   	-1.17202
   	-0.572565   	3.73999   	-1.04612   	3.18116   	-2.94159   	-0.798977   	7.7943   	-0.612128   	1.81648   	-4.17007   	-2.08255   	6.20382
   	-1.13563   	3.29846   	3.40445   	-2.26547   	2.41671   	-2.14938   	-0.292475   	-3.30791   	-1.16219   	-5.22711   	-16.3777   	-5.79007
   	-1.46334   	0.800999   	3.0669   	0.133252   	0.728812   	-0.326508   	0.156238   	-0.251846   	0.539471   	4.22181   	-9.23964   	-6.45976

   	2.79048   	2.53581   	-3.1779   	-3.87237   	-2.57539   	2.60434   	-1.74805   	3.32518   	10.6676   	5.01716   	1.43736   	3.74584
   	-1.32602   	-6.06494   	-1.76791   	-2.29854   	-4.01136   	0.321445   	4.1337   	1.40776   	3.36758   	10.7829   	1.05107   	1.57747
   	-2.09535   	-5.94852   	-2.30877   	-3.63259   	1.97958   	1.5264   	3.51411   	-2.25014   	1.41768   	-0.0409639   	5.42152   	-0.0448269
   	-0.524583   	-0.865179   	-8.14118   	5.63427   	-1.56437   	0.375452   	2.53509   	-0.0320158   	-0.305525   	-0.23311   	2.13871   	3.15702
   	-0.111296   	0.521749   	2.85749   	1.46352   	3.01146   	0.078495   	2.36907   	0.315655   	0.935043   	0.976643   	3.02172   	-0.774057
   	0.383584   	2.94343   	-2.77066   	3.22655   	1.05176   	1.61138   	8.25492   	11.0456   	2.64106   	-0.144311   	1.44921   	-0.297686
   	2.04975   	1.58901   	1.60861   	0.49998   	-0.904178   	0.800353   	5.26213   	0.470745   	-1.06499   	-7.84518   	-2.68078   	3.38202
   	-1.22619   	3.32591   	0.1583   	-1.59743   	0.118085   	0.739761   	-2.91263   	-0.822731   	-1.02178   	1.46238   	1.72052   	2.3329
   	-0.703298   	-0.74353   	2.25117   	-0.577034   	0.893837   	-2.17868   	2.05901   	-0.181377   	-2.21211   	-0.198987   	2.02739   	4.13929
   	-4.48591   	-4.32505   	1.1328   	1.1796   	0.0766576   	1.76431   	0.874134   	1.44484   	-1.74186   	-1.01726   	-2.00552   	-1.52965
   	-1.6719   	4.55984   	-2.77122   	7.3361   	-7.06708   	-0.534952   	0.689015   	2.95283   	-2.44583   	-4.57912   	-3.88682   	17.2202
   	0.896844   	-0.847527   	1.3706   	-1.23553   	6.69674   	-1.18669   	-1.88049   	1.43475   	0.0118561   	6.18437e-005   	7.78951   	4.2528

   	0.431812   	-4.10307   	-3.69009   	2.92303   	-2.51338   	-1.35047   	-0.565481   	-0.818703   	-1.40123   	-0.244167   	-2.57062   	2.85073
   	-2.71551   	-0.407355   	-6.18105   	-1.88166   	-6.86015   	-0.138056   	1.94336   	-0.959625   	3.99593   	3.7485   	3.33072   	-0.617171
   	4.81391   	-9.689   	-2.44069   	6.85008   	4.08864   	-0.34983   	2.75525   	-0.398267   	7.67776   	2.30023   	3.54627   	-1.74924
   	3.32307   	-2.08929   	3.65405   	-0.0541798   	1.71859   	0.389597   	-2.76946   	0.698197   	0.993643   	0.914935   	-1.86754   	-1.28639
   	-2.82343   	-2.48702   	-1.7759   	-2.08548   	-2.4801   	-3.79351   	4.00138   	4.33283   	-0.351352   	-1.85051   	-2.81115   	0.235509
   	0.0892553   	-1.52197   	-1.1047   	-3.19021   	3.11059   	-2.42954   	-1.93394   	-2.26671   	-1.48912   	-0.0878681   	-2.07602   	1.93211
   	0.181758   	0.576293   	4.25564   	-1.77965   	4.40175   	-4.16385   	3.17656   	3.10127   	2.37093   	1.11087   	0.225419   	-0.992038
   	0.531313   	-1.47844   	0.323296   	6.96199   	4.66751   	-3.3962   	3.07785   	-1.27673   	0.448278   	0.970291   	-0.734332   	-0.603881
   	-1.14435   	-1.89846   	-1.20076   	2.23448   	-0.57804   	-1.07297   	1.63227   	-1.73901   	-1.86422   	-3.88742   	1.32126   	-0.449038
   	3.144   	1.14935   	1.53336   	0.498566   	-0.221959   	-2.32563   	0.389933   	-2.75338   	1.25416   	-0.933526   	-0.714997   	4.04431
   	3.21508   	-1.04444   	0.883831   	1.55204   	-3.4899   	-1.5028   	2.08179   	-0.162293   	0.144369   	0.575538   	-1.92825   	3.46233
   	-0.338524   	0.132841   	-0.470266   	10.7767   	1.12964   	0.386673   	-1.9945   	1.47152   	2.53661   	1.02938   	2.92081   	0.909628

   	-2.13848   	-1.17508   	-3.26608   	1.59699   	3.65173   	0.246847   	1.04979   	-3.08936   	1.91023   	1.54741   	2.62774   	3.24252
   	-4.76379   	-2.54809   	-3.33792   	-0.410202   	-5.68784   	0.806004   	-3.50621   	3.2762   	3.91622   	-0.197664   	1.70277   	-3.22087
   	-4.36388   	-0.662401   	2.40576   	-5.63195   	1.62357   	-0.62093   	-2.81636   	-2.58527   	-2.40525   	3.10702   	2.44454   	8.06582
   	-2.02049   	-1.27041   	1.36274   	-1.73988   	3.31281   	0.963549   	-0.159683   	1.77963   	4.69264   	-1.64593   	1.02093   	3.69101
   	-1.5035   	-2.49214   	0.747876   	0.616046   	0.238799   	0.599831   	0.453537   	4.60145   	0.886898   	2.85149   	1.08827   	-0.145873
   	0.967443   	-0.975366   	1.00687   	-3.20163   	0.14328   	2.57535   	-6.79281   	-1.51614   	1.68464   	-1.28582   	-5.56641   	-1.66381
   	1.86468   	3.17449   	0.670792   	-1.70752   	1.24976   	0.778936   	2.17702   	-2.24782   	-1.7888   	-1.94853   	-0.354449   	-1.19124
   	2.9369   	-5.80773   	1.98577   	7.89485   	1.55006   	-1.48625   	-0.00678899   	-0.811614   	2.26398   	1.3728   	0.241649   	1.48886
   	-4.98854   	1.14395   	1.62666   	0.40431   	1.57052   	-1.63739   	-1.15508   	0.103054   	6.12349   	0.429742   	0.0833676   	-0.639821
   	-3.6134   	-1.37253   	-1.42474   	-0.141273   	-5.26454   	-1.04494   	-0.710536   	-0.685906   	-0.0964832   	-2.87491   	2.48399   	-1.0867
   	-1.84365   	0.391043   	-4.64186   	-2.0391   	-2.3223   	-0.356718   	2.78181   	1.88135   	1.87047   	3.38482   	-2.07813   	-3.3173
   	-4.14747   	2.80009   	0.148954   	1.38231   	-2.68879   	-2.25958   	0.71806   	-2.2489   	1.38947   	-1.42768   	-0.212931   	2.56196

   	-3.01804   	-2.79219   	1.25434   	0.392765   	1.27807   	3.19288   	0.958631   	-0.647866   	5.45836   	-3.00211   	-3.41875   	-2.11811
   	0.0467437   	-0.0471361   	0.231596   	-1.39514   	-1.74493   	7.11021   	-7.21646   	2.0313   	0.178937   	1.08805   	-0.77454   	-0.726852
   	1.72065   	0.951536   	1.23747   	-2.43859   	0.433769   	4.50121   	0.768762   	-2.25955   	1.00044   	2.84448   	7.70799   	-4.12304
   	2.59545   	-4.78841   	0.012547   	-2.09772   	2.11081   	1.84037   	1.96738   	-1.88518   	1.99755   	1.95381   	-0.384199   	1.27381
   	-2.85098   	0.0535613   	-2.19249   	-8.26727   	-1.42552   	-3.15847   	-3.84158   	9.0646   	2.10433   	8.22196   	2.64933   	-0.268844
   	4.99559   	5.82882   	-0.329051   	2.05055   	0.240052   	-1.7894   	-4.12189   	2.14632   	-4.21944   	4.51665   	4.81054   	2.73169
   	1.4234   	2.42995   	0.814397   	6.05444   	-0.119589   	2.18085   	-3.15134   	-0.00773027   	-1.92136   	-0.00335328   	-1.13476   	-4.24185
   	-5.74407   	-2.25643   	1.29697   	4.87666   	0.973098   	-3.81245   	-0.540471   	-2.92627   	-2.20563   	-4.19167   	-1.88815   	-0.563622
   	1.85245   	-0.280514   	-0.208085   	-1.87682   	-2.45494   	-0.482659   	0.934075   	0.0777749   	1.05172   	0.477897   	-1.1395   	-2.06317
   	0.494846   	1.54891   	0.416756   	-0.984574   	-9.02995   	0.623057   	-2.98283   	-4.22654   	-1.57791   	1.18039   	3.72953   	0.290363
   	-1.06457   	4.31181   	0.856917   	-3.94201   	-2.52416   	-2.091   	3.72462   	-15.8963   	1.19451   	1.87408   	-1.80293   	-0.0860773
   	-2.61908   	3.37929   	-0.193295   	0.0612629   	-0.0642402   	0.705005   	0.852388   	-2.58687   	-2.02074   	0.65156   	1.94846   	-0.0470728

   	-3.87496   	-0.727057   	3.24977   	1.56685   	-1.42886   	-0.87338   	-1.41547   	0.185898   	-0.976129   	-0.465466   	-6.82435   	2.80732
   	-9.38415   	3.02514   	1.32047   	-0.667343   	1.45424   	0.898289   	-4.59873   	1.69575   	1.60389   	-0.540164   	2.39917   	-1.5325
   	4.8943   	0.52709   	-1.4773   	1.58102   	-0.0501212   	-0.565319   	1.74129   	-1.37487   	0.0308665   	-4.77946   	-1.51858   	-0.796137
   	0.16714   	3.00411   	-1.22388   	4.23602   	-1.01043   	-0.236151   	1.80979   	-2.93665   	-1.87689   	-2.33714   	-4.08981   	2.90358
   	2.25703   	-1.01663   	0.199286   	0.259074   	-4.44186   	-0.606764   	0.565528   	-6.38813   	-0.386288   	1.08345   	1.39338   	-5.43868
   	-4.89919   	2.76059   	-4.98177   	-0.263228   	-0.565351   	-2.15969   	0.303531   	-3.17   	-1.39891   	-0.14308   	-4.49249   	-4.10534
   	3.99063   	0.134784   	-1.32123   	-2.47073   	-0.108263   	2.73689   	1.67632   	-0.28009   	2.77794   	-0.240349   	-2.5768   	2.73712
   	-3.93327   	-4.97743   	0.314885   	-3.15348   	1.05944   	-0.961483   	-1.8488   	-0.464695   	1.23591   	3.20581   	0.718189   	-5.6738
   	-1.93409   	-6.91561   	0.351057   	1.9889   	1.08954   	-1.18719   	0.641511   	-2.48955   	-2.71455   	0.954483   	-0.0880647   	0.0194092
   	-0.718954   	-1.1721   	1.00825   	-3.1585   	-3.44844   	-1.76819   	4.67445   	0.0286743   	-5.3458   	3.03232   	2.86018   	0.152415
   	-0.0959559   	0.537651   	3.99983   	1.62373   	0.952535   	-5.04671   	-1.04909   	1.34042   	-1.60668   	6.20381   	-2.08957   	0.865433
   	1.08467   	10.9805   	0.697726   	-1.48076   	0.310734   	-0.456246   	2.22972   	-0.984404   	-0.979657   	0.467599   	8.35232   	-3.46884

   	-7.05851   	-7.12562   	1.98361   	1.12333   	-2.32473   	-0.0683228   	3.43668   	-0.0240496   	2.89825   	0.971406   	0.159531   	-2.18212
   	1.78353   	-9.70316   	0.154072   	-3.92401   	-4.21425   	1.82869   	-2.89534   	-0.202467   	1.70852   	0.768179   	0.37404   	1.40183
   	1.77566   	-5.89901   	0.603538   	-0.264261   	-1.60774   	-0.699124   	-3.31238   	1.33059   	2.33594   	3.18926   	3.24165   	-0.0379643
   	-0.269576   	4.5451   	-2.66062   	-1.97845   	-0.953819   	-1.28542   	4.337   	1.83718   	0.823747   	-1.3297   	0.416798   	-0.0289979
   	2.20418   	1.48838   	0.926047   	2.23185   	-0.275713   	1.49506   	0.963194   	-2.39753   	0.13005   	1.56139   	-3.66472   	-6.22567
   	1.09987   	-3.75099   	0.807074   	0.0630638   	6.85401   	0.0294099   	-0.143712   	-9.54453   	0.776458   	-1.7394   	-3.70141   	-5.57628
   	0.400527   	-0.903315   	-1.9402   	0.761497   	1.61321   	1.16609   	1.37159   	-3.06083   	2.39026   	-1.49192   	-0.240449   	-5.98192
   	7.57409   	2.62889   	-0.452707   	5.60315   	-5.25567   	0.739725   	2.13394   	1.69615   	-7.32588   	4.86205   	2.98947   	-1.40306
   	-1.27935   	0.66611   	0.721142   	5.49658   	-4.72154   	0.0423071   	-2.75701   	0.258381   	-1.7107   	0.643106   	0.456266   	0.919608
   	2.83613   	0.0435721   	-0.139681   	0.169896   	2.52942   	4.54401   	-0.711319   	2.66847   	-0.285715   	1.39519   	2.31579   	-3.90443
   	-1.0649   	-1.49807   	-0.884904   	-0.802019   	1.115   	-1.54591   	-0.362817   	1.78386   	6.3339   	1.77064   	-2.05418   	2.59642
   	-0.137183   	-1.12189   	2.67997   	2.1683   	2.12029   	-0.0267072   	2.64361   	0.243019   	3.89741   	1.91537   	1.63786   	0.301807

   	-4.08721   	8.11024   	-1.09864   	-0.656368   	3.17828   	-3.80246   	-0.627629   	-2.11316   	2.43342   	6.89224   	-3.67   	-0.000977153
   	-0.813901   	6.339   	-1.25471   	2.84775   	-5.35455   	5.79979   	0.0590105   	2.24543   	2.19786   	2.27912   	-1.15663   	-0.907426
   	2.3163   	-2.22843   	3.15479   	2.62982   	3.4458   	-1.1592   	-0.707724   	0.0446893   	-2.64336   	-0.51627   	-1.7663   	-3.28717
   	4.88066   	2.69775   	-1.12537   	1.6639   	1.58637   	1.16291   	1.94813   	-3.97875   	-2.71563   	-0.12445   	1.99164   	-3.31645
   	-0.962078   	1.97377   	-3.16169   	-1.76808   	5.45371   	4.22395   	1.3292   	1.61533   	0.275102   	10.1365   	10.4855   	-1.08785
   	4.51898   	-2.31074   	-0.5586   	-0.282917   	-1.66371   	5.07348   	-1.21036   	0.796391   	-0.158614   	-0.93577   	-3.30925   	-4.69343
   	3.95589   	1.82651   	1.79196   	-0.502676   	1.32238   	5.09253   	-0.205882   	-0.851673   	3.5058   	10.975   	4.22747   	-0.877895
   	6.3116   	11.8845   	6.14039   	1.70973   	0.143756   	-1.77166   	-2.38906   	0.74869   	0.844418   	-2.90766   	-6.73621   	-13.1423
   	5.15268   	-4.97962   	-3.92267   	1.94363   	1.27245   	3.06014   	-0.641738   	1.48873   	0.22253   	-1.88766   	1.2679   	-2.56952
   	0.705027   	-2.00844   	2.35011   	-0.572563   	-2.79545   	2.57086   	-2.46765   	5.42307   	0.972907   	-0.691669   	1.46392   	0.722066
   	-0.0189077   	1.0242   	-0.305936   	1.17019   	0.728473   	-3.43263   	4.30498   	6.12325   	1.99173   	0.639835   	-2.46821   	-2.09965
   	-0.0374124   	-0.147676   	2.23036   	3.29266   	-0.857721   	-4.56467   	2.01503   	-3.41155   	-1.29614   	-0.837572   	-2.7358   	1.6557

