12 12 12
   	-0.34829   	-0.242856   	-1.22606   	0.0645827   	0.840072   	-0.182049   	-0.353531   	0.41672   	-4.61437   	-1.49527   	0.543934   	0.0925856
   	-0.899976   	-0.338908   	-0.859246   	0.221594   	1.2823   	-0.0280871   	-0.24369   	-0.405687   	-1.69678   	-0.737723   	-0.234621   	-0.841907
   	0.743827   	1.26276   	-0.622799   	0.49408   	1.7524   	1.08635   	1.62865   	0.176487   	0.0450291   	-2.36007   	-2.04029   	0.169088
   	2.26881   	0.0257954   	-0.634043   	-0.252922   	0.459859   	-0.405516   	-1.30812   	-1.34171   	0.419403   	-1.43544   	-1.62979   	4.35486
   	0.364886   	-0.450055   	-0.0460131   	0.135698   	0.417336   	-0.617776   	-2.48208   	-0.537985   	0.0796913   	0.85782   	2.8871   	-0.431773
   	-0.535901   	-0.743772   	0.267027   	0.432934   	0.324153   	-0.563029   	-2.96768   	-0.962583   	-0.781034   	0.677914   	0.654463   	-0.845497
   	0.236651   	0.047698   	0.837699   	-0.11633   	-0.0408322   	0.849597   	-2.18627   	-0.0489168   	-0.112604   	1.51783   	-4.45864   	-1.55794
   	0.0084482   	0.0903875   	0.617484   	0.382285   	0.0976016   	-1.01809   	-1.58374   	-0.405321   	-0.751921   	-1.44859   	-3.73945   	-1.38837
   	0.514094   	0.613008   	0.687134   	0.498941   	-0.599692   	-0.758839   	-0.982027   	-0.930554   	-0.558145   	0.923273   	-0.222766   	0.0677687
   	0.499159   	0.101149   	-0.11619   	-0.603083   	-1.31197   	-4.56709   	-0.383006   	0.332217   	5.70489   	0.633998   	-0.0790306   	-0.145714
   	0.19767   	-0.222628   	-0.329632   	-0.98209   	-1.98149   	-0.306998   	0.600774   	0.296235   	0.333445   	0.297828   	-0.0731937   	-0.0924131
   	0.0886812   	-0.341334   	-0.405538   	0.708744   	0.222184   	-0.193422   	0.452234   	0.592619   	-0.386766   	-0.27661   	0.169063   	0.276982

   	-1.68829   	-0.565712   	-0.388175   	2.19217   	2.68718   	0.0819154   	-0.174049   	-0.199755   	-4.59385   	-3.67583   	-1.07516   	-0.972386
   	-3.35717   	-0.315743   	-0.39721   	5.86902   	2.59267   	0.137942   	-0.0873561   	-1.14658   	-8.55894   	-4.20832   	-1.57963   	-1.78351
   	-5.68045   	1.76003   	-1.36164   	0.548904   	1.11242   	1.40781   	1.17115   	0.084177   	-0.0245995   	-1.16389   	-7.8198   	-2.54939
   	-1.67316   	-0.695474   	-0.332085   	0.310046   	0.441727   	-0.278564   	-1.0149   	-0.0940001   	-0.549048   	0.070898   	-0.636111   	-0.0632839
   	-0.650743   	-0.641528   	0.0081573   	0.64315   	0.243449   	-1.41386   	-3.31995   	-1.69118   	-0.821665   	0.603374   	-0.00537467   	0.00968066
   	-0.293686   	-0.378475   	0.420243   	0.43704   	1.27914   	-1.94939   	-3.35127   	-1.98457   	-0.886044   	-0.0806627   	0.639691   	-0.0302382
   	0.223878   	-0.043823   	0.128591   	-0.0782293   	1.50939   	-4.62866   	-6.14477   	-1.25371   	-0.856921   	-0.530923   	0.440879   	0.559934
   	0.0932991   	0.424308   	0.549552   	0.345784   	0.29718   	-1.05362   	-3.06188   	-0.924511   	-0.903966   	-0.775935   	0.398142   	0.55762
   	0.272785   	0.819719   	0.576503   	0.316137   	-0.114068   	1.48657   	-0.792943   	-0.0147155   	0.182017   	-0.536465   	-1.4461   	-0.836512
   	-0.177633   	-0.0621463   	0.271401   	-1.02195   	1.10474   	8.01273   	-0.389306   	-0.408185   	0.250604   	-0.362948   	-0.842222   	-0.716426
   	-0.0821858   	0.117663   	-0.131284   	-1.54011   	-1.13126   	0.208987   	-0.040392   	0.17575   	0.0342051   	-0.189889   	-0.2302   	-0.363848
   	-0.248877   	0.152395   	-0.261075   	0.110304   	-0.132221   	0.066845   	-0.0124113   	0.0277295   	-0.147063   	-0.521209   	-0.167028   	-0.141483

   	-0.212705   	0.150938   	0.165253   	-0.110142   	1.66618   	3.14542   	0.349157   	-1.12413   	-1.29554   	-3.45205   	-0.621111   	-0.0874566
   	-1.04348   	-0.325324   	-1.70662   	-0.36082   	0.337395   	0.170197   	-3.75721   	-3.81965   	-6.76742   	-5.31196   	-2.34954   	-0.475699
   	-3.13067   	-2.68732   	-8.71459   	0.202351   	0.466871   	-0.551539   	-3.05111   	0.249258   	-0.118158   	-1.40078   	-3.31813   	-0.954071
   	-3.33009   	-2.25541   	-1.66445   	-0.328037   	0.642833   	-1.1386   	-1.03302   	0.403886   	-0.276487   	0.0211018   	-1.00318   	0.0169241
   	-0.422509   	0.235239   	1.56971   	1.66329   	1.07741   	-2.61502   	-1.33609   	-0.683565   	-0.323529   	0.354416   	-0.645188   	-0.384131
   	-0.667525   	0.0154526   	0.76709   	0.621255   	0.598474   	-3.58419   	-0.993073   	-0.872159   	-0.729653   	-0.274475   	-0.298229   	-0.0270115
   	0.132144   	0.210131   	0.293595   	0.342507   	-0.273498   	-1.46678   	-1.36451   	-0.818771   	-0.773324   	-0.688145   	3.74422   	1.68174
   	0.0648996   	0.421535   	1.38683   	0.0444033   	-0.834478   	-0.741576   	-0.86099   	-0.399762   	-1.08977   	-0.870276   	2.71172   	1.3726
   	-0.271928   	0.349692   	0.489082   	-0.0125431   	-0.200548   	0.969874   	-0.217912   	-0.0272007   	-0.330973   	-1.8325   	-3.431   	-1.62563
   	0.35449   	0.156301   	-0.181232   	-1.03023   	-0.444777   	1.55901   	-0.55382   	-0.0158116   	0.065345   	0.0210202   	-1.0324   	-2.22181
   	0.408368   	0.524599   	-0.163075   	-1.39845   	-2.20899   	-0.640508   	-0.186211   	-0.0845588   	0.230035   	-0.0239393   	-0.0889577   	-1.31422
   	0.720453   	1.18912   	0.036643   	-0.500192   	0.22718   	0.804563   	0.0341465   	0.228643   	0.181639   	-0.796431   	-0.152906   	-0.0652658

   	-0.0408846   	-0.231999   	0.663618   	-1.48085   	0.629565   	1.78651   	-0.239331   	-0.372028   	-0.690062   	-0.493854   	-0.124956   	0.0137821
   	-0.331795   	-1.29182   	-3.34586   	-1.938   	-0.161456   	-0.561012   	-1.52925   	-0.540746   	-1.27689   	-0.544073   	-0.144166   	0.0284479
   	0.105131   	0.0997123   	-1.43903   	-0.795742   	-0.135119   	-0.835247   	-1.28965   	0.662879   	0.340634   	0.0960059   	-0.129252   	0.0272283
   	-0.716297   	-0.364064   	-0.955251   	-1.77375   	-0.0111534   	-0.605787   	-0.351191   	-0.0326154   	0.408877   	0.201812   	-0.425483   	-0.276403
   	-0.683903   	0.296785   	-0.358625   	-0.139516   	1.46835   	-0.172298   	-0.207787   	0.0616495   	0.110837   	-0.750536   	-0.763646   	-0.375397
   	-0.839541   	-0.151248   	-0.255261   	0.400429   	1.21177   	-0.422237   	-0.00125807   	-0.302686   	-0.56623   	-1.13078   	0.665958   	1.11773
   	-0.526586   	0.228888   	0.211779   	-0.0427899   	0.223364   	0.591889   	0.0105618   	-0.181656   	-0.646581   	-0.746477   	0.784587   	0.656616
   	0.0532005   	0.0392352   	-0.138712   	-0.230634   	-0.16088   	0.504663   	0.0123004   	-0.198118   	-0.000906055   	-0.42246   	-0.762172   	-0.0114237
   	-0.0455022   	0.0197286   	-0.307647   	-0.0582874   	0.371012   	0.542226   	-0.111218   	0.808976   	0.262873   	-0.465698   	-0.929053   	-0.623518
   	0.437116   	0.0183049   	-0.0952741   	-1.08506   	-0.667231   	0.0320737   	0.168989   	0.2437   	0.109652   	-0.337313   	-1.16312   	-2.59788
   	1.07278   	2.06501   	0.368292   	-2.05457   	-0.857507   	0.735001   	0.289532   	0.249941   	0.032771   	-0.00767793   	-0.709729   	-3.76305
   	1.49429   	6.2533   	3.11337   	-0.496212   	0.649377   	1.46612   	0.589898   	-0.0701311   	-0.0966216   	0.036622   	-0.0575661   	-0.61323

   	-0.512044   	-1.94609   	-1.78732   	-1.34383   	-0.0762003   	-0.304975   	-0.250124   	-0.480622   	-0.257101   	0.530423   	0.14803   	-0.524106
   	-0.320342   	-0.910729   	-4.44408   	-3.6478   	-0.636733   	-0.190169   	-0.354937   	-0.126859   	0.0128608   	0.0533037   	0.340985   	-0.0663128
   	0.295382   	-0.0357137   	0.191988   	-0.580338   	-1.71687   	-1.03888   	-0.284007   	0.12565   	0.117463   	0.357773   	0.59268   	0.167631
   	0.163214   	0.0458586   	0.14486   	-0.926818   	-1.20527   	-1.23744   	-0.0413844   	0.0182406   	0.311609   	0.407091   	0.844371   	0.470614
   	0.835058   	0.524445   	-0.240949   	-0.162409   	-0.094677   	-0.39108   	0.199449   	0.267908   	0.206075   	0.526621   	1.16837   	0.667443
   	0.134108   	0.269004   	0.294329   	-0.141689   	-0.309462   	-0.237448   	0.114413   	-0.060997   	-0.751062   	-1.66298   	2.07485   	1.22558
   	-0.38234   	0.290317   	-0.0998054   	-0.610075   	0.189119   	0.735412   	0.15563   	-0.178757   	-0.844291   	-2.15177   	-1.95474   	-0.788079
   	-0.10575   	0.0641572   	-0.298402   	-0.422865   	0.0349759   	0.427244   	-0.0456205   	-0.236339   	-0.116323   	-0.465938   	-0.866627   	-0.567637
   	0.402994   	0.0689647   	0.282656   	0.820501   	0.283984   	0.154679   	0.0894919   	0.41852   	-0.144859   	-0.353746   	0.122632   	-0.00468304
   	-0.57428   	-0.00902788   	0.32382   	0.00324093   	-0.297348   	-0.0292748   	0.152757   	0.539636   	0.266392   	-0.37055   	-0.00610685   	-0.131609
   	-0.958233   	3.18179   	0.914091   	-0.492233   	-0.375456   	-0.0660102   	0.30104   	0.916987   	-0.177202   	-0.87855   	-2.01516   	-1.44288
   	0.0674453   	3.04515   	2.1261   	0.302821   	0.161218   	0.229631   	-0.0834417   	-0.421228   	-0.0410879   	3.43302   	1.91581   	-0.901032

   	0.0362238   	-0.478318   	-0.327901   	-0.207768   	-0.197449   	-0.253546   	-0.350182   	-0.0774787   	0.156354   	1.60452   	1.33259   	0.066421
   	-0.382969   	0.0431775   	2.17513   	-0.23244   	-0.803393   	0.0319399   	-0.14456   	-0.0780893   	0.178723   	0.565909   	0.302452   	-0.411948
   	-0.591059   	-0.763446   	5.96862   	4.48354   	-1.16703   	-0.200625   	0.301038   	0.127287   	-0.004547   	1.43144   	0.513161   	-0.647882
   	-0.162868   	-0.260105   	0.798241   	1.94861   	-0.343825   	-0.367628   	0.594502   	0.186739   	0.416866   	1.4727   	0.717282   	-0.010096
   	-0.0693307   	0.0291039   	0.244003   	0.50288   	-0.731889   	-1.09831   	0.465416   	-0.551119   	-0.111232   	1.5885   	1.60669   	0.261901
   	-0.34831   	-0.017094   	0.0294334   	-0.0924421   	-0.412984   	-0.676001   	-0.70731   	-0.90442   	-1.06863   	-0.806244   	6.58142   	0.844588
   	-0.610365   	-0.299384   	0.0595879   	0.128073   	0.398067   	0.451541   	0.788021   	0.101523   	-0.390584   	-0.926699   	-0.7441   	-1.07423
   	-0.16871   	-0.175608   	0.126769   	0.0417511   	0.157662   	0.00883849   	0.236147   	0.46171   	-0.0357617   	-0.0992185   	-0.19122   	-0.315826
   	-0.711951   	-1.07915   	-0.261709   	0.180421   	-0.119968   	0.188399   	0.237452   	0.17057   	0.00890012   	-0.087425   	1.31466   	0.883494
   	-0.358803   	-0.729762   	0.0864756   	-0.207684   	-0.332637   	-0.138515   	-0.0182332   	-0.0388918   	-0.148615   	0.437106   	5.1464   	2.06129
   	0.616739   	0.0473045   	0.190496   	-0.189557   	-0.184455   	-0.393554   	0.768231   	0.219094   	-0.382827   	-2.44275   	-3.25747   	4.14896
   	0.142402   	-0.171285   	0.0161253   	0.139785   	-0.118329   	-0.265856   	-0.0954682   	-0.360862   	-0.465029   	3.79337   	7.7659   	1.33471

   	0.210688   	-0.149458   	-1.24863   	-0.916956   	-0.634056   	-0.137456   	-0.351022   	-0.184496   	0.187055   	1.03501   	1.18835   	0.953417
   	-0.352624   	-0.555085   	-0.0334571   	-1.31828   	-3.22667   	-0.461176   	-0.0197036   	0.0833101   	0.162124   	1.31977   	0.279271   	-0.672849
   	-0.610353   	0.289989   	2.00674   	-5.93602   	-2.37316   	0.37885   	0.0692385   	0.394029   	0.0874719   	1.00533   	0.0668063   	-1.25682
   	0.104055   	0.0356692   	0.331241   	-1.41788   	0.114093   	0.302273   	-0.182089   	-0.488905   	0.197819   	0.886756   	0.543952   	0.270332
   	0.0665368   	0.0622688   	-0.357129   	-1.04514   	-0.54351   	0.0379311   	0.411603   	-1.01956   	-0.24949   	0.813638   	0.406804   	0.118726
   	-0.080572   	-0.0388761   	-0.41489   	-0.443793   	0.480785   	2.3428   	4.31244   	1.48085   	0.0432543   	-0.00392965   	2.09342   	0.2936
   	0.103978   	0.197627   	0.718636   	1.95794   	1.44388   	1.46812   	2.18943   	3.09384   	0.597685   	0.369161   	0.758703   	0.0249522
   	-0.0578337   	0.0946269   	1.43702   	1.84754   	0.0250091   	-0.227276   	-0.245526   	0.380191   	0.175503   	-0.0435537   	0.243963   	0.473646
   	0.107724   	-0.196716   	0.111737   	0.369459   	-0.2916   	-0.472799   	-0.731648   	-0.426049   	-0.840926   	-0.598548   	-0.0631917   	0.381212
   	-0.0812938   	-0.0573082   	0.0376577   	0.0708617   	-0.435811   	-0.773319   	-0.933153   	-1.60061   	-0.924154   	-1.96583   	0.375688   	1.43572
   	-0.0520842   	-0.0540155   	0.308689   	0.389559   	-0.145312   	-0.0864227   	-0.153705   	-0.30354   	-0.0804842   	-0.21785   	0.126228   	1.66407
   	0.148388   	0.233988   	0.281358   	0.108078   	-0.143291   	-0.104061   	-0.316105   	-0.279112   	0.0533827   	0.947825   	2.17266   	1.03195

   	0.238325   	0.0784291   	0.107826   	0.0917309   	-0.25349   	-0.314508   	-0.526666   	-0.333733   	0.300351   	0.395607   	0.209859   	0.213137
   	-0.472569   	0.111284   	0.113054   	0.31981   	-1.61854   	-0.47192   	-0.7954   	-0.16489   	0.461488   	0.405308   	-0.370715   	-2.42523
   	-1.49508   	0.0276333   	0.370298   	-1.32916   	-0.373479   	-0.0306264   	-0.810017   	-0.0966187   	0.36162   	0.146717   	-0.343962   	-4.48117
   	-0.206776   	0.0811188   	-0.0185922   	-0.611251   	-0.121887   	0.00281719   	-0.450571   	-0.058555   	0.0283984   	0.143199   	0.654975   	-0.385066
   	-0.131745   	-0.0510096   	-0.537189   	-0.733522   	0.176682   	0.541862   	1.01836   	0.987273   	0.667217   	0.710359   	0.263552   	0.0603652
   	0.32493   	0.20059   	0.01393   	0.96453   	1.4766   	1.38761   	2.95539   	4.50447   	1.59565   	1.34053   	0.430599   	-0.354775
   	0.00566583   	0.494088   	0.971224   	3.86769   	2.40937   	0.788164   	1.52947   	1.93164   	1.13115   	1.12448   	0.389419   	-0.0937252
   	-0.243167   	0.869078   	1.82159   	1.62334   	0.208692   	-0.631425   	-0.338194   	-0.118406   	0.0706955   	0.039209   	-0.124703   	0.133764
   	-0.197483   	-0.209128   	0.215727   	0.034445   	-0.0982894   	-0.33968   	-1.87492   	-0.871023   	-0.389529   	-1.13116   	-0.227021   	0.254213
   	0.144192   	0.0536556   	-0.0193504   	-0.212758   	-0.0898572   	-1.28186   	-0.791457   	-0.728977   	-0.596571   	-0.737749   	0.543913   	0.549391
   	0.159668   	0.0018601   	0.162793   	-0.350926   	-1.64466   	-1.20411   	-0.886998   	-0.811948   	-0.210034   	0.0811985   	0.622572   	0.555206
   	0.521585   	0.52778   	0.56133   	-0.0606581   	-0.635819   	-0.558333   	-0.726464   	-0.596659   	0.115613   	0.273714   	-0.335719   	0.329341

   	-0.754335   	-0.259404   	0.221834   	0.545006   	-0.129161   	-0.735244   	-3.11061   	-0.578692   	0.395206   	0.0324193   	-0.0423178   	0.0589298
   	0.0893322   	0.365075   	0.428096   	0.0394205   	-0.316003   	-0.769057   	-5.60217   	-1.41014   	0.182222   	0.0430513   	0.298189   	0.287426
   	0.266268   	0.207257   	0.275301   	-0.0778569   	-0.0321198   	-0.246115   	-0.931719   	0.390966   	0.144411   	0.297835   	2.27954   	0.625514
   	-0.117597   	0.185287   	-0.193693   	-0.485528   	-0.317315   	-0.419207   	-0.109674   	0.526264   	0.00820784   	1.07289   	2.21632   	-0.120861
   	-0.41709   	0.16072   	-0.288729   	-0.077453   	-0.15373   	-0.171232   	0.615751   	0.801531   	0.54218   	0.650224   	-0.539357   	-0.671398
   	0.21323   	-0.111978   	0.691329   	0.877679   	-0.488369   	0.08749   	0.989555   	1.34422   	1.2659   	1.90944   	-0.754228   	-0.686296
   	-0.841305   	-0.35712   	0.686638   	0.363654   	0.04142   	0.134343   	0.178515   	0.514328   	0.741218   	0.83345   	-0.0400758   	-1.52549
   	-1.29814   	-0.516752   	0.460815   	-0.0367998   	-0.0876475   	-0.105108   	-0.307232   	-0.319081   	-0.369771   	-1.72382   	-1.54324   	-1.21393
   	-0.353142   	-0.264469   	-0.0139299   	-0.364551   	-0.017332   	-0.3715   	-0.216283   	-0.150937   	-0.918891   	-3.81217   	-2.70553   	0.332457
   	0.144957   	0.272741   	0.283629   	-0.777772   	-0.829491   	-0.328086   	-0.217154   	0.0717521   	-0.363081   	-1.20214   	-1.50216   	0.110892
   	0.277317   	0.928067   	0.506885   	-1.84787   	-2.98686   	-1.77144   	-0.897639   	-0.59086   	0.224129   	0.539182   	0.43799   	0.0224515
   	0.708825   	1.51048   	0.633536   	-0.317063   	-0.536108   	-0.459556   	-0.800362   	-0.74521   	0.259486   	0.450254   	0.123645   	0.18623

   	-7.96281   	-3.17816   	0.704574   	0.0911405   	-0.46044   	-3.15894   	-8.82113   	0.103199   	0.333435   	0.334936   	0.0290586   	-0.654009
   	-0.479966   	-0.686063   	0.0657833   	0.072306   	-0.303574   	-2.18429   	-3.79841   	0.0186728   	0.390277   	0.0917634   	-0.0533559   	0.576438
   	0.14298   	0.0409408   	-0.624675   	-0.216054   	-0.0331578   	-0.223719   	0.531774   	0.742298   	0.14231   	-0.192766   	3.05426   	1.03126
   	-0.00509197   	0.187762   	-1.13163   	-0.839572   	-0.0379256   	0.074408   	0.632653   	0.76786   	0.116104   	-0.528654   	0.873417   	-0.407847
   	0.140891   	-0.424083   	0.151607   	0.258574   	-0.325468   	-0.373674   	-0.310667   	0.588211   	0.41348   	-0.529565   	-1.04809   	-0.605945
   	-0.458593   	-0.487678   	-0.0942619   	-0.195385   	-0.527934   	0.311173   	0.300888   	0.217746   	0.554956   	0.255291   	-4.91963   	-2.10259
   	-1.49589   	-0.5339   	-0.0721294   	-0.144331   	-0.0534479   	0.0540307   	0.0909367   	-0.0209466   	-0.101782   	-0.272213   	-1.33315   	-2.61889
   	-3.10488   	-0.969927   	0.294129   	0.112108   	-0.101797   	-0.14224   	-0.0306634   	-0.230671   	-0.112161   	0.109137   	-0.0500255   	-1.76268
   	-0.213455   	-0.350869   	-0.137413   	-0.218772   	-0.286577   	0.050341   	0.0255156   	-0.374739   	-0.981626   	-1.20326   	-0.176034   	0.0303187
   	0.122237   	0.160342   	0.101053   	-0.057254   	-0.172995   	-0.506015   	0.0930797   	-0.469773   	-0.77468   	-1.07837   	-0.571512   	-0.110547
   	0.249019   	1.53401   	0.300473   	-0.27925   	-0.778863   	-1.47147   	-0.228883   	0.302644   	0.243382   	0.101004   	0.190184   	-0.105269
   	-0.36458   	0.849787   	0.770901   	0.245541   	0.390083   	-0.625994   	-1.3252   	0.404631   	0.376724   	0.296572   	0.281898   	-0.0222715

   	-1.28967   	-4.10427   	-0.00690633   	0.652489   	0.289214   	-1.11805   	-2.02801   	0.819309   	1.16756   	0.299142   	-1.13263   	-0.375824
   	-0.632479   	-1.08985   	-0.223771   	-0.271135   	-0.089101   	-0.629394   	0.17493   	0.676725   	0.57088   	-0.297088   	-0.608829   	-0.0515187
   	0.0408074   	0.689718   	-0.122544   	-0.307645   	-0.238182   	0.0265306   	1.04154   	0.637773   	0.189905   	-0.13936   	0.0528925   	0.0898654
   	0.975527   	2.49377   	0.444096   	-0.098469   	0.242993   	0.336114   	1.37562   	0.630922   	0.00778048   	-0.377492   	-0.792163   	-0.212274
   	-0.261831   	0.275689   	0.612203   	0.353426   	-0.0762222   	-0.387055   	0.106534   	0.405988   	0.232054   	0.159265   	-0.0808032   	-0.19945
   	-0.81502   	-0.294364   	0.0754322   	0.07268   	-0.221104   	-0.0754956   	0.516736   	0.213442   	0.393144   	0.787911   	0.0857648   	-0.778467
   	-0.774437   	-0.235893   	0.421372   	0.338443   	-0.0947236   	0.25727   	0.689506   	0.109185   	-0.378356   	0.0277751   	0.785349   	-1.11244
   	0.0315008   	0.207308   	1.21879   	0.697425   	-0.40367   	-0.287265   	-0.304007   	-0.942814   	-0.715843   	0.0936413   	0.301508   	-0.777332
   	-0.255273   	-0.260994   	0.363901   	0.287605   	-0.164022   	-0.341488   	-0.668883   	-0.507113   	-0.571096   	-0.196842   	-0.192764   	-0.417048
   	-0.088764   	-0.116359   	0.187341   	0.0643474   	0.106322   	-0.0507804   	0.175584   	0.286652   	0.278695   	-0.29561   	-0.279257   	-0.0929915
   	-0.000941753   	0.293303   	0.444985   	0.236148   	-0.0885212   	-0.608189   	0.513305   	1.44527   	0.456106   	0.0438943   	-0.20969   	-0.106589
   	-0.244905   	-0.315456   	0.64345   	1.14041   	0.836438   	-1.08769   	-2.01057   	0.465559   	0.806567   	0.431499   	0.124458   	0.0087961

   	-0.207686   	-1.02206   	0.108831   	0.194301   	0.153213   	-0.160503   	0.0859992   	1.39259   	2.04963   	0.02348   	-1.74547   	0.020959
   	0.0188217   	-0.0565861   	-0.218465   	-0.401389   	-0.00308662   	0.167469   	0.0927444   	0.123486   	0.159006   	-0.55145   	-1.40989   	-0.497721
   	0.327102   	0.541073   	-0.0539266   	0.0168685   	0.32578   	0.259192   	-0.00910429   	0.127422   	0.0404125   	-0.126829   	-0.13014   	0.000137249
   	2.24805   	2.028   	0.0902461   	-0.118064   	0.336974   	-0.0016713   	-0.20579   	-0.0513865   	0.0431963   	0.550203   	0.148827   	0.0709693
   	-0.0924773   	0.232157   	0.0266252   	0.0436816   	-0.0981781   	-0.658062   	-0.542924   	-0.296155   	0.6111   	3.58683   	5.39031   	-0.849792
   	-0.812463   	-0.0802064   	0.305191   	0.237574   	-0.0052746   	0.520789   	0.234769   	-0.383043   	-0.565481   	0.275822   	1.03877   	-1.45188
   	1.35521   	1.01014   	0.442092   	0.141853   	0.384533   	1.01638   	0.732838   	0.00520202   	-0.538473   	-0.544849   	-1.04121   	-1.28511
   	1.0511   	0.425674   	0.816898   	0.628305   	0.300453   	-0.038597   	-0.545059   	-0.339478   	-0.338696   	-0.0452857   	-0.260128   	-1.78138
   	-0.170535   	-0.308624   	0.103557   	0.164555   	-0.475095   	-0.901397   	-0.643221   	-0.0801772   	0.0811022   	0.357779   	-0.247398   	-0.385549
   	0.0175122   	-0.0594523   	0.134085   	-0.195036   	-0.314317   	-0.5782   	-0.00909589   	1.09932   	0.922032   	0.294114   	-0.237802   	-0.265953
   	-0.0417443   	0.376305   	0.168661   	0.115734   	-0.540423   	-0.436434   	0.530825   	0.807277   	0.823018   	0.236297   	-0.126204   	-0.0649868
   	-0.0590901   	-0.267994   	0.662977   	1.04509   	0.0138773   	-0.347269   	-0.0599595   	0.645845   	1.09442   	0.352608   	-0.10664   	-0.0237905

