12 12 12
   	-0.06749   	-0.0327143   	-0.0400724   	-0.0501367   	-0.0525526   	-0.074799   	-0.142127   	-0.235003   	-0.280904   	-0.252376   	-0.196519   	-0.132971
   	-0.0468216   	-0.0371399   	-0.0463687   	-0.0450503   	-0.0418959   	-0.0702876   	-0.167862   	-0.308188   	-0.349763   	-0.259192   	-0.158967   	-0.0873425
   	-0.0695386   	-0.0862451   	-0.076824   	-0.0460417   	-0.0292118   	-0.0522203   	-0.140428   	-0.255303   	-0.248764   	-0.147044   	-0.0828705   	-0.0558587
   	-0.130147   	-0.159057   	-0.114857   	-0.0501192   	-0.0204773   	-0.0412919   	-0.1293   	-0.230292   	-0.179138   	-0.0725772   	-0.0444007   	-0.0628787
   	-0.167353   	-0.180422   	-0.115174   	-0.0458418   	-0.025525   	-0.0780107   	-0.24597   	-0.439445   	-0.340771   	-0.132089   	-0.0656904   	-0.0908054
   	-0.145093   	-0.128272   	-0.0730774   	-0.0316135   	-0.0427264   	-0.146228   	-0.393716   	-0.650633   	-0.522389   	-0.232421   	-0.114057   	-0.112196
   	-0.0949324   	-0.063147   	-0.031274   	-0.0194149   	-0.0514618   	-0.15061   	-0.313293   	-0.439878   	-0.368808   	-0.207013   	-0.127011   	-0.107527
   	-0.0567384   	-0.0257496   	-0.0116864   	-0.0161293   	-0.0459363   	-0.0937809   	-0.129489   	-0.139285   	-0.127579   	-0.107462   	-0.0987346   	-0.0863036
   	-0.0444993   	-0.0166807   	-0.0113638   	-0.0219125   	-0.0397201   	-0.0464037   	-0.028111   	-0.010865   	-0.0184711   	-0.0445009   	-0.0717286   	-0.0740891
   	-0.0568516   	-0.0266083   	-0.0225062   	-0.0338536   	-0.0417868   	-0.0334825   	-0.00877377   	0.00713488   	-0.00231187   	-0.0326143   	-0.0700411   	-0.08445
   	-0.0819342   	-0.0430298   	-0.0364426   	-0.0461784   	-0.0493911   	-0.0446224   	-0.0341672   	-0.029089   	-0.0397799   	-0.0657021   	-0.100509   	-0.114823
   	-0.0847646   	-0.0438501   	-0.0395875   	-0.0488523   	-0.0520699   	-0.0605486   	-0.0819982   	-0.109794   	-0.131283   	-0.14241   	-0.147902   	-0.132319

   	-0.0690536   	-0.0328226   	-0.0674252   	-0.0834767   	-0.0740229   	-0.0914582   	-0.185144   	-0.357458   	-0.465841   	-0.401449   	-0.283128   	-0.165006
   	-0.00630206   	-0.00144878   	-0.0400117   	-0.0539901   	-0.0511655   	-0.0888671   	-0.248201   	-0.548271   	-0.68536   	-0.470194   	-0.227268   	-0.0760652
   	-0.0248689   	-0.0520845   	-0.0647383   	-0.0437656   	-0.0284606   	-0.0687656   	-0.234938   	-0.513836   	-0.541541   	-0.282573   	-0.103767   	-0.0258464
   	-0.078027   	-0.117505   	-0.095006   	-0.040706   	-0.0171628   	-0.0685088   	-0.256511   	-0.503051   	-0.382489   	-0.116141   	-0.0289323   	-0.0244243
   	-0.106442   	-0.130164   	-0.0895248   	-0.0331048   	-0.0251376   	-0.129261   	-0.46333   	-0.880315   	-0.629027   	-0.18266   	-0.0484901   	-0.0500862
   	-0.0957755   	-0.0904733   	-0.0554131   	-0.0232723   	-0.0469848   	-0.208682   	-0.658764   	-1.22587   	-0.980185   	-0.379157   	-0.131124   	-0.0835404
   	-0.0684821   	-0.0430436   	-0.0227739   	-0.0157962   	-0.0528823   	-0.176029   	-0.438983   	-0.759772   	-0.71603   	-0.386747   	-0.18036   	-0.101515
   	-0.04788   	-0.015565   	-0.00661957   	-0.0113931   	-0.0323653   	-0.0570705   	-0.0881602   	-0.174369   	-0.250755   	-0.225341   	-0.160112   	-0.0995814
   	-0.0536125   	-0.0176172   	-0.0117786   	-0.0170042   	-0.0158885   	0.0192571   	0.069678   	0.0453571   	-0.0394545   	-0.106774   	-0.128373   	-0.104715
   	-0.103935   	-0.0622849   	-0.049162   	-0.0445401   	-0.026721   	0.018346   	0.0686405   	0.060191   	5.56403e-005   	-0.0683734   	-0.125084   	-0.141244
   	-0.179524   	-0.133812   	-0.110296   	-0.0879276   	-0.0556232   	-0.0205057   	0.00663811   	-0.00185679   	-0.0420985   	-0.0936987   	-0.159436   	-0.200498
   	-0.169669   	-0.12717   	-0.123264   	-0.107241   	-0.0764441   	-0.0616876   	-0.0784385   	-0.128833   	-0.177782   	-0.201417   	-0.224467   	-0.217411

   	-0.131293   	-0.116859   	-0.159324   	-0.139079   	-0.0937846   	-0.0839029   	-0.150582   	-0.321249   	-0.456129   	-0.402004   	-0.301498   	-0.206403
   	0.0225386   	0.0345123   	-0.0208588   	-0.0469934   	-0.0473334   	-0.0801459   	-0.225048   	-0.536511   	-0.717052   	-0.490554   	-0.223497   	-0.0614235
   	0.0245731   	0.0102896   	-0.0154615   	-0.0162688   	-0.0142357   	-0.056361   	-0.213171   	-0.503596   	-0.572399   	-0.30177   	-0.0918416   	0.00250137
   	-0.0181459   	-0.0463185   	-0.0425455   	-0.0147233   	-0.0063301   	-0.0591512   	-0.225054   	-0.44292   	-0.350745   	-0.109272   	-0.0121465   	0.00805135
   	-0.0392412   	-0.0609893   	-0.0451183   	-0.0145499   	-0.0183435   	-0.110344   	-0.366064   	-0.651303   	-0.446824   	-0.119104   	-0.0151922   	-0.00731423
   	-0.0360521   	-0.0404073   	-0.0267865   	-0.0108219   	-0.0335413   	-0.155287   	-0.481454   	-0.898839   	-0.741547   	-0.29191   	-0.0831229   	-0.032206
   	-0.0273242   	-0.0149674   	-0.00693456   	-0.00216646   	-0.0166368   	-0.0707052   	-0.242856   	-0.568629   	-0.637004   	-0.362019   	-0.145609   	-0.0571776
   	-0.0266031   	-0.00298156   	0.003001   	0.00980557   	0.0357474   	0.114699   	0.159659   	-0.0283849   	-0.249595   	-0.252818   	-0.155547   	-0.0764259
   	-0.0671068   	-0.0337874   	-0.0192734   	0.0013322   	0.0600123   	0.207534   	0.338101   	0.205572   	-0.0306997   	-0.149585   	-0.15815   	-0.119167
   	-0.223691   	-0.193423   	-0.137961   	-0.0660313   	0.0194629   	0.152394   	0.267909   	0.195102   	0.0197402   	-0.111969   	-0.191575   	-0.228757
   	-0.474749   	-0.488687   	-0.361357   	-0.186599   	-0.054899   	0.050674   	0.125003   	0.0928308   	-0.0134725   	-0.117201   	-0.238543   	-0.368678
   	-0.437204   	-0.473515   	-0.404522   	-0.242837   	-0.112404   	-0.0386083   	-0.0162696   	-0.0677498   	-0.146544   	-0.202264   	-0.284989   	-0.370035

   	-0.200736   	-0.238082   	-0.237237   	-0.156496   	-0.0820305   	-0.0480675   	-0.0729183   	-0.177553   	-0.264437   	-0.240553   	-0.205271   	-0.192004
   	0.0260375   	0.0390097   	-0.00350943   	-0.0240099   	-0.0266205   	-0.0493279   	-0.137717   	-0.314234   	-0.412919   	-0.290143   	-0.138216   	-0.038484
   	0.0424191   	0.0501033   	0.0294524   	0.015384   	0.00490796   	-0.0279751   	-0.118081   	-0.269337   	-0.318865   	-0.189395   	-0.0623018   	0.00850441
   	0.00667981   	0.00429265   	0.0055805   	0.0119074   	0.00696992   	-0.0274548   	-0.103396   	-0.185968   	-0.15874   	-0.0672498   	-0.0128372   	0.00954057
   	-0.00981346   	-0.0148061   	-0.00670713   	0.00448764   	-0.00373469   	-0.049898   	-0.138258   	-0.203068   	-0.132168   	-0.037936   	-0.00165012   	0.00501367
   	-0.00701788   	-0.0081862   	-0.00151422   	0.00604306   	-0.00389392   	-0.0497605   	-0.154101   	-0.276571   	-0.243704   	-0.109005   	-0.0273895   	-0.00197449
   	-0.00266912   	0.0031268   	0.00934395   	0.020555   	0.0382588   	0.0623979   	0.0268298   	-0.145931   	-0.249267   	-0.163341   	-0.0609106   	-0.0142479
   	-0.010767   	0.0022035   	0.012923   	0.0400541   	0.118111   	0.288555   	0.400874   	0.181761   	-0.0872522   	-0.135147   	-0.0801477   	-0.0347059
   	-0.0831408   	-0.0635651   	-0.0309008   	0.0259788   	0.150343   	0.423973   	0.655294   	0.414069   	0.0450443   	-0.106473   	-0.120685   	-0.102039
   	-0.367489   	-0.372453   	-0.240622   	-0.0761771   	0.0866506   	0.342955   	0.584532   	0.432981   	0.0959774   	-0.109923   	-0.211662   	-0.287005
   	-0.840342   	-0.967657   	-0.643054   	-0.259852   	-0.0252913   	0.170321   	0.33542   	0.280642   	0.0687587   	-0.11162   	-0.28171   	-0.512289
   	-0.736459   	-0.910151   	-0.688653   	-0.337209   	-0.116178   	0.0150211   	0.0915374   	0.0560474   	-0.0489602   	-0.140006   	-0.265874   	-0.461833

   	-0.13802   	-0.193926   	-0.173315   	-0.105575   	-0.043317   	0.00271652   	0.0150164   	-0.0345498   	-0.0888458   	-0.0871155   	-0.0724488   	-0.0832804
   	0.0243509   	0.0170074   	-0.00317812   	-0.0102315   	-0.00942815   	-0.0162442   	-0.0523941   	-0.123652   	-0.160914   	-0.114023   	-0.0471771   	0.000240283
   	0.0365447   	0.0435269   	0.0328385   	0.0220161   	0.0120214   	-0.00611338   	-0.04521   	-0.105175   	-0.132414   	-0.0912154   	-0.0316002   	0.0124959
   	0.0121129   	0.0203869   	0.0223798   	0.0208747   	0.0131382   	-0.00445264   	-0.0311388   	-0.0575513   	-0.061809   	-0.0422938   	-0.0156239   	0.00638733
   	0.00107224   	0.00636099   	0.0118622   	0.0142077   	0.0072759   	-0.0117159   	-0.0341456   	-0.0417738   	-0.0285456   	-0.0137663   	-0.00222194   	0.00707555
   	0.00341278   	0.00643728   	0.011811   	0.0165998   	0.0146182   	0.00064831   	-0.0255997   	-0.0519247   	-0.0504512   	-0.0238868   	-0.000461031   	0.0105928
   	0.00694103   	0.00977575   	0.0172915   	0.0323097   	0.0568114   	0.0859386   	0.0820893   	0.0104818   	-0.0491452   	-0.0369599   	-0.00517549   	0.0105412
   	0.000941742   	0.0039086   	0.0166756   	0.0505016   	0.127753   	0.263559   	0.343324   	0.198193   	0.01711   	-0.0299389   	-0.0119682   	0.0029923
   	-0.0536788   	-0.0525321   	-0.0234738   	0.0370539   	0.163411   	0.421622   	0.645767   	0.447939   	0.118989   	-0.0182881   	-0.0382112   	-0.0373147
   	-0.261309   	-0.284476   	-0.184791   	-0.0450787   	0.11905   	0.415363   	0.739534   	0.611386   	0.22775   	-0.000618322   	-0.095143   	-0.157449
   	-0.579518   	-0.686264   	-0.461311   	-0.180842   	0.0248288   	0.261378   	0.514655   	0.480477   	0.214074   	0.00516055   	-0.136337   	-0.29787
   	-0.489873   	-0.631773   	-0.478343   	-0.236923   	-0.0627748   	0.0819286   	0.20289   	0.18673   	0.0643612   	-0.0333354   	-0.119135   	-0.251936

   	-0.0308553   	-0.0717002   	-0.0788919   	-0.0572852   	-0.0205766   	0.0254138   	0.0581327   	0.0356971   	-0.00916808   	-0.0161093   	0.001345   	0.00966565
   	0.0117247   	0.000255437   	-0.00991553   	-0.0128919   	-0.0093744   	-0.00333528   	-0.00721179   	-0.0333111   	-0.0552014   	-0.0417042   	-0.0107247   	0.0120692
   	0.0162237   	0.0176179   	0.014007   	0.00963203   	0.00561619   	0.000745405   	-0.0102231   	-0.0329824   	-0.0517864   	-0.0424925   	-0.0147474   	0.00923413
   	0.0101603   	0.0150791   	0.0150874   	0.0122469   	0.00884097   	0.00403901   	-0.00227945   	-0.0117336   	-0.0230179   	-0.0231586   	-0.00882062   	0.00824376
   	0.0076897   	0.00996002   	0.00927545   	0.00693571   	0.0051214   	9.59109e-005   	-0.00464029   	-0.00384581   	-0.00259708   	-0.000851063   	0.00531753   	0.0139776
   	0.00976093   	0.00798998   	0.00748782   	0.00857971   	0.0102988   	0.00522529   	-0.00405274   	-0.00735449   	-0.00161934   	0.00984296   	0.0183898   	0.0220746
   	0.0149921   	0.00916396   	0.0110799   	0.0209021   	0.0356995   	0.0449903   	0.0375339   	0.0147629   	0.00265756   	0.01493   	0.02918   	0.0313394
   	0.0237571   	0.0103633   	0.0129563   	0.0339362   	0.0755205   	0.132713   	0.159754   	0.105547   	0.0396727   	0.0301852   	0.0457199   	0.0480224
   	0.0289275   	-0.00108647   	-0.00276483   	0.0270885   	0.0988005   	0.236295   	0.366338   	0.307647   	0.155823   	0.0862876   	0.0812248   	0.0769464
   	-0.00323509   	-0.0640584   	-0.0634703   	-0.0131047   	0.0840527   	0.283813   	0.536955   	0.541674   	0.332636   	0.184637   	0.129224   	0.0999478
   	-0.0841   	-0.178012   	-0.159568   	-0.0737844   	0.0386446   	0.22231   	0.455026   	0.489996   	0.322528   	0.185505   	0.119619   	0.073997
   	-0.0870996   	-0.176302   	-0.173609   	-0.105807   	-0.0172229   	0.0991553   	0.21945   	0.222395   	0.12678   	0.0639853   	0.0439117   	0.0252786

   	0.0165801   	-0.018111   	-0.0411879   	-0.0411424   	-0.0187707   	0.0203401   	0.0545114   	0.042281   	0.00617204   	0.00314091   	0.0273731   	0.0488889
   	0.00108781   	-0.010949   	-0.0229258   	-0.0270601   	-0.019896   	-0.00458632   	0.00802993   	-0.00167928   	-0.0224931   	-0.0225485   	-0.00530382   	0.0105988
   	0.0017017   	-0.00225601   	-0.00953736   	-0.0144286   	-0.00958034   	9.41531e-005   	0.00587622   	-0.00219656   	-0.0198048   	-0.0230093   	-0.00965082   	0.00481629
   	0.00762823   	0.00360159   	-0.00814522   	-0.0198775   	-0.0118414   	0.00452617   	0.0132656   	0.0124142   	0.000902671   	-0.00566148   	0.000924073   	0.0115982
   	0.0109739   	0.00133007   	-0.0172281   	-0.0345095   	-0.0238927   	-0.00441836   	0.00671808   	0.0157676   	0.0189388   	0.0184249   	0.0194591   	0.0219321
   	0.0139489   	-0.00092992   	-0.0178221   	-0.0286397   	-0.0193313   	-0.0084284   	-0.00238341   	0.00975524   	0.0257311   	0.0373898   	0.0389529   	0.0335626
   	0.0241599   	0.00442805   	-0.00683552   	-0.0078468   	0.00119314   	0.00672708   	0.00721663   	0.0131585   	0.0305244   	0.0528803   	0.0619229   	0.0524649
   	0.0491722   	0.0173868   	0.00558893   	0.010089   	0.0250632   	0.0429383   	0.0551758   	0.0563541   	0.0631468   	0.0883324   	0.106763   	0.0945313
   	0.0954263   	0.0357262   	0.0103813   	0.0128486   	0.0379194   	0.0903434   	0.154631   	0.180202   	0.174129   	0.185117   	0.200201   	0.179091
   	0.140793   	0.0437042   	-0.000798375   	-0.000391398   	0.0364802   	0.127138   	0.261023   	0.333833   	0.319422   	0.304996   	0.304678   	0.275315
   	0.127972   	0.0196714   	-0.0295648   	-0.023118   	0.0230866   	0.120179   	0.252701   	0.309833   	0.278385   	0.261918   	0.273294   	0.267261
   	0.0724963   	-0.00658233   	-0.049817   	-0.045451   	-0.00449226   	0.0696041   	0.148508   	0.152634   	0.104497   	0.0969608   	0.128466   	0.153078

   	0.0305832   	-0.0119271   	-0.0417491   	-0.0456094   	-0.0252714   	0.00883464   	0.0370002   	0.028831   	0.00386705   	0.0102271   	0.0428544   	0.066495
   	0.00120256   	-0.0223899   	-0.0459618   	-0.0527081   	-0.035174   	-0.00814207   	0.0120968   	0.00727001   	-0.0121781   	-0.0135979   	0.00284359   	0.0180304
   	-0.000905629   	-0.0198105   	-0.0501287   	-0.0695502   	-0.0428098   	-0.00301122   	0.0165294   	0.0118683   	-0.00768663   	-0.0141863   	-0.00332071   	0.00907198
   	0.0062841   	-0.0184043   	-0.074624   	-0.135386   	-0.0922439   	-0.00875688   	0.0258527   	0.0294012   	0.0150843   	0.00508884   	0.00912582   	0.0162575
   	0.00937578   	-0.0237199   	-0.0977068   	-0.185865   	-0.14308   	-0.0401767   	0.011034   	0.032945   	0.0366139   	0.0321752   	0.0290993   	0.0259812
   	0.0130497   	-0.0197739   	-0.074119   	-0.127822   	-0.10493   	-0.0465173   	-0.00586759   	0.0250457   	0.0462696   	0.0542114   	0.0497678   	0.0373567
   	0.0257935   	-0.00422439   	-0.0335547   	-0.0532998   	-0.044994   	-0.0251074   	-0.00387364   	0.0228577   	0.0518612   	0.0732023   	0.0751152   	0.0576586
   	0.0527397   	0.0160666   	-0.00402296   	-0.0108624   	-0.00708818   	0.00230944   	0.0186991   	0.0435099   	0.076072   	0.110059   	0.123067   	0.101331
   	0.100874   	0.0403107   	0.0114734   	0.00327499   	0.00781575   	0.0262594   	0.0599068   	0.0991088   	0.140184   	0.186543   	0.212159   	0.184905
   	0.152709   	0.0600751   	0.0146302   	0.0019224   	0.0105731   	0.0439474   	0.100538   	0.154216   	0.197947   	0.25319   	0.296728   	0.275653
   	0.153609   	0.0530419   	0.00165449   	-0.00905107   	0.00710647   	0.0484014   	0.103254   	0.133986   	0.14971   	0.198769   	0.262069   	0.271279
   	0.0986477   	0.0204851   	-0.0243739   	-0.0308501   	-0.00779964   	0.036483   	0.0776967   	0.0740112   	0.0537942   	0.0821861   	0.144194   	0.174087

   	0.0168022   	-0.0278503   	-0.0547943   	-0.0536636   	-0.0298549   	0.000931364   	0.022433   	0.0190851   	0.00664496   	0.0170899   	0.0447664   	0.0548314
   	-0.00527242   	-0.040218   	-0.0745935   	-0.0819861   	-0.0489261   	-0.00875497   	0.0133755   	0.00999996   	-0.00407291   	-0.00317926   	0.0108641   	0.0181424
   	-0.00724498   	-0.0489916   	-0.12065   	-0.171254   	-0.105262   	-0.0140826   	0.0208625   	0.0165538   	-0.00251001   	-0.00796526   	0.00226552   	0.0101664
   	-0.00601958   	-0.0699422   	-0.222458   	-0.40571   	-0.287153   	-0.0601501   	0.0220035   	0.0325467   	0.01714   	0.00664851   	0.0107375   	0.0141922
   	-0.0056982   	-0.0765448   	-0.257865   	-0.515162   	-0.413477   	-0.133656   	-0.00778471   	0.0324416   	0.0362884   	0.0294562   	0.0258539   	0.0195591
   	0.00191139   	-0.0470734   	-0.15373   	-0.29055   	-0.258802   	-0.119585   	-0.0277544   	0.0209553   	0.0424878   	0.0460351   	0.0398873   	0.026506
   	0.0144421   	-0.0151409   	-0.0593212   	-0.103903   	-0.100333   	-0.0613287   	-0.0202434   	0.0158061   	0.0430286   	0.0566374   	0.0539462   	0.0381586
   	0.0311707   	0.00637188   	-0.0130596   	-0.0258122   	-0.0273488   	-0.0193082   	-0.00186185   	0.0233588   	0.0512856   	0.0738721   	0.0786528   	0.061691
   	0.059554   	0.0242425   	0.00543938   	-0.0027663   	-0.0046924   	0.000779001   	0.0166866   	0.0410866   	0.071827   	0.105819   	0.124028   	0.107721
   	0.0924783   	0.0374435   	0.00922927   	-0.00115677   	-0.00113316   	0.00949934   	0.029909   	0.0532077   	0.0826216   	0.128239   	0.16821   	0.160802
   	0.0971435   	0.030997   	-0.00252486   	-0.0107409   	-0.00399615   	0.0133978   	0.0335765   	0.0439631   	0.0575526   	0.10225   	0.158905   	0.167444
   	0.0634486   	0.000897187   	-0.0306311   	-0.0323765   	-0.0141705   	0.0142774   	0.0361537   	0.0325101   	0.0253975   	0.0558368   	0.108587   	0.122369

   	-0.0222444   	-0.0496138   	-0.0605917   	-0.0518107   	-0.0293409   	-0.00639157   	0.00712113   	0.00794104   	0.00493382   	0.0102483   	0.018336   	0.00794866
   	-0.0275663   	-0.0558231   	-0.0818844   	-0.0831196   	-0.0487485   	-0.0114182   	0.00492295   	0.0031346   	-0.00228341   	-0.00102503   	0.00234987   	-0.0045066
   	-0.0248912   	-0.0732247   	-0.149094   	-0.19464   	-0.122565   	-0.0274007   	0.00914966   	0.00762367   	-0.00407082   	-0.0067913   	-0.0018604   	-0.00307382
   	-0.0343781   	-0.120753   	-0.287738   	-0.452616   	-0.317802   	-0.0893074   	0.00170417   	0.0178335   	0.0072039   	-0.000780738   	0.00165287   	-0.00153639
   	-0.0390818   	-0.125264   	-0.30556   	-0.531764   	-0.428044   	-0.163624   	-0.0323041   	0.0113261   	0.016746   	0.0115328   	0.00854594   	-0.00196282
   	-0.0235501   	-0.0675763   	-0.16046   	-0.2857   	-0.270354   	-0.146038   	-0.0547331   	-0.00637972   	0.0148996   	0.0189341   	0.0139123   	0.000576622
   	-0.00714832   	-0.0234489   	-0.0565651   	-0.0993442   	-0.107635   	-0.0794481   	-0.0437829   	-0.0116399   	0.0120662   	0.0216558   	0.0175178   	0.00571948
   	0.00353098   	-0.00403301   	-0.0143526   	-0.0257487   	-0.0326195   	-0.0323507   	-0.022355   	-0.00399868   	0.0154911   	0.0267706   	0.0249629   	0.0146844
   	0.0161003   	0.0060168   	-0.000968535   	-0.00642378   	-0.0112895   	-0.0133065   	-0.00763034   	0.00586023   	0.0227955   	0.0373142   	0.0414339   	0.0325873
   	0.028957   	0.00947568   	-0.00171663   	-0.00759109   	-0.00994334   	-0.00776701   	-0.000110277   	0.0109236   	0.0253992   	0.0451054   	0.0598749   	0.0538878
   	0.0264559   	-0.00161851   	-0.0149738   	-0.0176107   	-0.0136744   	-0.00539048   	0.00377722   	0.009595   	0.0174549   	0.0380664   	0.0608963   	0.0570178
   	0.00569357   	-0.0268695   	-0.0386896   	-0.0339538   	-0.0194887   	-0.00194206   	0.0103226   	0.0109919   	0.0104091   	0.0259054   	0.0472098   	0.039981

   	-0.0565706   	-0.057661   	-0.0526957   	-0.0427537   	-0.0296133   	-0.0203355   	-0.0193663   	-0.0215549   	-0.0221442   	-0.0232311   	-0.0293322   	-0.045371
   	-0.0470001   	-0.0554191   	-0.0612079   	-0.0556237   	-0.0366798   	-0.020605   	-0.0203778   	-0.0260934   	-0.0242247   	-0.0201337   	-0.0231128   	-0.0344672
   	-0.0417751   	-0.0708497   	-0.098398   	-0.102449   	-0.0663579   	-0.0257844   	-0.0129028   	-0.017607   	-0.0195856   	-0.0155693   	-0.0143233   	-0.021485
   	-0.0672491   	-0.126829   	-0.180062   	-0.199646   	-0.1356   	-0.0513491   	-0.0121213   	-0.00668956   	-0.0125755   	-0.0142491   	-0.0134471   	-0.0248494
   	-0.0859278   	-0.140497   	-0.187965   	-0.225968   	-0.18191   	-0.0951845   	-0.0438374   	-0.0252172   	-0.0192801   	-0.0153818   	-0.0160131   	-0.0351634
   	-0.0665667   	-0.0835727   	-0.100534   	-0.133594   	-0.138659   	-0.109898   	-0.0827927   	-0.0596198   	-0.0341006   	-0.0172503   	-0.0179655   	-0.0371
   	-0.0384347   	-0.0346813   	-0.0361942   	-0.0523669   	-0.0701208   	-0.0795204   	-0.0772071   	-0.0582439   	-0.029857   	-0.0132643   	-0.0166694   	-0.0303844
   	-0.0210518   	-0.0133957   	-0.0108454   	-0.0167655   	-0.029982   	-0.0442535   	-0.0463653   	-0.0316087   	-0.0119854   	-0.00384812   	-0.0108435   	-0.0208866
   	-0.0121083   	-0.00657015   	-0.00540187   	-0.00991899   	-0.0188187   	-0.0266676   	-0.0241783   	-0.0112228   	0.00177271   	0.00518202   	-0.00250168   	-0.0117699
   	-0.0107985   	-0.00907343   	-0.0102925   	-0.0152338   	-0.0203608   	-0.0214634   	-0.0150623   	-0.00392953   	0.00515093   	0.00792231   	0.00251248   	-0.00757574
   	-0.0221269   	-0.0225874   	-0.0225012   	-0.0240137   	-0.0239458   	-0.0206652   	-0.0141757   	-0.00713334   	-0.00256434   	-0.000569922   	-0.00387743   	-0.0159622
   	-0.0378409   	-0.0406254   	-0.0371208   	-0.0321448   	-0.0254553   	-0.0189518   	-0.0150699   	-0.0139202   	-0.0138174   	-0.0123498   	-0.0138998   	-0.0281879

   	-0.0635914   	-0.0469112   	-0.0407041   	-0.0388218   	-0.0363885   	-0.04263   	-0.0648715   	-0.0896283   	-0.0987259   	-0.0934637   	-0.0855008   	-0.077845
   	-0.0487144   	-0.0464521   	-0.046078   	-0.0408809   	-0.0339634   	-0.0396597   	-0.0706668   	-0.105908   	-0.106951   	-0.0816107   	-0.0615705   	-0.0509686
   	-0.0515869   	-0.0680514   	-0.0663472   	-0.0499468   	-0.0336792   	-0.0306203   	-0.0523383   	-0.0803082   	-0.0749887   	-0.0478745   	-0.0330681   	-0.0319993
   	-0.0928257   	-0.1246   	-0.107473   	-0.0703566   	-0.0409125   	-0.0275069   	-0.0393033   	-0.0622557   	-0.0580328   	-0.0355769   	-0.027856   	-0.0419992
   	-0.127415   	-0.148977   	-0.114214   	-0.0746259   	-0.0542276   	-0.0554473   	-0.0882451   	-0.126517   	-0.106703   	-0.0575391   	-0.0410117   	-0.0648143
   	-0.112801   	-0.105454   	-0.0695119   	-0.0491222   	-0.05798   	-0.0972098   	-0.164898   	-0.209552   	-0.16027   	-0.0826332   	-0.057373   	-0.0770592
   	-0.0739307   	-0.0523704   	-0.0285835   	-0.0234608   	-0.0461929   	-0.0963836   	-0.152117   	-0.167581   	-0.121858   	-0.0710918   	-0.0597997   	-0.0706706
   	-0.0444783   	-0.0237204   	-0.0113095   	-0.0134122   	-0.0338454   	-0.0657117   	-0.083777   	-0.0732128   	-0.0496652   	-0.0389685   	-0.0476165   	-0.0554602
   	-0.0323249   	-0.0153489   	-0.00994698   	-0.0162198   	-0.0304204   	-0.0423134   	-0.037433   	-0.0202868   	-0.0101106   	-0.0172451   	-0.0356537   	-0.0452174
   	-0.0348435   	-0.0186869   	-0.0155701   	-0.0234609   	-0.032351   	-0.0336098   	-0.0223552   	-0.00743864   	-0.00330058   	-0.0147677   	-0.0351283   	-0.0469956
   	-0.0486184   	-0.0292316   	-0.0236043   	-0.029653   	-0.0348795   	-0.0348112   	-0.0283465   	-0.0206316   	-0.0213284   	-0.0330415   	-0.0507403   	-0.0616353
   	-0.0575685   	-0.0383223   	-0.0297622   	-0.031961   	-0.0345925   	-0.0383686   	-0.045001   	-0.0513753   	-0.0571418   	-0.0627946   	-0.0683402   	-0.0710056

