12 12 12
   	-0.0258371   	-0.0176423   	-0.0202301   	-0.0297691   	-0.0438229   	-0.0730803   	-0.132498   	-0.197924   	-0.197317   	-0.133758   	-0.0758091   	-0.0412451
   	-0.00577346   	-0.0111203   	-0.0176863   	-0.0235508   	-0.0340855   	-0.0664375   	-0.144255   	-0.233255   	-0.225796   	-0.132067   	-0.0514052   	-0.011443
   	-0.00724655   	-0.0154958   	-0.0171723   	-0.0162774   	-0.0221948   	-0.0501051   	-0.119864   	-0.196428   	-0.183332   	-0.0996435   	-0.0321575   	-0.00317181
   	-0.0268612   	-0.0271788   	-0.0186039   	-0.0126107   	-0.0175628   	-0.0423176   	-0.093702   	-0.135796   	-0.115823   	-0.0646126   	-0.0296847   	-0.0179889
   	-0.0448409   	-0.0339787   	-0.017316   	-0.0116227   	-0.0230722   	-0.0546494   	-0.0947363   	-0.101014   	-0.0660499   	-0.0363168   	-0.0298095   	-0.0353633
   	-0.0480294   	-0.029912   	-0.0115557   	-0.0100386   	-0.0299249   	-0.0667769   	-0.0934116   	-0.0758164   	-0.0353352   	-0.0169575   	-0.0258959   	-0.0415097
   	-0.0396253   	-0.0199136   	-0.00464773   	-0.00668301   	-0.0264647   	-0.0518839   	-0.0585135   	-0.0374654   	-0.0119713   	-0.00641592   	-0.0217134   	-0.038161
   	-0.0306328   	-0.012233   	-0.00115037   	-0.00489922   	-0.0185781   	-0.0273415   	-0.0198607   	-0.00515656   	0.002904   	-0.00252193   	-0.0200839   	-0.0335449
   	-0.0291444   	-0.0112711   	-0.00246495   	-0.00676225   	-0.0156727   	-0.0159502   	-0.00483835   	0.00467784   	0.00486263   	-0.00493707   	-0.0229329   	-0.0345338
   	-0.0366894   	-0.0163824   	-0.00703501   	-0.0114724   	-0.0192354   	-0.0198823   	-0.0129755   	-0.00815673   	-0.00932968   	-0.0170363   	-0.0331418   	-0.0438804
   	-0.0465451   	-0.0230138   	-0.0130171   	-0.018472   	-0.0282598   	-0.0357466   	-0.0411076   	-0.0469844   	-0.0483825   	-0.0461268   	-0.0522704   	-0.0569624
   	-0.0464187   	-0.0246266   	-0.0170069   	-0.0242566   	-0.0374468   	-0.0562225   	-0.0849865   	-0.115028   	-0.117152   	-0.0919945   	-0.0729093   	-0.0613828

   	-0.038143   	-0.0353495   	-0.052559   	-0.0710173   	-0.0847148   	-0.11353   	-0.189886   	-0.291135   	-0.288516   	-0.18513   	-0.103263   	-0.0557949
   	0.011852   	-0.00218963   	-0.027156   	-0.0464418   	-0.0621163   	-0.102166   	-0.214165   	-0.360479   	-0.34766   	-0.190354   	-0.0641486   	-0.000373251
   	0.0204973   	0.00610484   	-0.00904595   	-0.0183222   	-0.0292906   	-0.067723   	-0.175503   	-0.30578   	-0.281064   	-0.138096   	-0.0306098   	0.0176557
   	0.00224332   	-0.00323447   	-0.0039199   	-0.00406489   	-0.0140803   	-0.0521409   	-0.13619   	-0.209089   	-0.169874   	-0.078087   	-0.018218   	0.00553176
   	-0.0169151   	-0.0129189   	-0.00415822   	-0.00213957   	-0.0185162   	-0.0637557   	-0.126648   	-0.143107   	-0.0893991   	-0.0362634   	-0.0146612   	-0.0113546
   	-0.0247717   	-0.0145169   	-0.00337204   	-0.00422004   	-0.0258634   	-0.067521   	-0.102091   	-0.0882365   	-0.0420677   	-0.0145544   	-0.013606   	-0.0209092
   	-0.0238355   	-0.0104449   	-0.000876136   	-0.0039175   	-0.0199766   	-0.037119   	-0.0391097   	-0.0256517   	-0.0100548   	-0.00623818   	-0.0156276   	-0.0245654
   	-0.0236204   	-0.00799508   	3.46612e-005   	-0.00283171   	-0.00888429   	-0.00278974   	0.0137551   	0.0176139   	0.00763717   	-0.00623   	-0.0218586   	-0.0292463
   	-0.0346713   	-0.0141404   	-0.00440127   	-0.00580428   	-0.00631308   	0.00731176   	0.026561   	0.0263831   	0.00853047   	-0.0131732   	-0.0347848   	-0.043475
   	-0.0630475   	-0.0332072   	-0.0176581   	-0.016637   	-0.015471   	-0.00447604   	0.0088619   	0.0070537   	-0.00764012   	-0.0278329   	-0.0560388   	-0.0718503
   	-0.0946668   	-0.0584773   	-0.0399147   	-0.0382896   	-0.037675   	-0.0338774   	-0.0341675   	-0.0458783   	-0.0542035   	-0.0581202   	-0.0817907   	-0.101055
   	-0.0952956   	-0.0656019   	-0.0562217   	-0.0613199   	-0.0666772   	-0.0766249   	-0.105679   	-0.148578   	-0.151197   	-0.115708   	-0.104989   	-0.105355

   	-0.0699944   	-0.0776261   	-0.111145   	-0.133903   	-0.141231   	-0.15904   	-0.218268   	-0.295053   	-0.272809   	-0.177191   	-0.118285   	-0.0823573
   	0.0336963   	0.0133493   	-0.0321389   	-0.0684617   	-0.0927844   	-0.13495   	-0.239721   	-0.367924   	-0.338127   	-0.180544   	-0.0582877   	0.0118714
   	0.0558114   	0.0407754   	0.0122506   	-0.0113163   	-0.0311577   	-0.072407   	-0.175654   	-0.296338   	-0.266132   	-0.124582   	-0.0161956   	0.0404434
   	0.0347253   	0.0290986   	0.0198928   	0.0107022   	-0.00405991   	-0.0411659   	-0.119444   	-0.188948   	-0.152724   	-0.0635208   	-0.00163437   	0.0281669
   	0.0104934   	0.011792   	0.0135252   	0.0105297   	-0.00545419   	-0.0428424   	-0.0956207   	-0.114919   	-0.0734289   	-0.0250444   	0.000187791   	0.00943861
   	-0.00274413   	0.00224423   	0.00701688   	0.00466814   	-0.0101585   	-0.0353792   	-0.0569461   	-0.0530318   	-0.0269919   	-0.00740339   	-0.00209323   	-0.00266977
   	-0.00767771   	-0.00046554   	0.00414804   	0.00319279   	-4.21815e-005   	0.00472834   	0.0144958   	0.0125142   	0.00404911   	-0.00210918   	-0.00745792   	-0.00982697
   	-0.0148225   	-0.00387467   	0.00171301   	0.00415921   	0.0143173   	0.0438222   	0.0710417   	0.0571898   	0.0200572   	-0.00663436   	-0.0197788   	-0.0209196
   	-0.0423741   	-0.0214059   	-0.0096633   	-0.00251511   	0.0142227   	0.0499412   	0.0799259   	0.0640958   	0.017389   	-0.0233328   	-0.048359   	-0.0520861
   	-0.111094   	-0.0710609   	-0.0443635   	-0.0278466   	-0.00612129   	0.0264984   	0.0518735   	0.0412093   	3.67309e-005   	-0.0494115   	-0.097412   	-0.117888
   	-0.195534   	-0.143953   	-0.105474   	-0.0790204   	-0.0510308   	-0.0224692   	-0.00590401   	-0.0141166   	-0.0371965   	-0.0750856   	-0.140468   	-0.186696
   	-0.202711   	-0.166902   	-0.147244   	-0.133213   	-0.113415   	-0.0980299   	-0.103252   	-0.12628   	-0.123962   	-0.114727   	-0.152021   	-0.19141

   	-0.0920385   	-0.101504   	-0.139151   	-0.160223   	-0.160896   	-0.164246   	-0.185237   	-0.202049   	-0.172309   	-0.13336   	-0.121846   	-0.106912
   	0.0492065   	0.0324243   	-0.019242   	-0.0645574   	-0.0953665   	-0.132109   	-0.195401   	-0.250628   	-0.213468   	-0.118857   	-0.0417247   	0.0158644
   	0.0785611   	0.0684627   	0.0357834   	0.00354739   	-0.0235551   	-0.0604977   	-0.12659   	-0.189148   	-0.163246   	-0.0753503   	0.000779742   	0.0519349
   	0.055347   	0.0524554   	0.0395278   	0.0241237   	0.00622201   	-0.0227685   	-0.0712257   	-0.110416   	-0.089628   	-0.0341579   	0.0120344   	0.0408896
   	0.0281477   	0.0291617   	0.0270254   	0.0209212   	0.00796218   	-0.0146178   	-0.0433196   	-0.0560524   	-0.0371662   	-0.00890451   	0.0112729   	0.0223479
   	0.0122966   	0.014304   	0.0155565   	0.0136775   	0.0074282   	-0.000174133   	-0.00569776   	-0.00683549   	-0.00190285   	0.00442376   	0.00872702   	0.0106659
   	0.00524859   	0.00744429   	0.00940428   	0.0120984   	0.0203126   	0.0404797   	0.0593848   	0.0516415   	0.0279143   	0.011762   	0.00577074   	0.00473513
   	-0.00405168   	0.000601098   	0.00440822   	0.0129819   	0.0370533   	0.083371   	0.121011   	0.10248   	0.0495729   	0.0111232   	-0.00427613   	-0.00533353
   	-0.0405645   	-0.0251609   	-0.0134815   	0.00274943   	0.0367089   	0.0939472   	0.13956   	0.118877   	0.0498565   	-0.0101299   	-0.0410667   	-0.0435994
   	-0.141726   	-0.100969   	-0.0675711   	-0.0347466   	0.00896262   	0.0654798   	0.108441   	0.0942414   	0.0247348   	-0.0587153   	-0.1231   	-0.141263
   	-0.274925   	-0.215821   	-0.161211   	-0.108375   	-0.0523384   	0.00147544   	0.0382759   	0.0365923   	-0.0120029   	-0.100105   	-0.200896   	-0.254942
   	-0.284878   	-0.246676   	-0.217552   	-0.1825   	-0.1372   	-0.0952317   	-0.0682451   	-0.0594601   	-0.06804   	-0.115073   	-0.199957   	-0.262359

   	-0.0549572   	-0.0609108   	-0.0951352   	-0.1173   	-0.11782   	-0.110792   	-0.106094   	-0.0998618   	-0.0899339   	-0.0897111   	-0.0939057   	-0.0795466
   	0.0480571   	0.038417   	-0.001626   	-0.040463   	-0.0665479   	-0.0877423   	-0.111208   	-0.122771   	-0.101671   	-0.0631132   	-0.0245207   	0.0142428
   	0.0709257   	0.0648599   	0.039351   	0.011606   	-0.0118283   	-0.0358607   	-0.0660957   	-0.0876384   	-0.0732378   	-0.0324895   	0.0105198   	0.045962
   	0.0539847   	0.0518799   	0.0405149   	0.0262951   	0.011326   	-0.00699042   	-0.0302582   	-0.046284   	-0.0368051   	-0.00922376   	0.0194278   	0.0405624
   	0.0326543   	0.0323506   	0.028758   	0.0226901   	0.014031   	0.00233625   	-0.0101618   	-0.0157734   	-0.00857247   	0.00553139   	0.0189694   	0.0274702
   	0.0198959   	0.0189701   	0.0179971   	0.0168524   	0.01579   	0.0161968   	0.0180989   	0.0183131   	0.0170969   	0.0174117   	0.0192915   	0.0199087
   	0.0158672   	0.0128942   	0.0122765   	0.016351   	0.0283487   	0.0505082   	0.0715942   	0.0702193   	0.050136   	0.0325351   	0.0241095   	0.0200081
   	0.0142358   	0.00920716   	0.00834432   	0.0179894   	0.0454756   	0.0937473   	0.137582   	0.133741   	0.0901984   	0.0504402   	0.0301964   	0.0231461
   	-0.00433331   	-0.00716948   	-0.00596869   	0.0096337   	0.0488345   	0.114611   	0.175379   	0.173754   	0.113532   	0.0514162   	0.0164837   	0.00943501
   	-0.0739865   	-0.0626325   	-0.0501625   	-0.022737   	0.025521   	0.0929502   	0.152015   	0.15201   	0.087041   	0.00514715   	-0.0508426   	-0.0577996
   	-0.173797   	-0.147811   	-0.12415   	-0.0847262   	-0.0296008   	0.0304539   	0.0763101   	0.0784659   	0.0248581   	-0.0616743   	-0.138136   	-0.156456
   	-0.179938   	-0.164521   	-0.163148   	-0.144519   	-0.103569   	-0.056186   	-0.0182751   	-0.00557012   	-0.0300334   	-0.0883137   	-0.152221   	-0.176019

   	0.00232926   	-0.00734137   	-0.0406535   	-0.0651596   	-0.0681377   	-0.0582893   	-0.047271   	-0.0410333   	-0.0413281   	-0.0452553   	-0.0416085   	-0.0187632
   	0.0349455   	0.0281952   	0.00125206   	-0.0260903   	-0.0416094   	-0.0475896   	-0.0505946   	-0.0499623   	-0.0420059   	-0.0284232   	-0.00985391   	0.0135516
   	0.0436427   	0.038775   	0.0227865   	0.00515622   	-0.00758579   	-0.016849   	-0.026318   	-0.0318189   	-0.0255472   	-0.00885907   	0.0118052   	0.0301587
   	0.0362817   	0.0327077   	0.0243714   	0.0154307   	0.00873724   	0.00186269   	-0.00684165   	-0.0122845   	-0.00789278   	0.00492218   	0.0197494   	0.0302924
   	0.0259353   	0.0226631   	0.0177057   	0.0131036   	0.0109387   	0.00832693   	0.0045448   	0.00327452   	0.00712793   	0.0145148   	0.0217536   	0.0251167
   	0.0206513   	0.0159426   	0.0118857   	0.0103045   	0.0129718   	0.0176428   	0.0223667   	0.0254171   	0.0261527   	0.0263399   	0.0263093   	0.0240476
   	0.0241404   	0.0154189   	0.0105153   	0.0124984   	0.0232776   	0.0415087   	0.0603033   	0.0671384   	0.0598328   	0.0490735   	0.0408748   	0.033462
   	0.0377405   	0.0209799   	0.0120867   	0.016721   	0.0381154   	0.0761428   	0.116387   	0.130485   	0.113369   	0.0884303   	0.070167   	0.0578285
   	0.0536702   	0.0259705   	0.00966117   	0.0147166   	0.0446801   	0.0995082   	0.159577   	0.18372   	0.1614   	0.125149   	0.0991617   	0.087897
   	0.0460013   	0.0141374   	-0.00782621   	-0.00218337   	0.031618   	0.0883466   	0.1476   	0.17076   	0.146449   	0.106222   	0.0805177   	0.0840767
   	0.0058749   	-0.0179884   	-0.0421936   	-0.0376368   	-0.00546914   	0.0406227   	0.0817574   	0.0933118   	0.0685615   	0.0303384   	0.00842572   	0.0271397
   	-0.012182   	-0.0296628   	-0.0638273   	-0.0749193   	-0.0554432   	-0.0210501   	0.00927163   	0.0185223   	0.00222767   	-0.0245863   	-0.0384136   	-0.0173386

   	0.0260774   	0.0115991   	-0.0193199   	-0.0417233   	-0.0437031   	-0.0331373   	-0.0220689   	-0.0163217   	-0.0154859   	-0.0140925   	-0.00479668   	0.0167901
   	0.0204517   	0.0119735   	-0.00986096   	-0.0297328   	-0.0344504   	-0.0286142   	-0.0227558   	-0.0192057   	-0.0158765   	-0.0106029   	-0.00135825   	0.0120998
   	0.0194978   	0.0123077   	-0.00230305   	-0.0155678   	-0.0161327   	-0.0101492   	-0.00801432   	-0.00798502   	-0.00547062   	0.000673485   	0.00890241   	0.0163238
   	0.0170495   	0.00931509   	-0.00307451   	-0.0134366   	-0.00870389   	0.000985467   	0.00313055   	0.00249693   	0.00456295   	0.00975986   	0.0154368   	0.0181554
   	0.0144029   	0.00608014   	-0.00635201   	-0.0166789   	-0.00979759   	0.0029337   	0.00816755   	0.0102246   	0.0131119   	0.0167224   	0.0191251   	0.0180977
   	0.0162304   	0.0070606   	-0.00400108   	-0.0112665   	-0.00450189   	0.00818535   	0.0172955   	0.0230828   	0.0263167   	0.0274587   	0.0264165   	0.0222087
   	0.0271772   	0.0141313   	0.00354306   	0.000341248   	0.00866392   	0.0239515   	0.039807   	0.0505808   	0.0534813   	0.0512887   	0.0464723   	0.0386385
   	0.0523177   	0.0287364   	0.0133757   	0.011243   	0.0233799   	0.0472432   	0.0757464   	0.0958255   	0.100725   	0.0964534   	0.0882796   	0.0766099
   	0.0887764   	0.0481024   	0.0214244   	0.0161518   	0.0314567   	0.0645153   	0.106091   	0.13731   	0.148183   	0.146992   	0.140666   	0.131117
   	0.110933   	0.0589022   	0.0206966   	0.0105413   	0.0256326   	0.0593231   	0.10048   	0.131016   	0.143211   	0.147352   	0.151335   	0.158471
   	0.0929655   	0.0479243   	0.0057681   	-0.00886019   	0.00267304   	0.0288004   	0.0568478   	0.0741746   	0.0786686   	0.0820429   	0.0942719   	0.12045
   	0.0595725   	0.0289631   	-0.0133684   	-0.0352807   	-0.0298482   	-0.00943881   	0.0107288   	0.0200712   	0.0189279   	0.0189076   	0.0312529   	0.0613019

   	0.0220868   	0.00510335   	-0.0212292   	-0.037947   	-0.0358171   	-0.0243953   	-0.0146086   	-0.0089956   	-0.00565576   	-0.000776636   	0.00869172   	0.0224322
   	0.00810905   	-0.0051133   	-0.0284792   	-0.0452858   	-0.0389475   	-0.0225389   	-0.0124756   	-0.00844529   	-0.0063171   	-0.00334457   	0.00186378   	0.00871711
   	0.00379344   	-0.0108292   	-0.0373462   	-0.0599576   	-0.0450935   	-0.0153491   	-0.00240895   	0.000150697   	0.000999309   	0.00294467   	0.00577112   	0.00768168
   	0.0012948   	-0.0167467   	-0.0534586   	-0.0953227   	-0.0732429   	-0.0199193   	0.00203199   	0.00640636   	0.00750549   	0.00890331   	0.00990192   	0.00826981
   	0.00136985   	-0.0163786   	-0.0553249   	-0.105521   	-0.087675   	-0.0289473   	-0.000138112   	0.0088863   	0.0121248   	0.0135034   	0.0129455   	0.00911586
   	0.00771912   	-0.00635367   	-0.03361   	-0.0645184   	-0.0556208   	-0.020217   	0.00321599   	0.0145729   	0.019832   	0.0213846   	0.0197525   	0.0147662
   	0.0217714   	0.00794477   	-0.00925548   	-0.02238   	-0.0172754   	0.000278412   	0.0171205   	0.0294944   	0.036829   	0.0394972   	0.0376742   	0.0314168
   	0.0474543   	0.0265537   	0.0100383   	0.00294703   	0.00750497   	0.0206106   	0.0376399   	0.0539495   	0.0661653   	0.0732718   	0.0736463   	0.0664629
   	0.0823631   	0.0477767   	0.023188   	0.0138509   	0.018048   	0.0324872   	0.0534708   	0.0757371   	0.0955176   	0.111389   	0.118824   	0.114935
   	0.104519   	0.0602223   	0.026441   	0.0123706   	0.0150484   	0.0291812   	0.049918   	0.07226   	0.0943116   	0.116636   	0.13404   	0.14136
   	0.0913326   	0.0515715   	0.0154262   	-0.001563   	-0.000545615   	0.0109354   	0.0263004   	0.0413206   	0.0564463   	0.0754327   	0.0966874   	0.115218
   	0.0574844   	0.0287933   	-0.00527842   	-0.0240248   	-0.0229425   	-0.0110531   	0.00172083   	0.0105828   	0.0171926   	0.0276525   	0.0446336   	0.0650229

   	0.00747522   	-0.00907393   	-0.02873   	-0.0380014   	-0.0318968   	-0.0212562   	-0.0143142   	-0.00999774   	-0.0056464   	0.000242712   	0.00754076   	0.0132626
   	-0.00397973   	-0.0219306   	-0.0473449   	-0.0615051   	-0.044935   	-0.0208563   	-0.010187   	-0.00739558   	-0.00558403   	-0.00261605   	0.00099772   	0.00282592
   	-0.00996276   	-0.0355971   	-0.0830977   	-0.128394   	-0.0939268   	-0.0293758   	-0.00423172   	-4.14006e-005   	0.000290231   	0.00131163   	0.00233729   	0.000499326
   	-0.0157942   	-0.0497436   	-0.133722   	-0.259047   	-0.213997   	-0.0683639   	-0.00972872   	0.00296831   	0.00472808   	0.00473351   	0.00338009   	-0.00188492
   	-0.0147402   	-0.0430529   	-0.127495   	-0.27743   	-0.256778   	-0.0995046   	-0.02253   	0.000606374   	0.0065507   	0.00695336   	0.0039485   	-0.0028587
   	-0.00500949   	-0.0204309   	-0.0682527   	-0.146551   	-0.146676   	-0.0716253   	-0.0207585   	0.00151467   	0.0101107   	0.0116603   	0.0082591   	0.00180026
   	0.00833022   	-0.00143432   	-0.0229285   	-0.0497365   	-0.0514443   	-0.0282441   	-0.00560863   	0.00982693   	0.0192096   	0.0227687   	0.0204172   	0.0144093
   	0.0279253   	0.0161769   	0.0035288   	-0.00595716   	-0.00692887   	-9.52907e-005   	0.0104706   	0.0225057   	0.0341282   	0.042186   	0.0434478   	0.0385512
   	0.0521584   	0.0328052   	0.0172769   	0.00882856   	0.00716213   	0.0109649   	0.0195553   	0.0324409   	0.0482559   	0.0632581   	0.0712961   	0.0698246
   	0.0662362   	0.0401817   	0.018896   	0.00751367   	0.00483932   	0.00851606   	0.0172403   	0.0305155   	0.048032   	0.0675862   	0.0824164   	0.0867864
   	0.0566234   	0.0310786   	0.00795881   	-0.00454195   	-0.00689604   	-0.00282035   	0.00501511   	0.0156944   	0.0296473   	0.0469556   	0.0633391   	0.0722161
   	0.0314559   	0.0102983   	-0.0117305   	-0.023219   	-0.0223481   	-0.0152675   	-0.00745908   	-0.000296465   	0.00757794   	0.0183751   	0.0310555   	0.0400984

   	-0.00792107   	-0.0192796   	-0.0290585   	-0.030861   	-0.0249865   	-0.0197807   	-0.0189437   	-0.0182164   	-0.0142653   	-0.00810326   	-0.00252877   	-0.00144817
   	-0.0141405   	-0.0305484   	-0.0482021   	-0.0536654   	-0.036397   	-0.0177352   	-0.0133259   	-0.0147156   	-0.0132518   	-0.00850759   	-0.00427963   	-0.0049058
   	-0.0214209   	-0.0482095   	-0.0914382   	-0.129794   	-0.0939206   	-0.0316801   	-0.00888487   	-0.00694911   	-0.00698244   	-0.0047054   	-0.00319254   	-0.00709038
   	-0.032179   	-0.0655566   	-0.145476   	-0.269106   	-0.228449   	-0.0825907   	-0.0193056   	-0.00466488   	-0.00262905   	-0.00295857   	-0.00586867   	-0.014198
   	-0.0324171   	-0.0526969   	-0.126672   	-0.277119   	-0.274531   	-0.123454   	-0.0388325   	-0.00982992   	-0.00173107   	-0.00231088   	-0.00885934   	-0.0194872
   	-0.0220094   	-0.0262857   	-0.063872   	-0.144634   	-0.161746   	-0.094884   	-0.040048   	-0.0119685   	1.43509e-006   	0.000871976   	-0.00680866   	-0.0170012
   	-0.0101884   	-0.00974827   	-0.0232812   	-0.0506763   	-0.0611406   	-0.0449459   	-0.0233906   	-0.00571493   	0.00570909   	0.00820059   	0.0016446   	-0.0073181
   	0.00476763   	0.0039622   	-0.000772362   	-0.0090181   	-0.0144667   	-0.0135183   	-0.00688579   	0.00363318   	0.0141853   	0.0192059   	0.0160015   	0.00927359
   	0.0207598   	0.0153592   	0.0094677   	0.00349234   	-0.0011268   	-0.00257939   	0.0009736   	0.00978156   	0.0211289   	0.0298153   	0.0316458   	0.0281168
   	0.0284233   	0.018199   	0.0084967   	0.000951446   	-0.00357878   	-0.00428304   	-0.000248394   	0.00855642   	0.0203581   	0.0315699   	0.0378754   	0.037516
   	0.0214387   	0.00963738   	-0.00142056   	-0.00885825   	-0.0121975   	-0.0119021   	-0.0080263   	-0.000563348   	0.0094573   	0.0200399   	0.0279636   	0.0295652
   	0.00511056   	-0.00611988   	-0.0162636   	-0.021199   	-0.0210295   	-0.0187632   	-0.0159757   	-0.0117335   	-0.00543162   	0.00230825   	0.00932207   	0.0111625

   	-0.0179115   	-0.020322   	-0.0205453   	-0.0191133   	-0.0188208   	-0.0238004   	-0.034098   	-0.0414417   	-0.0384797   	-0.0284594   	-0.0192763   	-0.0160763
   	-0.0175737   	-0.0257274   	-0.0296372   	-0.0270938   	-0.0198748   	-0.0182813   	-0.0282254   	-0.0393025   	-0.0378049   	-0.0256057   	-0.0142834   	-0.0113009
   	-0.0242008   	-0.0379874   	-0.0508189   	-0.0578123   	-0.042292   	-0.0217386   	-0.0197903   	-0.0273097   	-0.0276953   	-0.0192124   	-0.0115989   	-0.0123503
   	-0.0399774   	-0.0514835   	-0.0727321   	-0.1068   	-0.0934379   	-0.0452947   	-0.0219984   	-0.0186369   	-0.0182845   	-0.0166765   	-0.0179368   	-0.0252512
   	-0.0479   	-0.0451858   	-0.0604784   	-0.11045   	-0.119806   	-0.0733668   	-0.0381516   	-0.0211353   	-0.0136948   	-0.014792   	-0.0244383   	-0.0376708
   	-0.042281   	-0.0290056   	-0.032296   	-0.0659791   	-0.0865122   	-0.0708307   	-0.0463416   	-0.0242593   	-0.0100336   	-0.00978408   	-0.0230353   	-0.038576
   	-0.0304528   	-0.0171922   	-0.0135571   	-0.0268871   	-0.0416068   	-0.0440474   	-0.0343492   	-0.0173946   	-0.00345804   	-0.00232738   	-0.0148808   	-0.0291345
   	-0.0159673   	-0.00648286   	-0.00174537   	-0.00631903   	-0.015282   	-0.0209753   	-0.0177055   	-0.00661129   	0.00406729   	0.00550185   	-0.00401093   	-0.0148586
   	-0.0038753   	0.00116945   	0.00306713   	-0.000915103   	-0.0076719   	-0.0118229   	-0.00910466   	-0.000472847   	0.00828087   	0.0107274   	0.00509489   	-0.00224199
   	0.000259723   	0.00174069   	0.000631366   	-0.00440094   	-0.0103403   	-0.0131123   	-0.0101795   	-0.00272216   	0.00505392   	0.00877384   	0.00681742   	0.00231036
   	-0.00487086   	-0.00463078   	-0.00631942   	-0.0108676   	-0.0161186   	-0.019444   	-0.0188163   	-0.0141021   	-0.00779671   	-0.0030536   	-0.00169961   	-0.00351101
   	-0.0139513   	-0.0139466   	-0.0142721   	-0.0161651   	-0.0195626   	-0.0242871   	-0.0288706   	-0.0299265   	-0.0260934   	-0.0198261   	-0.0147826   	-0.0138646

   	-0.0227938   	-0.0174008   	-0.0142672   	-0.0160262   	-0.0236764   	-0.0410523   	-0.0702359   	-0.095653   	-0.093266   	-0.0677144   	-0.0430123   	-0.0288763
   	-0.0152113   	-0.0179235   	-0.0169249   	-0.015427   	-0.0186862   	-0.0343838   	-0.068932   	-0.10299   	-0.0992601   	-0.0630727   	-0.0297916   	-0.0142683
   	-0.0199518   	-0.025478   	-0.0237819   	-0.0205923   	-0.0197402   	-0.027806   	-0.0535385   	-0.0818627   	-0.0790823   	-0.0490482   	-0.0222522   	-0.0122049
   	-0.0387488   	-0.0374019   	-0.0303627   	-0.0294542   	-0.029231   	-0.0300386   	-0.0426047   	-0.0567187   	-0.0532682   	-0.0383652   	-0.0282983   	-0.028052
   	-0.0546798   	-0.0406945   	-0.0267918   	-0.0306983   	-0.0401048   	-0.0459249   	-0.0525319   	-0.0497434   	-0.0363537   	-0.0290642   	-0.0348315   	-0.0457184
   	-0.0554213   	-0.0336832   	-0.0168765   	-0.0219619   	-0.0397839   	-0.0570097   	-0.0630534   	-0.0480075   	-0.0254544   	-0.0191205   	-0.0330026   	-0.0505655
   	-0.0443564   	-0.0232596   	-0.00808236   	-0.0111312   	-0.0278042   	-0.0457595   	-0.0493178   	-0.0333415   	-0.0139556   	-0.0105312   	-0.0259835   	-0.04316
   	-0.0306829   	-0.0137493   	-0.00252748   	-0.00484303   	-0.0168494   	-0.0279919   	-0.0272042   	-0.0151726   	-0.00382744   	-0.00454424   	-0.0186676   	-0.0319741
   	-0.0218521   	-0.00872819   	-0.00153861   	-0.00493381   	-0.0138826   	-0.0193976   	-0.0155979   	-0.00630743   	6.75877e-005   	-0.00268032   	-0.0145617   	-0.024382
   	-0.0205789   	-0.00915139   	-0.00420242   	-0.00875943   	-0.0168331   	-0.0209548   	-0.0177369   	-0.0109415   	-0.00659647   	-0.00864683   	-0.0172676   	-0.0241543
   	-0.0247132   	-0.0129389   	-0.00813388   	-0.0129869   	-0.0218273   	-0.0292064   	-0.0321949   	-0.0311374   	-0.0281236   	-0.02623   	-0.0284027   	-0.0303639
   	-0.0278864   	-0.0167345   	-0.0112547   	-0.0148249   	-0.0241548   	-0.0372571   	-0.0524017   	-0.0630883   	-0.0615916   	-0.0507919   	-0.0413244   	-0.0357019

