12 12 12
   	-0.0298077   	-0.0195805   	-0.0226966   	-0.0324199   	-0.0454636   	-0.0743831   	-0.135556   	-0.204847   	-0.208551   	-0.146814   	-0.0877205   	-0.0493929
   	-0.00722644   	-0.012649   	-0.020113   	-0.0255663   	-0.0349276   	-0.0675609   	-0.149535   	-0.246401   	-0.242986   	-0.146039   	-0.0601699   	-0.0152941
   	-0.00941761   	-0.0190793   	-0.0207813   	-0.018214   	-0.0227031   	-0.0513896   	-0.126107   	-0.209626   	-0.196102   	-0.107274   	-0.0362166   	-0.00477854
   	-0.0319196   	-0.0340219   	-0.0238464   	-0.0148588   	-0.0185016   	-0.0461785   	-0.105744   	-0.151718   	-0.122836   	-0.0648728   	-0.0297125   	-0.0193933
   	-0.0520954   	-0.0423286   	-0.0228887   	-0.0142448   	-0.0266895   	-0.0682826   	-0.126207   	-0.133772   	-0.0777247   	-0.0349337   	-0.0279961   	-0.0373712
   	-0.0552171   	-0.0367462   	-0.0156857   	-0.012821   	-0.0376081   	-0.0917788   	-0.14084   	-0.120075   	-0.0536494   	-0.0191023   	-0.025801   	-0.0447745
   	-0.0450975   	-0.0238702   	-0.00682682   	-0.00911145   	-0.0350097   	-0.0749126   	-0.0943612   	-0.068188   	-0.0267643   	-0.0111924   	-0.0246609   	-0.0425692
   	-0.0343566   	-0.014051   	-0.00207748   	-0.00667687   	-0.0244771   	-0.0393636   	-0.033873   	-0.015562   	-0.00313238   	-0.00656991   	-0.0244546   	-0.0382496
   	-0.0324376   	-0.0124968   	-0.00316556   	-0.0082192   	-0.0188809   	-0.0198132   	-0.00628291   	0.00543712   	0.00504325   	-0.00701416   	-0.027404   	-0.039578
   	-0.0413718   	-0.0183926   	-0.00831272   	-0.0132336   	-0.0213384   	-0.0207715   	-0.0108963   	-0.00431831   	-0.00685587   	-0.0181197   	-0.0381392   	-0.0505179
   	-0.0534602   	-0.0262724   	-0.0151839   	-0.0209275   	-0.0304223   	-0.0365384   	-0.0395937   	-0.0439384   	-0.0466744   	-0.0485161   	-0.0594553   	-0.0663121
   	-0.0532209   	-0.0278868   	-0.0195322   	-0.0269979   	-0.0395527   	-0.0573802   	-0.0852839   	-0.115185   	-0.119608   	-0.0986982   	-0.0831327   	-0.0717067

   	-0.0444862   	-0.0391059   	-0.0576102   	-0.0749013   	-0.0850551   	-0.111906   	-0.191399   	-0.304318   	-0.313695   	-0.211172   	-0.124628   	-0.0692975
   	0.012038   	-0.00233178   	-0.0295484   	-0.0480947   	-0.0611616   	-0.100774   	-0.220846   	-0.38957   	-0.389933   	-0.220868   	-0.0796899   	-0.00509652
   	0.0207891   	0.00453492   	-0.0118138   	-0.0196575   	-0.0287085   	-0.0681856   	-0.18645   	-0.338368   	-0.316472   	-0.156657   	-0.0370528   	0.0173326
   	0.000123759   	-0.00759405   	-0.00793964   	-0.00585151   	-0.0152135   	-0.0590047   	-0.159982   	-0.246546   	-0.19193   	-0.0826054   	-0.0178823   	0.00617937
   	-0.0208597   	-0.01846   	-0.00836965   	-0.00450616   	-0.024023   	-0.08643   	-0.180479   	-0.201834   	-0.113249   	-0.0372502   	-0.0123101   	-0.0113936
   	-0.0292398   	-0.0191292   	-0.00656399   	-0.0072653   	-0.0368255   	-0.103861   	-0.171612   	-0.154371   	-0.0712817   	-0.0202797   	-0.0142144   	-0.0229712
   	-0.0277358   	-0.0130757   	-0.00256212   	-0.00677021   	-0.0306119   	-0.0643843   	-0.0810418   	-0.0642426   	-0.0322853   	-0.0158617   	-0.020696   	-0.0288212
   	-0.0267184   	-0.00894608   	-0.000356039   	-0.00430992   	-0.0137557   	-0.0101581   	0.0076689   	0.0104518   	-0.00206129   	-0.0156213   	-0.0296917   	-0.0349544
   	-0.0386296   	-0.0150634   	-0.00455008   	-0.00636857   	-0.00690798   	0.0106655   	0.0359368   	0.0335825   	0.00740391   	-0.0203022   	-0.0439226   	-0.0511699
   	-0.0718289   	-0.0372638   	-0.0197176   	-0.0181912   	-0.0155439   	1.20895e-006   	0.018773   	0.0162883   	-0.00510726   	-0.0327893   	-0.0666752   	-0.084172
   	-0.110745   	-0.0679842   	-0.0459008   	-0.0424235   	-0.0390988   	-0.0313759   	-0.0277451   	-0.039102   	-0.0519667   	-0.0633037   	-0.0955298   	-0.119814
   	-0.111328   	-0.0759378   	-0.0642443   	-0.0670322   	-0.0686716   	-0.0752981   	-0.102731   	-0.147754   	-0.156423   	-0.127918   	-0.123727   	-0.125793

   	-0.0847816   	-0.0910033   	-0.124168   	-0.139894   	-0.138234   	-0.151121   	-0.214172   	-0.309221   	-0.304194   	-0.208681   	-0.145532   	-0.102957
   	0.0354618   	0.0148007   	-0.0335809   	-0.067963   	-0.0878171   	-0.128293   	-0.24246   	-0.4008   	-0.389817   	-0.217106   	-0.0762071   	0.00719397
   	0.059547   	0.0430705   	0.0125114   	-0.0101645   	-0.0278591   	-0.06921   	-0.182612   	-0.329634   	-0.306866   	-0.146062   	-0.0223172   	0.0421475
   	0.036029   	0.0284967   	0.0186563   	0.0106661   	-0.00358891   	-0.0448672   	-0.137118   	-0.221929   	-0.175578   	-0.0692105   	-0.000585045   	0.0307762
   	0.00981342   	0.00958855   	0.0115155   	0.0093929   	-0.0093483   	-0.0599171   	-0.136091   	-0.160819   	-0.0941095   	-0.0269696   	0.0024369   	0.0109014
   	-0.00436611   	0.000172368   	0.00529184   	0.0025657   	-0.0183893   	-0.0614359   	-0.105794   	-0.101847   	-0.0517613   	-0.0142731   	-0.00327348   	-0.00345189
   	-0.00948336   	-0.00151629   	0.00334893   	0.0015419   	-0.00568777   	-0.0076402   	-0.00493798   	-0.011913   	-0.0166857   	-0.0141997   	-0.0134693   	-0.0130508
   	-0.0169188   	-0.00408956   	0.00200696   	0.00467738   	0.0168045   	0.054575   	0.0882647   	0.0618221   	0.00877482   	-0.0208282   	-0.0299415   	-0.0266371
   	-0.0482996   	-0.0236854   	-0.0101015   	-0.00117078   	0.020854   	0.0699192   	0.110635   	0.0825993   	0.0141433   	-0.0373076   	-0.0627843   	-0.0629851
   	-0.131639   	-0.0844357   	-0.0515553   	-0.0299905   	-0.00146982   	0.0426873   	0.0776203   	0.0605631   	0.00207022   	-0.0615395   	-0.117679   	-0.141432
   	-0.239334   	-0.177647   	-0.126309   	-0.0884028   	-0.0504314   	-0.0123257   	0.0111171   	0.00036842   	-0.0338347   	-0.0851036   	-0.166131   	-0.226567
   	-0.24674   	-0.204631   	-0.174443   	-0.146847   	-0.114753   	-0.0910928   	-0.0932715   	-0.121723   	-0.12966   	-0.130287   	-0.180771   	-0.23199

   	-0.114731   	-0.124832   	-0.157362   	-0.165012   	-0.153183   	-0.150894   	-0.17635   	-0.208751   	-0.190983   	-0.153053   	-0.142607   	-0.128916
   	0.051657   	0.0346426   	-0.0186301   	-0.0606343   	-0.0864496   	-0.121617   	-0.192882   	-0.269371   	-0.244411   	-0.141146   	-0.0529523   	0.0134388
   	0.084234   	0.0734564   	0.0389617   	0.0072975   	-0.0179598   	-0.0544273   	-0.126269   	-0.204435   	-0.184984   	-0.0875296   	-0.00185759   	0.0552974
   	0.0583941   	0.0544298   	0.0407078   	0.0257947   	0.00843661   	-0.0219017   	-0.0758881   	-0.122644   	-0.0997216   	-0.0367983   	0.013637   	0.0441608
   	0.0289939   	0.0290878   	0.0268445   	0.0212345   	0.00723408   	-0.0206501   	-0.0581423   	-0.0734326   	-0.0458552   	-0.00986135   	0.0128642   	0.0240439
   	0.0120901   	0.0137895   	0.0151586   	0.013389   	0.00500177   	-0.00907578   	-0.0230725   	-0.0262962   	-0.0144179   	-0.000689142   	0.00738732   	0.0104011
   	0.00459642   	0.00729473   	0.00958146   	0.0128239   	0.0219159   	0.0441608   	0.0622261   	0.045248   	0.0151346   	0.00150553   	0.000429525   	0.00240902
   	-0.00580372   	0.000379528   	0.00525608   	0.0161321   	0.0471873   	0.108735   	0.155301   	0.1182   	0.0418752   	-0.00251081   	-0.0138281   	-0.010479
   	-0.0491422   	-0.0301636   	-0.01499   	0.00609898   	0.0509355   	0.130064   	0.191492   	0.151775   	0.0503876   	-0.0247372   	-0.0564518   	-0.0561871
   	-0.175608   	-0.126524   	-0.0814326   	-0.0372178   	0.0198931   	0.0967794   	0.156288   	0.131329   	0.0330839   	-0.0723998   	-0.148728   	-0.174097
   	-0.349497   	-0.278362   	-0.198513   	-0.121724   	-0.0474172   	0.0226131   	0.0710758   	0.0651606   	-0.00185344   	-0.11115   	-0.235308   	-0.314207
   	-0.357365   	-0.314396   	-0.263285   	-0.201362   	-0.135828   	-0.0817779   	-0.0502948   	-0.0470876   	-0.066853   	-0.126656   	-0.231194   	-0.318071

   	-0.0710509   	-0.0787322   	-0.106906   	-0.11738   	-0.107884   	-0.0963161   	-0.0937235   	-0.0950101   	-0.0909825   	-0.0929973   	-0.100482   	-0.0907926
   	0.0496977   	0.0392286   	-0.000378765   	-0.035548   	-0.0577194   	-0.0778929   	-0.105528   	-0.125865   	-0.109391   	-0.068445   	-0.0265566   	0.0150414
   	0.0753106   	0.0685533   	0.0422978   	0.0153665   	-0.00670048   	-0.0302672   	-0.0626888   	-0.0898301   	-0.0783013   	-0.0349961   	0.0114876   	0.0497027
   	0.056688   	0.0539335   	0.0421257   	0.0282076   	0.0136645   	-0.00483128   	-0.0294503   	-0.0477405   	-0.0384756   	-0.00904983   	0.0213373   	0.0435391
   	0.0337099   	0.0329705   	0.0293722   	0.0236764   	0.0148203   	0.00143004   	-0.0136243   	-0.0201518   	-0.0111192   	0.00519987   	0.0199559   	0.028911
   	0.0200735   	0.0190747   	0.0183577   	0.0177271   	0.0164198   	0.0148042   	0.0135046   	0.0115734   	0.0109943   	0.0137584   	0.0180005   	0.0197882
   	0.0155477   	0.0129733   	0.0129465   	0.0183222   	0.0325077   	0.0574471   	0.0781581   	0.0693903   	0.0424767   	0.0249516   	0.0199464   	0.0182766
   	0.0128526   	0.00880704   	0.00922806   	0.0218557   	0.0565402   	0.117867   	0.169295   	0.151409   	0.0878501   	0.041309   	0.0234571   	0.019342
   	-0.0107477   	-0.0118027   	-0.00757448   	0.0134264   	0.0644173   	0.152966   	0.232656   	0.217156   	0.12579   	0.0463768   	0.00816283   	0.00141225
   	-0.0981566   	-0.0833005   	-0.0620759   	-0.0236608   	0.0396503   	0.131887   	0.214629   	0.208311   	0.11333   	0.00687661   	-0.0623333   	-0.0773749
   	-0.225348   	-0.194924   	-0.153308   	-0.0934368   	-0.0201519   	0.0592765   	0.121836   	0.122391   	0.0495804   	-0.0583877   	-0.154751   	-0.192217
   	-0.227565   	-0.212696   	-0.196135   	-0.156202   	-0.0978961   	-0.0383912   	0.00634704   	0.0165458   	-0.0177805   	-0.0878097   	-0.16656   	-0.208116

   	-0.00249737   	-0.014551   	-0.0451455   	-0.0632747   	-0.0603286   	-0.0470813   	-0.0354512   	-0.0313834   	-0.0346723   	-0.0407912   	-0.0393761   	-0.018835
   	0.035265   	0.027523   	0.00164032   	-0.0228647   	-0.0359887   	-0.0413189   	-0.0453748   	-0.0468394   	-0.0401446   	-0.0265472   	-0.00792   	0.0155239
   	0.0453647   	0.0398122   	0.0239589   	0.00727424   	-0.00465921   	-0.013695   	-0.0235313   	-0.0300368   	-0.0243323   	-0.00724202   	0.0140158   	0.0328517
   	0.0377316   	0.0336099   	0.0251497   	0.0164529   	0.00999064   	0.00314969   	-0.00566748   	-0.0113193   	-0.00686089   	0.00641524   	0.0217257   	0.0325463
   	0.0266894   	0.0230313   	0.0180371   	0.0136496   	0.0115325   	0.00829914   	0.00359278   	0.00202496   	0.00644103   	0.0147579   	0.022757   	0.0264208
   	0.0208716   	0.0159439   	0.0120281   	0.0109041   	0.0137496   	0.0174418   	0.0203254   	0.0219198   	0.0225965   	0.0241537   	0.0257709   	0.0243205
   	0.0240926   	0.0152813   	0.010758   	0.013788   	0.0260069   	0.045258   	0.0631016   	0.0659583   	0.0550998   	0.0446139   	0.0387916   	0.0328324
   	0.0377347   	0.0206534   	0.0122909   	0.0189315   	0.0447253   	0.089986   	0.135119   	0.143362   	0.115466   	0.0858643   	0.0685484   	0.0572435
   	0.0539225   	0.0244125   	0.00846649   	0.0166863   	0.0546839   	0.12544   	0.201863   	0.223799   	0.183923   	0.134477   	0.103852   	0.0903487
   	0.0439759   	0.0076223   	-0.013473   	-0.00236494   	0.0423147   	0.119247   	0.201552   	0.228681   	0.187535   	0.129783   	0.0936198   	0.090512
   	-0.00324018   	-0.0329194   	-0.054098   	-0.040492   	0.00368212   	0.0660706   	0.123941   	0.139134   	0.10336   	0.0519214   	0.0197558   	0.0307738
   	-0.0218233   	-0.0448028   	-0.0762785   	-0.0782433   	-0.048612   	-0.00466895   	0.033118   	0.042655   	0.0198364   	-0.0141475   	-0.0339975   	-0.0177412

   	0.0262289   	0.00940811   	-0.0210079   	-0.0402986   	-0.0390239   	-0.0262209   	-0.0138266   	-0.0083545   	-0.00913284   	-0.00920827   	-0.000856159   	0.020387
   	0.0202075   	0.0108923   	-0.0102574   	-0.0282776   	-0.0316813   	-0.025489   	-0.0193873   	-0.0157787   	-0.0127772   	-0.00802458   	0.000594257   	0.0136747
   	0.0198365   	0.012076   	-0.00234904   	-0.014908   	-0.0150229   	-0.00891399   	-0.00643221   	-0.0059641   	-0.00324527   	0.00282286   	0.0107444   	0.0179066
   	0.017748   	0.00935194   	-0.00348072   	-0.013979   	-0.00880379   	0.00145058   	0.00399586   	0.00381351   	0.00626899   	0.0116471   	0.0172508   	0.0198035
   	0.0148408   	0.00568327   	-0.00752574   	-0.0182064   	-0.010567   	0.00279442   	0.00799194   	0.0102086   	0.0136294   	0.0178244   	0.020503   	0.0193793
   	0.0164228   	0.00639517   	-0.00526604   	-0.0125575   	-0.00506114   	0.00773598   	0.0161796   	0.0215714   	0.0251931   	0.0273483   	0.027172   	0.0230637
   	0.0275977   	0.0136132   	0.00271628   	-9.00292e-005   	0.00908018   	0.0247534   	0.0402105   	0.0499353   	0.0521818   	0.050768   	0.0472482   	0.0395923
   	0.0540225   	0.0285895   	0.0127318   	0.0113364   	0.0253659   	0.0522732   	0.0836351   	0.103447   	0.105761   	0.100313   	0.0924644   	0.0799146
   	0.0940967   	0.0486735   	0.0203403   	0.0160261   	0.035101   	0.076047   	0.127467   	0.162809   	0.170383   	0.164918   	0.155778   	0.142266
   	0.120492   	0.0597881   	0.018543   	0.00995488   	0.030626   	0.0754425   	0.130947   	0.169387   	0.179578   	0.178696   	0.178078   	0.179476
   	0.101461   	0.0472309   	0.0023292   	-0.00943786   	0.00833064   	0.0440091   	0.0828109   	0.10534   	0.1079   	0.107808   	0.117308   	0.140523
   	0.063851   	0.0270649   	-0.0168531   	-0.0354553   	-0.0247178   	0.00161206   	0.0269328   	0.0372739   	0.0331767   	0.0304887   	0.04191   	0.0720527

   	0.023304   	0.00406448   	-0.0225506   	-0.0374467   	-0.0332466   	-0.0204101   	-0.00967689   	-0.00408207   	-0.00163248   	0.00263369   	0.0121204   	0.0260736
   	0.00798567   	-0.00627595   	-0.0295776   	-0.0450553   	-0.0376237   	-0.0208609   	-0.0103653   	-0.00605197   	-0.00412677   	-0.00154984   	0.00331121   	0.00999817
   	0.00399278   	-0.0115471   	-0.0386997   	-0.0610097   	-0.0450839   	-0.0146148   	-0.00118609   	0.00178463   	0.00275694   	0.00456604   	0.00713294   	0.0088769
   	0.00176436   	-0.0177923   	-0.0569203   	-0.100567   	-0.0760905   	-0.0196565   	0.0032752   	0.00797506   	0.00924027   	0.0106345   	0.0114884   	0.00967826
   	0.00140591   	-0.0185034   	-0.0610612   	-0.114464   	-0.0933583   	-0.0299001   	0.000408151   	0.00988849   	0.0134839   	0.0151001   	0.014524   	0.0103545
   	0.00771155   	-0.00825303   	-0.0380109   	-0.0707735   	-0.0599337   	-0.0218241   	0.00270313   	0.0146586   	0.0205461   	0.0227021   	0.0213233   	0.0159312
   	0.022412   	0.00702983   	-0.0114157   	-0.0251116   	-0.0192945   	-0.000824141   	0.0167048   	0.0297389   	0.0377881   	0.0413043   	0.0400003   	0.0331799
   	0.0495771   	0.0263978   	0.00884873   	0.00166214   	0.00683529   	0.0211549   	0.0399049   	0.0576938   	0.0708258   	0.0787818   	0.0795094   	0.0708415
   	0.0879515   	0.048642   	0.022124   	0.0127676   	0.0183007   	0.0357587   	0.0611091   	0.0870978   	0.108902   	0.125946   	0.133271   	0.126164
   	0.114202   	0.0623104   	0.0254476   	0.0115586   	0.0164975   	0.0351172   	0.0619272   	0.0893107   	0.114221   	0.13851   	0.156325   	0.160188
   	0.100795   	0.0534791   	0.0143973   	-0.00170976   	0.00214767   	0.0178123   	0.0378459   	0.0559421   	0.0723818   	0.0929189   	0.115561   	0.132962
   	0.0630507   	0.0292767   	-0.00661476   	-0.0238247   	-0.0198553   	-0.00487968   	0.010345   	0.0196071   	0.0251836   	0.0356695   	0.0539921   	0.0751768

   	0.00790977   	-0.0106103   	-0.0306484   	-0.0385639   	-0.0307758   	-0.0190138   	-0.0114497   	-0.00713657   	-0.00324949   	0.00244233   	0.00995766   	0.0155824
   	-0.00422474   	-0.0235377   	-0.0494867   	-0.0626224   	-0.0445725   	-0.0197386   	-0.00872005   	-0.00587572   	-0.0042383   	-0.00141715   	0.00213747   	0.003821
   	-0.00995155   	-0.0374732   	-0.0873307   	-0.133023   	-0.0955631   	-0.0287153   	-0.00299298   	0.00116288   	0.00136328   	0.00235253   	0.00341492   	0.00156406
   	-0.0160844   	-0.0537026   	-0.144649   	-0.275868   	-0.223536   	-0.069183   	-0.00833699   	0.004463   	0.00606053   	0.00601877   	0.0047152   	-0.000687215
   	-0.0157847   	-0.0486045   	-0.142114   	-0.302553   	-0.274352   	-0.103899   	-0.0224058   	0.00173162   	0.00790978   	0.00841772   	0.00541429   	-0.00187846
   	-0.00562392   	-0.023905   	-0.076709   	-0.16067   	-0.15821   	-0.0764869   	-0.0220823   	0.00173236   	0.0111158   	0.0131095   	0.00980303   	0.00278782
   	0.0086486   	-0.00260623   	-0.0259793   	-0.0546153   	-0.0560955   	-0.0312799   	-0.00705674   	0.00972641   	0.0201664   	0.0244603   	0.0223514   	0.0157784
   	0.0289997   	0.0157884   	0.00222749   	-0.00776341   	-0.00876696   	-0.00146432   	0.0101136   	0.023465   	0.0363668   	0.0454405   	0.0470079   	0.0410962
   	0.0548129   	0.0328463   	0.0162137   	0.00762573   	0.0063185   	0.0110267   	0.0211385   	0.0358391   	0.0534649   	0.0700929   	0.0787113   	0.0755633
   	0.070997   	0.0408564   	0.0179446   	0.00663483   	0.00484088   	0.0100065   	0.0206952   	0.0359749   	0.0554892   	0.0772711   	0.0934257   	0.096227
   	0.0614277   	0.0316159   	0.00693304   	-0.00501425   	-0.00596688   	-0.000226737   	0.00922886   	0.0210629   	0.036021   	0.0550648   	0.0731357   	0.08142
   	0.0342595   	0.0097519   	-0.0132942   	-0.0236483   	-0.0209193   	-0.0121634   	-0.00330823   	0.00386005   	0.0113134   	0.0226625   	0.0366594   	0.0458649

   	-0.00925439   	-0.0217997   	-0.0316746   	-0.0324914   	-0.0252603   	-0.0189843   	-0.0175101   	-0.0165317   	-0.0127413   	-0.00692519   	-0.00168728   	-0.00130093
   	-0.0150987   	-0.0327567   	-0.0511077   	-0.0560151   	-0.0373436   	-0.017576   	-0.0127223   	-0.0140019   	-0.0125003   	-0.00781912   	-0.00375327   	-0.00471068
   	-0.022218   	-0.0514825   	-0.0975212   	-0.136319   	-0.0971352   	-0.0320149   	-0.00834836   	-0.00643601   	-0.00651407   	-0.00414349   	-0.002531   	-0.00651294
   	-0.0341659   	-0.0725113   	-0.159684   	-0.28784   	-0.239427   	-0.0849675   	-0.0189119   	-0.00386245   	-0.00184129   	-0.00207587   	-0.00488736   	-0.0136435
   	-0.0353205   	-0.0607497   	-0.142689   	-0.301528   	-0.292772   	-0.130135   	-0.0404452   	-0.00979528   	-0.00100041   	-0.00114353   	-0.00762286   	-0.0191876
   	-0.0237301   	-0.0304139   	-0.0715619   	-0.157279   	-0.173964   	-0.102097   	-0.0436281   	-0.0133862   	6.97867e-005   	0.00186898   	-0.00560436   	-0.0166175
   	-0.0106041   	-0.0108597   	-0.0254871   	-0.0547212   	-0.0661806   	-0.0494938   	-0.026772   	-0.00757187   	0.00537968   	0.00890096   	0.00261339   	-0.00684192
   	0.00457127   	0.00339734   	-0.00167403   	-0.0104297   	-0.016463   	-0.0158675   	-0.00897213   	0.00250581   	0.0142704   	0.0201416   	0.0170606   	0.00974148
   	0.0206947   	0.0145871   	0.00846418   	0.00245705   	-0.00222865   	-0.003692   	0.000238169   	0.00991017   	0.0223104   	0.0317904   	0.033682   	0.0292318
   	0.0287849   	0.0172737   	0.00722294   	-0.000100626   	-0.00423559   	-0.00446428   	0.000228304   	0.00985171   	0.022516   	0.0345394   	0.0410899   	0.0396971
   	0.0215798   	0.00823181   	-0.00310936   	-0.00995706   	-0.0124184   	-0.0112672   	-0.0066416   	0.00135054   	0.0117164   	0.0227713   	0.0309798   	0.0316862
   	0.00449542   	-0.00825068   	-0.018502   	-0.022456   	-0.0209578   	-0.0175584   	-0.0140761   	-0.00970073   	-0.00363823   	0.00407667   	0.011207   	0.0123177

   	-0.0207077   	-0.0232463   	-0.0232544   	-0.0212709   	-0.0200854   	-0.024212   	-0.0339151   	-0.0407918   	-0.037941   	-0.0287875   	-0.0205898   	-0.01819
   	-0.0191954   	-0.028013   	-0.0322752   	-0.0294751   	-0.0214459   	-0.0190731   	-0.0287478   	-0.0396132   	-0.0378972   	-0.025915   	-0.014977   	-0.0122192
   	-0.0258479   	-0.0414266   	-0.0552997   	-0.0618437   	-0.044692   	-0.0226959   	-0.0202271   	-0.0275448   	-0.0276241   	-0.019106   	-0.0116663   	-0.0125945
   	-0.0436615   	-0.0585059   	-0.0814757   	-0.114837   	-0.0982006   	-0.0471902   	-0.0226529   	-0.0186227   	-0.0175808   	-0.015719   	-0.0173502   	-0.0257456
   	-0.0529368   	-0.0531576   	-0.0694458   	-0.119695   	-0.127424   	-0.0786849   	-0.042095   	-0.0234473   	-0.0137385   	-0.0133864   	-0.0232443   	-0.03851
   	-0.0459855   	-0.0335553   	-0.0365609   	-0.0711916   	-0.0933494   	-0.0787295   	-0.0542911   	-0.0298841   	-0.0118341   	-0.00898334   	-0.0219769   	-0.039341
   	-0.0323759   	-0.018822   	-0.0147501   	-0.0288528   	-0.0456634   	-0.0505895   	-0.0419432   	-0.0230805   	-0.00574092   	-0.00234015   	-0.0145956   	-0.0298815
   	-0.0173245   	-0.00736515   	-0.00230952   	-0.00723772   	-0.0174827   	-0.0249111   	-0.0222909   	-0.00989793   	0.00281778   	0.00539376   	-0.00427813   	-0.0158432
   	-0.00539824   	1.0323e-005   	0.00216789   	-0.0018922   	-0.00917262   	-0.0139536   	-0.0111114   	-0.00143348   	0.00839485   	0.0110937   	0.00479687   	-0.00343404
   	-0.00169018   	1.51206e-005   	-0.000820167   	-0.00570635   	-0.0115815   	-0.0141681   	-0.0106014   	-0.00224665   	0.00603427   	0.00948632   	0.0065605   	0.000885729
   	-0.00753329   	-0.00709617   	-0.00836291   	-0.0124812   	-0.0172043   	-0.0198749   	-0.0184298   	-0.0130116   	-0.00665585   	-0.00260246   	-0.00240497   	-0.00551754
   	-0.0169193   	-0.0168502   	-0.0166829   	-0.0179292   	-0.0204996   	-0.0243876   	-0.0282472   	-0.0288335   	-0.0252233   	-0.0198396   	-0.0158993   	-0.0161535

   	-0.025904   	-0.0197366   	-0.0164847   	-0.0181805   	-0.02525   	-0.0421345   	-0.0713621   	-0.097045   	-0.0955833   	-0.0714173   	-0.0473871   	-0.0327849
   	-0.016831   	-0.0198321   	-0.0191217   	-0.0174104   	-0.0200617   	-0.0355609   	-0.0710048   	-0.106244   	-0.102968   	-0.0666222   	-0.0327032   	-0.0160789
   	-0.0219318   	-0.0286728   	-0.0269559   	-0.0226984   	-0.0208559   	-0.0286964   	-0.0552833   	-0.0844389   	-0.0812053   	-0.050632   	-0.0235916   	-0.0130946
   	-0.0432326   	-0.0436403   	-0.0354492   	-0.032168   	-0.0304554   	-0.0313852   	-0.0453352   	-0.0595111   	-0.0535983   	-0.0374917   	-0.0282043   	-0.0293471
   	-0.0612129   	-0.0483451   	-0.0321138   	-0.0336212   	-0.0429153   	-0.0517344   	-0.062929   	-0.0595734   	-0.0393235   	-0.0275938   	-0.0337708   	-0.0476829
   	-0.0614791   	-0.0393992   	-0.0201648   	-0.0241665   	-0.0444954   	-0.0686846   	-0.0820984   	-0.065114   	-0.0325715   	-0.0194444   	-0.0326961   	-0.0531181
   	-0.0485824   	-0.0262827   	-0.00950671   	-0.0125215   	-0.032412   	-0.0571286   	-0.0661383   	-0.0476983   	-0.0208487   	-0.0125086   	-0.0273933   	-0.0461387
   	-0.0335578   	-0.0153505   	-0.00330299   	-0.00592848   	-0.0201645   	-0.0349279   	-0.0359019   	-0.0218439   	-0.00722937   	-0.00637505   	-0.0209337   	-0.0350297
   	-0.0244132   	-0.0101277   	-0.00246883   	-0.00615716   	-0.0161597   	-0.0227036   	-0.0184163   	-0.00748133   	-0.000167658   	-0.00349241   	-0.0168519   	-0.0275292
   	-0.0237069   	-0.0109982   	-0.00555787   	-0.0102634   	-0.0185741   	-0.0224103   	-0.0179123   	-0.00972636   	-0.00534097   	-0.0089464   	-0.01976   	-0.0279
   	-0.0287955   	-0.0154156   	-0.00991197   	-0.0147579   	-0.0233977   	-0.0300712   	-0.0317711   	-0.0295753   	-0.0269578   	-0.0271349   	-0.0318161   	-0.0351495
   	-0.0319858   	-0.0193533   	-0.0131861   	-0.0166678   	-0.0256159   	-0.038085   	-0.0524566   	-0.0625114   	-0.0617384   	-0.0530267   	-0.0455331   	-0.0406456

