12 12 12
   	-0.102394   	-0.0364972   	-0.0388767   	-0.0467635   	-0.0420435   	-0.0554083   	-0.11535   	-0.215971   	-0.312976   	-0.353678   	-0.322403   	-0.238643
   	-0.141855   	-0.072811   	-0.0561259   	-0.0450685   	-0.0350057   	-0.0525074   	-0.141616   	-0.310012   	-0.44208   	-0.427464   	-0.351475   	-0.264032
   	-0.230584   	-0.200867   	-0.135083   	-0.0653831   	-0.0296719   	-0.0365879   	-0.111891   	-0.24237   	-0.283399   	-0.213389   	-0.203542   	-0.224416
   	-0.359961   	-0.387809   	-0.247874   	-0.093219   	-0.022938   	-0.021848   	-0.0990428   	-0.228434   	-0.219786   	-0.11016   	-0.122371   	-0.211986
   	-0.386842   	-0.414771   	-0.258781   	-0.0926878   	-0.0244526   	-0.0534897   	-0.22772   	-0.537138   	-0.5844   	-0.325376   	-0.204791   	-0.240039
   	-0.257511   	-0.23735   	-0.144084   	-0.0549895   	-0.0370203   	-0.128257   	-0.399533   	-0.824404   	-0.930438   	-0.567512   	-0.303777   	-0.233675
   	-0.123744   	-0.0847179   	-0.0500302   	-0.0266488   	-0.0530845   	-0.159625   	-0.3359   	-0.523095   	-0.58571   	-0.434813   	-0.269835   	-0.177979
   	-0.0589103   	-0.0246106   	-0.0178379   	-0.0264003   	-0.0674179   	-0.130598   	-0.158717   	-0.151713   	-0.166534   	-0.183273   	-0.168223   	-0.121379
   	-0.0408949   	-0.014682   	-0.0219909   	-0.0468401   	-0.0806237   	-0.0919011   	-0.0534574   	-0.0124505   	-0.0172407   	-0.0602714   	-0.0971469   	-0.0891382
   	-0.0479267   	-0.0263152   	-0.0414661   	-0.0709326   	-0.086948   	-0.0712633   	-0.0270572   	0.00588066   	0.00211485   	-0.0334992   	-0.0755491   	-0.0855521
   	-0.0687772   	-0.0427627   	-0.056921   	-0.0780954   	-0.0776711   	-0.0631261   	-0.0407182   	-0.0227473   	-0.0290036   	-0.0618108   	-0.101448   	-0.112021
   	-0.0768458   	-0.0410133   	-0.0503221   	-0.0630238   	-0.0570678   	-0.0563707   	-0.0713472   	-0.0916802   	-0.11843   	-0.151587   	-0.168646   	-0.146185

   	-0.0729529   	-0.00693697   	-0.0412148   	-0.0575145   	-0.043623   	-0.0601761   	-0.158702   	-0.359813   	-0.575328   	-0.606398   	-0.449133   	-0.251926
   	-0.0605047   	-0.00732893   	-0.0218364   	-0.0302421   	-0.0268917   	-0.0640112   	-0.238006   	-0.644806   	-1.02341   	-0.855681   	-0.47089   	-0.212963
   	-0.146418   	-0.167321   	-0.134191   	-0.0662086   	-0.0277763   	-0.0599344   	-0.240429   	-0.617333   	-0.784057   	-0.466675   	-0.225599   	-0.139079
   	-0.271271   	-0.352323   	-0.252615   	-0.100738   	-0.0289362   	-0.0625263   	-0.2599   	-0.601825   	-0.544705   	-0.167538   	-0.0764123   	-0.124263
   	-0.295514   	-0.353389   	-0.236842   	-0.0863084   	-0.0299818   	-0.111385   	-0.467115   	-1.14334   	-1.15246   	-0.463139   	-0.182543   	-0.170192
   	-0.200574   	-0.196179   	-0.126094   	-0.0460753   	-0.0407323   	-0.184337   	-0.661859   	-1.62174   	-1.97702   	-1.06607   	-0.416214   	-0.213498
   	-0.106833   	-0.0680113   	-0.0422155   	-0.0217931   	-0.0535599   	-0.177884   	-0.445429   	-0.94072   	-1.35184   	-1.01062   	-0.487243   	-0.214034
   	-0.0615244   	-0.015885   	-0.0124522   	-0.0218506   	-0.0556551   	-0.0900523   	-0.104176   	-0.195213   	-0.40666   	-0.487752   	-0.349567   	-0.178862
   	-0.0574195   	-0.0171988   	-0.0274741   	-0.0480072   	-0.0595657   	-0.0181316   	0.0587798   	0.049517   	-0.056996   	-0.17761   	-0.208758   	-0.148092
   	-0.0965602   	-0.0757033   	-0.0992539   	-0.106077   	-0.0789388   	-0.0130293   	0.0595123   	0.0629509   	0.00168784   	-0.0851012   	-0.150476   	-0.152587
   	-0.160034   	-0.167038   	-0.196496   	-0.160875   	-0.0926666   	-0.0361352   	0.00274954   	0.00688821   	-0.0323126   	-0.100554   	-0.169401   	-0.192853
   	-0.141593   	-0.133168   	-0.170771   	-0.141613   	-0.0799039   	-0.0519929   	-0.0662924   	-0.10956   	-0.170974   	-0.234492   	-0.261891   	-0.220736

   	-0.117556   	-0.0830173   	-0.126722   	-0.0978131   	-0.0460598   	-0.0367287   	-0.101448   	-0.284322   	-0.519369   	-0.551191   	-0.400975   	-0.239933
   	-0.0106144   	0.0431691   	0.016518   	-0.00739231   	-0.0101253   	-0.0435699   	-0.195229   	-0.588123   	-0.99975   	-0.80093   	-0.37427   	-0.128854
   	-0.0546692   	-0.0799147   	-0.0737124   	-0.0368207   	-0.0143305   	-0.0526787   	-0.229303   	-0.615952   	-0.826465   	-0.476689   	-0.164217   	-0.0495844
   	-0.139949   	-0.221548   	-0.176285   	-0.0770558   	-0.0305687   	-0.0772242   	-0.266464   	-0.562825   	-0.496984   	-0.148278   	-0.0311072   	-0.0385063
   	-0.152277   	-0.220687   	-0.164099   	-0.0686647   	-0.0407712   	-0.127428   	-0.41074   	-0.856665   	-0.775158   	-0.274409   	-0.07677   	-0.0595364
   	-0.0952477   	-0.117396   	-0.0832056   	-0.0333116   	-0.0403223   	-0.155466   	-0.497921   	-1.19028   	-1.5012   	-0.827365   	-0.274509   	-0.0925362
   	-0.0493988   	-0.032769   	-0.019209   	-0.00338348   	-0.0168301   	-0.0706179   	-0.24082   	-0.747363   	-1.32594   	-1.02893   	-0.423074   	-0.129682
   	-0.0351557   	0.000889036   	0.00507971   	0.011127   	0.0320989   	0.116238   	0.176805   	-0.0608887   	-0.496187   	-0.6033   	-0.358059   	-0.142334
   	-0.0671526   	-0.0336731   	-0.0350764   	-0.0170064   	0.0458999   	0.220691   	0.383375   	0.234902   	-0.0629421   	-0.248729   	-0.246497   	-0.158245
   	-0.214607   	-0.263891   	-0.264215   	-0.147265   	-0.0158149   	0.153707   	0.302431   	0.230987   	0.0312999   	-0.128491   	-0.209246   	-0.227218
   	-0.461249   	-0.719046   	-0.687815   	-0.340329   	-0.0938581   	0.0508951   	0.147256   	0.125502   	0.00356172   	-0.120794   	-0.228987   	-0.326269
   	-0.387127   	-0.588716   	-0.610551   	-0.330649   	-0.11532   	-0.0171862   	0.0151524   	-0.0283059   	-0.130632   	-0.22792   	-0.298257   	-0.328739

   	-0.188256   	-0.259953   	-0.252533   	-0.130768   	-0.0392691   	0.00138832   	-0.010494   	-0.11563   	-0.253604   	-0.265592   	-0.202294   	-0.166317
   	-0.0152252   	0.0159486   	0.0022577   	-0.00226269   	0.00419438   	-0.0100545   	-0.0910498   	-0.289458   	-0.475638   	-0.378327   	-0.178615   	-0.0676281
   	-0.0358748   	-0.0288739   	-0.0202423   	-0.00479598   	0.00335735   	-0.0209197   	-0.114314   	-0.297502   	-0.405784   	-0.268136   	-0.108489   	-0.0413845
   	-0.100008   	-0.118076   	-0.0826375   	-0.03407   	-0.0170696   	-0.0473233   	-0.130858   	-0.228598   	-0.203003   	-0.0991125   	-0.0535868   	-0.0524049
   	-0.109643   	-0.125412   	-0.0830952   	-0.0349016   	-0.0301495   	-0.0790684   	-0.176588   	-0.262706   	-0.205094   	-0.0992819   	-0.0588085   	-0.0552297
   	-0.063978   	-0.0646887   	-0.0354048   	-0.00740497   	-0.0158617   	-0.0683362   	-0.181926   	-0.377011   	-0.495209   	-0.338607   	-0.136787   	-0.0473413
   	-0.0236123   	-0.00891699   	0.0103213   	0.0310237   	0.0458756   	0.0630361   	0.018841   	-0.241208   	-0.568194   	-0.481468   	-0.19614   	-0.0477656
   	-0.0147658   	0.00808477   	0.0256554   	0.0597097   	0.145341   	0.3368   	0.467931   	0.192682   	-0.213806   	-0.299308   	-0.161874   	-0.0561198
   	-0.0790674   	-0.0732029   	-0.0459267   	0.0268682   	0.171913   	0.507369   	0.823897   	0.54741   	0.0743726   	-0.130999   	-0.140944   	-0.107617
   	-0.372108   	-0.554661   	-0.448292   	-0.153985   	0.0727617   	0.393743   	0.752391   	0.602576   	0.162334   	-0.0924589   	-0.188478   	-0.256804
   	-0.877256   	-1.57864   	-1.26114   	-0.455566   	-0.0591551   	0.193526   	0.440392   	0.407079   	0.125739   	-0.085277   	-0.222069   	-0.418877
   	-0.696041   	-1.25207   	-1.07692   	-0.453971   	-0.120242   	0.0426973   	0.153677   	0.128387   	-0.0159793   	-0.127032   	-0.215714   	-0.356366

   	-0.121014   	-0.231464   	-0.198818   	-0.096735   	-0.0188511   	0.0403309   	0.0700061   	0.0148959   	-0.068186   	-0.0703726   	-0.0298233   	-0.0307815
   	-0.000381969   	-0.0158719   	-0.0198407   	-0.00810357   	0.00708264   	0.0132529   	-0.0161231   	-0.101776   	-0.171346   	-0.132483   	-0.0500616   	-0.00479439
   	-0.0231044   	-0.0115172   	-0.00258847   	0.00602764   	0.0104656   	0.00234254   	-0.0358155   	-0.113746   	-0.174823   	-0.147628   	-0.0811622   	-0.03753
   	-0.0748206   	-0.052258   	-0.0240973   	-0.00463233   	-0.00145374   	-0.0141539   	-0.0402664   	-0.0734153   	-0.0982037   	-0.108004   	-0.0971108   	-0.0754408
   	-0.0870986   	-0.0597073   	-0.0264259   	-0.00655051   	-0.00908445   	-0.0291108   	-0.0514444   	-0.0606688   	-0.0687481   	-0.0947964   	-0.100825   	-0.0789656
   	-0.0548903   	-0.0286009   	-0.00055153   	0.0148569   	0.00996919   	-0.0117819   	-0.044633   	-0.0909317   	-0.147081   	-0.152383   	-0.101524   	-0.0500974
   	-0.021418   	0.00176492   	0.0281631   	0.0522789   	0.0743209   	0.0936639   	0.0765451   	-0.0223923   	-0.146449   	-0.14855   	-0.0727143   	-0.0196823
   	-0.0166571   	-0.000244353   	0.0285829   	0.0768702   	0.166717   	0.316373   	0.398475   	0.233871   	0.008923   	-0.0572949   	-0.0322303   	-0.0111496
   	-0.0776544   	-0.0857677   	-0.0452876   	0.041063   	0.191095   	0.501313   	0.797069   	0.575455   	0.157872   	-0.0187378   	-0.0452229   	-0.0517523
   	-0.308485   	-0.449459   	-0.33164   	-0.092733   	0.114059   	0.480589   	0.966593   	0.844288   	0.300209   	-0.000874809   	-0.0937584   	-0.160734
   	-0.637907   	-1.08368   	-0.808574   	-0.284686   	0.00565265   	0.302519   	0.703645   	0.716681   	0.321924   	0.0437264   	-0.0842952   	-0.24099
   	-0.47855   	-0.850965   	-0.67899   	-0.290602   	-0.0632367   	0.110914   	0.292861   	0.296294   	0.12361   	0.00778467   	-0.0484051   	-0.16102

   	-0.0236973   	-0.0865829   	-0.0882441   	-0.0531999   	-0.00740421   	0.0513223   	0.0995198   	0.0653178   	-0.00314607   	-0.00628483   	0.0304216   	0.0375563
   	-0.00403596   	-0.0192336   	-0.0207401   	-0.0122136   	0.00148534   	0.0182682   	0.0180423   	-0.028589   	-0.0794118   	-0.0706803   	-0.0261053   	0.00113103
   	-0.0209213   	-0.0102798   	-0.00238337   	0.00332056   	0.00733644   	0.00974284   	-0.00101537   	-0.0454757   	-0.10465   	-0.117938   	-0.0802563   	-0.0391897
   	-0.0421302   	-0.0162637   	-0.00260121   	0.00113092   	0.00194007   	0.00166458   	-0.00230753   	-0.0240164   	-0.0778572   	-0.124884   	-0.113631   	-0.0681065
   	-0.0438238   	-0.0156706   	-0.00402393   	-0.00346272   	-0.00376661   	-0.00743439   	-0.0100516   	-0.0144914   	-0.0523046   	-0.106528   	-0.108478   	-0.0635226
   	-0.0262405   	-0.00399969   	0.0071201   	0.0097588   	0.00927186   	-0.000955971   	-0.0150759   	-0.0249803   	-0.0525039   	-0.080647   	-0.06942   	-0.0304923
   	-0.00885913   	0.00562812   	0.0214985   	0.036289   	0.0488308   	0.0468351   	0.0242953   	-0.000496228   	-0.0226723   	-0.026746   	-0.0134494   	0.00419829
   	-0.00412791   	-0.00170299   	0.0173136   	0.0508453   	0.0976014   	0.144996   	0.146664   	0.0887583   	0.0264338   	0.013172   	0.0233489   	0.0246751
   	-0.0172576   	-0.0382506   	-0.0227257   	0.0260263   	0.106272   	0.241587   	0.356493   	0.278149   	0.104083   	0.0315748   	0.0369338   	0.0350746
   	-0.0667978   	-0.142868   	-0.122773   	-0.0369576   	0.0728068   	0.286611   	0.589795   	0.607326   	0.327628   	0.135441   	0.0831318   	0.051046
   	-0.131504   	-0.287969   	-0.250248   	-0.107965   	0.0257678   	0.235812   	0.565148   	0.664256   	0.428584   	0.226802   	0.143322   	0.0726308
   	-0.0947968   	-0.234524   	-0.220888   	-0.119249   	-0.0171722   	0.117572   	0.288967   	0.315106   	0.188705   	0.110281   	0.0952337   	0.0592189

   	0.00742054   	-0.0330897   	-0.0506141   	-0.0416191   	-0.0113618   	0.0414726   	0.0906012   	0.0588347   	-0.00793345   	-0.00846663   	0.0337297   	0.0532757
   	-0.0170651   	-0.0255013   	-0.0300486   	-0.0256967   	-0.0113089   	0.0141412   	0.0324468   	-0.00292614   	-0.0643058   	-0.0767006   	-0.0437993   	-0.0131444
   	-0.025411   	-0.0167107   	-0.0153921   	-0.015038   	-0.00585849   	0.0111865   	0.0204039   	-0.0136157   	-0.0881677   	-0.125499   	-0.0935181   	-0.0447983
   	-0.0210941   	-0.00624561   	-0.012733   	-0.0284797   	-0.0197022   	0.00583396   	0.0233519   	0.00957379   	-0.0613109   	-0.125091   	-0.106737   	-0.050471
   	-0.00941672   	-0.00154591   	-0.0221063   	-0.0508483   	-0.0394121   	-0.011262   	0.0099806   	0.0212328   	-0.0161068   	-0.0737094   	-0.0718651   	-0.0291878
   	0.00266165   	1.65945e-005   	-0.0200701   	-0.0398984   	-0.0304226   	-0.0187193   	-0.00983543   	0.0126794   	0.0181697   	-0.00258148   	-0.00779019   	0.00762181
   	0.0139745   	0.00364823   	-0.00536958   	-0.00870713   	-0.00152532   	-0.005368   	-0.0155235   	0.0012162   	0.0351341   	0.054854   	0.0541649   	0.0449298
   	0.0282158   	0.00669893   	0.00416913   	0.0137754   	0.0277081   	0.0294659   	0.0145508   	0.0105041   	0.0358141   	0.0790346   	0.100999   	0.0838355
   	0.0553952   	0.00962851   	-0.00132006   	0.00971982   	0.0325348   	0.0660497   	0.0971137   	0.102164   	0.100722   	0.134067   	0.169519   	0.148173
   	0.0889279   	0.00427597   	-0.023692   	-0.0126927   	0.0206139   	0.0965864   	0.223662   	0.307067   	0.296707   	0.282554   	0.28587   	0.240457
   	0.089685   	-0.0216617   	-0.0574406   	-0.0376072   	0.00958796   	0.106921   	0.270072   	0.367039   	0.338853   	0.312845   	0.31274   	0.268002
   	0.0523155   	-0.0354887   	-0.0691538   	-0.0531024   	-0.0065973   	0.0789358   	0.18545   	0.193428   	0.129199   	0.127155   	0.168192   	0.167984

   	0.022173   	-0.0320708   	-0.0614354   	-0.056556   	-0.0239532   	0.0319247   	0.0805803   	0.0498943   	-0.0137018   	-0.00759559   	0.0503102   	0.0803399
   	-0.0133457   	-0.0379201   	-0.0601319   	-0.0605196   	-0.0336934   	0.00962367   	0.0440102   	0.0125902   	-0.0587056   	-0.0797283   	-0.0418605   	-0.000128784
   	-0.019681   	-0.0292257   	-0.0577946   	-0.0770859   	-0.0432657   	0.01175   	0.0440648   	0.0121868   	-0.0804189   	-0.131088   	-0.0932892   	-0.0328997
   	-0.00742857   	-0.0196527   	-0.083248   	-0.164498   	-0.115495   	-0.0040078   	0.0547961   	0.0513719   	-0.0322047   	-0.105734   	-0.0842735   	-0.0272083
   	0.00791716   	-0.0187089   	-0.114383   	-0.240358   	-0.189114   	-0.0526431   	0.0311376   	0.0757598   	0.0473104   	-0.0139266   	-0.0217172   	0.00307574
   	0.0177163   	-0.0162231   	-0.0911574   	-0.170558   	-0.14162   	-0.0662228   	-0.000347431   	0.0688481   	0.10086   	0.0796526   	0.0533815   	0.0396347
   	0.0274638   	-0.00507031   	-0.0436639   	-0.0740608   	-0.0665136   	-0.0474069   	-0.0179163   	0.0411908   	0.104536   	0.129126   	0.110288   	0.073781
   	0.0434262   	0.00855898   	-0.00985991   	-0.0178848   	-0.0171452   	-0.0183369   	-0.0111927   	0.0256901   	0.0889224   	0.147161   	0.156244   	0.113465
   	0.0768222   	0.0238121   	0.00374343   	-0.00178761   	-0.00171969   	0.00317715   	0.0225857   	0.062963   	0.123589   	0.19795   	0.232836   	0.185318
   	0.123659   	0.0372357   	0.002772   	-0.00608349   	-0.00297381   	0.0191121   	0.0724905   	0.138107   	0.200213   	0.27884   	0.332982   	0.283639
   	0.136776   	0.0293836   	-0.0141089   	-0.0185053   	-0.00272643   	0.0386849   	0.105727   	0.1463   	0.165614   	0.238064   	0.325492   	0.308457
   	0.0885708   	-0.00359537   	-0.0437506   	-0.0408496   	-0.00895239   	0.0518367   	0.112918   	0.0948661   	0.0505949   	0.0979058   	0.195314   	0.213801

   	0.0121467   	-0.0537292   	-0.0844049   	-0.0723638   	-0.0286757   	0.032726   	0.0785305   	0.0575846   	0.0121187   	0.0213849   	0.071849   	0.0840633
   	-0.0170149   	-0.0599357   	-0.100697   	-0.103095   	-0.0536773   	0.013326   	0.0587016   	0.0346598   	-0.0291734   	-0.052317   	-0.0222429   	0.00945812
   	-0.0179992   	-0.0565298   	-0.143052   	-0.202296   	-0.117092   	0.00394265   	0.0627455   	0.0368786   	-0.0543333   	-0.109303   	-0.0793751   	-0.0227804
   	-0.0066097   	-0.0722137   	-0.268341   	-0.49761   	-0.338345   	-0.0541649   	0.0657159   	0.0771684   	-0.00190345   	-0.0753145   	-0.0621287   	-0.0124787
   	0.00561313   	-0.0797132   	-0.3296   	-0.66461   	-0.506053   	-0.15097   	0.0269869   	0.101689   	0.0814636   	0.0220657   	0.00583702   	0.0182968
   	0.0165039   	-0.0498179   	-0.204232   	-0.387562   	-0.327611   	-0.144462   	-0.00743167   	0.0904887   	0.125313   	0.100486   	0.0682269   	0.0461874
   	0.0238372   	-0.0174015   	-0.0820502   	-0.143711   	-0.134646   	-0.0830081   	-0.0175354   	0.0576142   	0.113249   	0.123888   	0.0992175   	0.0632232
   	0.0297381   	0.00126617   	-0.0229848   	-0.039873   	-0.04152   	-0.0345188   	-0.0116326   	0.032593   	0.083509   	0.117921   	0.113849   	0.0776312
   	0.0473914   	0.0144364   	-0.00146771   	-0.00922068   	-0.012634   	-0.0116957   	0.00298391   	0.0344271   	0.0775864   	0.126478   	0.146525   	0.113731
   	0.0803935   	0.0256078   	0.00248514   	-0.00573691   	-0.00730333   	0.000523881   	0.0223702   	0.0487295   	0.08178   	0.143752   	0.198528   	0.177093
   	0.0970218   	0.0185256   	-0.0121491   	-0.0150373   	-0.00421968   	0.0191826   	0.0460833   	0.0495728   	0.0527178   	0.118077   	0.21099   	0.212887
   	0.0655868   	-0.0193706   	-0.0500644   	-0.0413376   	-0.00815412   	0.0430323   	0.0818588   	0.0607595   	0.0294249   	0.0783013   	0.172156   	0.179938

   	-0.0387506   	-0.0789466   	-0.0871882   	-0.065274   	-0.0215309   	0.0306227   	0.0640384   	0.0556995   	0.0343737   	0.0359042   	0.0464986   	0.0191295
   	-0.0555362   	-0.0809398   	-0.109327   	-0.105967   	-0.0530609   	0.0133224   	0.0521197   	0.0398429   	0.00241734   	-0.0214068   	-0.0260366   	-0.0316617
   	-0.0426807   	-0.0841388   	-0.1869   	-0.245954   	-0.144863   	-0.0136802   	0.0472894   	0.0348109   	-0.0250536   	-0.0727744   	-0.0734566   	-0.0462797
   	-0.0359336   	-0.145437   	-0.395916   	-0.597727   	-0.376496   	-0.0842358   	0.0376485   	0.0557499   	0.0029664   	-0.0554148   	-0.0586273   	-0.0273337
   	-0.0301684   	-0.166722   	-0.462745   	-0.746357   	-0.522525   	-0.172649   	-0.00181627   	0.0617906   	0.049884   	0.00727861   	-0.00648291   	0.00120718
   	-0.00766824   	-0.0891782   	-0.250536   	-0.412278   	-0.341663   	-0.164502   	-0.0374968   	0.0389125   	0.064886   	0.05088   	0.0335366   	0.0215782
   	0.00695188   	-0.0279876   	-0.0884095   	-0.144755   	-0.139467   	-0.0947219   	-0.0403823   	0.0135354   	0.0495507   	0.0556319   	0.0435157   	0.0269017
   	0.00810179   	-0.00629427   	-0.0258313   	-0.0404662   	-0.0438358   	-0.0417811   	-0.0274141   	0.000880698   	0.0288773   	0.0425275   	0.0381227   	0.0238801
   	0.012782   	0.00213762   	-0.00676885   	-0.0124077   	-0.0162872   	-0.0198024   	-0.0147462   	0.000813912   	0.0199369   	0.0375684   	0.0431117   	0.0323065
   	0.0269739   	0.00628185   	-0.00465532   	-0.00977522   	-0.0112832   	-0.00891899   	-0.00134699   	0.00703399   	0.0182735   	0.0433237   	0.0670147   	0.0605157
   	0.0315684   	-0.00578638   	-0.0189459   	-0.0176568   	-0.00775338   	0.00774117   	0.0195684   	0.0168097   	0.0157172   	0.0468912   	0.0901711   	0.0843391
   	0.00780224   	-0.0420736   	-0.0522569   	-0.0373519   	-0.00692871   	0.0317113   	0.0559475   	0.0457191   	0.0318806   	0.0584252   	0.100404   	0.0802333

   	-0.0913589   	-0.0850282   	-0.0704596   	-0.0510844   	-0.0231358   	0.00712409   	0.022314   	0.018299   	0.00894575   	-0.00331309   	-0.0297613   	-0.076365
   	-0.102266   	-0.0854255   	-0.0835602   	-0.0754238   	-0.0430184   	-0.00393023   	0.0139264   	0.00786798   	-0.00417528   	-0.0249121   	-0.0634152   	-0.101734
   	-0.0852492   	-0.0947552   	-0.135101   	-0.14523   	-0.0871033   	-0.0175041   	0.0141347   	0.00806353   	-0.0159464   	-0.0453111   	-0.0750729   	-0.0880998
   	-0.0996598   	-0.191408   	-0.292938   	-0.300761   	-0.172675   	-0.0449268   	0.0126297   	0.0169536   	-0.0134423   	-0.0496884   	-0.0650226   	-0.0646035
   	-0.109436   	-0.234417   	-0.351075   	-0.369614   	-0.236824   	-0.0966823   	-0.0264737   	-0.00722611   	-0.0180907   	-0.0379361   	-0.0418626   	-0.0460302
   	-0.0649504   	-0.128196   	-0.190175   	-0.221581   	-0.18274   	-0.121534   	-0.0802489   	-0.0537376   	-0.032304   	-0.0227162   	-0.0195056   	-0.0273319
   	-0.0236473   	-0.0405056   	-0.0638448   	-0.0836143   	-0.0903025   	-0.0920969   	-0.0844094   	-0.0590773   	-0.0267774   	-0.00972647   	-0.00869826   	-0.0151715
   	-0.0104519   	-0.01156   	-0.0191181   	-0.0267801   	-0.038223   	-0.0551963   	-0.057375   	-0.0367573   	-0.0127885   	-0.00372797   	-0.00795083   	-0.0130191
   	-0.00684987   	-0.00509878   	-0.00943084   	-0.015903   	-0.025819   	-0.0370275   	-0.0349519   	-0.0186592   	-0.00373263   	0.000364713   	-0.00484674   	-0.00995797
   	-0.00481435   	-0.00660311   	-0.0121768   	-0.0199062   	-0.0259781   	-0.0270846   	-0.0195578   	-0.00784534   	0.00099699   	0.00602954   	0.00505371   	-0.00223177
   	-0.015217   	-0.0216185   	-0.0242946   	-0.0260511   	-0.0224795   	-0.0133597   	-0.00398309   	0.000435697   	0.00262066   	0.0089791   	0.0116801   	-0.00351104
   	-0.0392833   	-0.0491087   	-0.0440812   	-0.0337095   	-0.0161216   	0.0053183   	0.0175   	0.0150141   	0.0100983   	0.0141529   	0.0142735   	-0.0154011

   	-0.101545   	-0.0665493   	-0.0529141   	-0.0464627   	-0.0341692   	-0.024752   	-0.0342589   	-0.0590979   	-0.0833399   	-0.104522   	-0.125966   	-0.139479
   	-0.120542   	-0.0811081   	-0.0672105   	-0.057757   	-0.0405479   	-0.0275228   	-0.0414536   	-0.0752277   	-0.0952984   	-0.105992   	-0.13386   	-0.152695
   	-0.132277   	-0.120349   	-0.104157   	-0.077925   	-0.0459815   	-0.0210469   	-0.0250669   	-0.0502156   	-0.0594554   	-0.0610418   	-0.0925632   	-0.123093
   	-0.187695   	-0.237267   	-0.200936   	-0.119992   	-0.0537662   	-0.0150989   	-0.0152464   	-0.0459052   	-0.0658399   	-0.0661555   	-0.0795728   	-0.109716
   	-0.217526   	-0.288594   	-0.240444   	-0.140705   	-0.0697171   	-0.0449052   	-0.0758614   	-0.144522   	-0.169124   	-0.131325   	-0.100643   	-0.115508
   	-0.149224   	-0.172727   	-0.139018   	-0.0898797   	-0.0692773   	-0.0953524   	-0.171202   	-0.253607   	-0.246503   	-0.163592   	-0.106119   	-0.102568
   	-0.0697304   	-0.0622758   	-0.0485854   	-0.0372775   	-0.0521604   	-0.10531   	-0.168652   	-0.193924   	-0.161986   	-0.109983   	-0.0814716   	-0.0738972
   	-0.0327689   	-0.0196404   	-0.0165599   	-0.0199459   	-0.0431175   	-0.0842871   	-0.102774   	-0.0819738   	-0.0552061   	-0.0479405   	-0.0543193   	-0.0529229
   	-0.0224399   	-0.0107325   	-0.0141363   	-0.0268699   	-0.0478215   	-0.064998   	-0.0541903   	-0.0253161   	-0.0099763   	-0.0186844   	-0.0373051   	-0.0423627
   	-0.0244503   	-0.0141253   	-0.0205209   	-0.0374001   	-0.0512855   	-0.0511355   	-0.0320764   	-0.00936465   	-0.00181097   	-0.0125626   	-0.0315176   	-0.0409479
   	-0.0392801   	-0.0261299   	-0.0282113   	-0.0400295   	-0.0445027   	-0.0382859   	-0.0250921   	-0.0134751   	-0.0130438   	-0.0246629   	-0.0423743   	-0.0551302
   	-0.0571429   	-0.0409425   	-0.035144   	-0.0376184   	-0.0336864   	-0.0263824   	-0.0250732   	-0.0302787   	-0.0397073   	-0.0508239   	-0.0617037   	-0.0726949

