digraph G {
	v0 -> v1 [label="e0[4]", taillabel = "769", headlabel="5"]
	v2 -> v1 [label="e1[1]", taillabel = "769", headlabel="2"]
	v3 -> v4 [label="e2[3]", taillabel = "4", headlabel="769"]
	v5 -> v6 [label="e3[5]", taillabel = "6", headlabel="769"]
	v7 -> v8 [label="e4[9]", taillabel = "10", headlabel="769"]
	v9 -> v10 [label="e5[4]", taillabel = "5", headlabel="769"]
	v11 -> v12 [label="e6[3]", taillabel = "4", headlabel="769"]
	v11 -> v13 [label="e7[4]", taillabel = "5", headlabel="769"]
	v14 -> v15 [label="e8[4]", taillabel = "5", headlabel="769"]
	v14 -> v16 [label="e9[4]", taillabel = "5", headlabel="769"]
	v1 -> v3 [label="e10[347]", taillabel = "762", headlabel="355"]
	v17 -> v11 [label="e11[30]", taillabel = "40", headlabel="760"]
	v9 -> v14 [label="e12[38]", taillabel = "49", headlabel="759"]
	v3 -> v5 [label="e13[262]", taillabel = "410", headlabel="622"]
	v17 -> v9 [label="e14[15]", taillabel = "70", headlabel="715"]
	v5 -> v7 [label="e15[15]", taillabel = "141", headlabel="644"]
	v7 -> v17 [label="e16[4]", taillabel = "115", headlabel="659"]
}
