12 12 12
   	-8.65223   	0.412879   	-8.91155   	4.27948   	-5.47934   	7.46453   	9.34943   	-1.17878   	0.224189   	-3.24413   	5.20123   	0.583146
   	1.93535   	11.9329   	-16.1088   	3.2964   	8.78644   	-16.9772   	-13.993   	-4.71705   	5.56259   	0.485295   	0.0855906   	-19.3255
   	14.6035   	-2.33635   	5.73684   	-2.21302   	0.244994   	7.76216   	4.58674   	-10.8733   	-0.543889   	0.309378   	-12.1622   	8.8238
   	-4.25752   	8.49672   	3.09498   	-5.28798   	-4.58784   	7.05908   	-2.77279   	-7.11963   	-2.1222   	0.938059   	15.9162   	1.38802
   	-21.0342   	0.13872   	-13.0417   	-14.5767   	14.8072   	-8.26993   	8.82815   	6.27372   	-7.2396   	3.68018   	7.90957   	14.9274
   	5.62446   	-5.40721   	-6.61726   	-1.43136   	9.78264   	-1.91728   	5.91585   	2.76991   	-2.28802   	-16.179   	10.2985   	-9.03854
   	9.41525   	2.98613   	-3.11202   	-9.99782   	4.23875   	-9.66946   	13.8936   	3.8983   	-12.2226   	-20.9818   	4.91029   	5.08022
   	-2.34711   	3.11649   	11.0672   	-1.83391   	16.9321   	-7.45051   	-4.65819   	-6.6926   	3.64636   	-7.02213   	9.47407   	5.65605
   	-0.449024   	-3.10367   	11.6717   	0.345774   	1.18602   	5.18541   	13.2883   	0.434309   	10.7105   	-5.04305   	-20.6023   	9.82599
   	6.52832   	12.3113   	3.93103   	0.444728   	-1.25368   	-8.09839   	0.0451175   	-14.5772   	-6.9343   	-7.12964   	-10.1422   	-5.10195
   	-3.01921   	5.02061   	-14.0132   	2.67091   	-0.452081   	13.6214   	-6.91779   	10.0967   	6.81279   	3.80476   	-7.09868   	-10.2083
   	2.49424   	9.61029   	9.57835   	-7.14058   	-1.54909   	-8.27186   	8.87245   	2.25814   	-14.4702   	1.20406   	-15.6679   	12.8731

   	13.8323   	9.57944   	-1.17025   	-6.63509   	-1.80787   	-8.24221   	-1.22842   	-3.14944   	13.8152   	3.18687   	-2.52696   	-5.79714
   	2.99491   	-19.9566   	-0.252358   	1.55455   	-15.5383   	-16.5845   	13.7309   	-5.25432   	-4.33989   	17.0729   	-5.98107   	-9.69811
   	5.0002   	0.515435   	-5.89971   	-5.23889   	-3.85915   	8.77059   	-1.26956   	7.39395   	-9.30488   	-7.89499   	1.91074   	13.7223
   	-4.17007   	-6.75831   	-7.56123   	9.6455   	5.6882   	5.34879   	-17.9468   	-3.83315   	16.048   	1.0922   	-4.47449   	4.93865
   	11.7275   	-4.679   	-0.22575   	-12.0531   	8.67796   	-7.90478   	2.77687   	-5.1199   	2.2736   	8.16193   	15.2912   	10.9862
   	0.264287   	13.3867   	10.7819   	6.59259   	7.01309   	-4.34829   	10.0611   	0.719236   	18.0845   	2.61167   	-14.6574   	7.2596
   	6.32704   	7.85191   	1.26335   	11.773   	-9.89693   	-5.87448   	1.56088   	-12.6901   	-4.20282   	-7.94514   	-8.18623   	-15.8798
   	-6.11127   	-2.98264   	-13.7662   	-7.09391   	7.83878   	17.6421   	0.83414   	-16.3832   	-38.1011   	-5.66039   	-6.96723   	-2.13378
   	-5.11825   	-3.5825   	-4.96584   	7.61179   	-8.04999   	-4.58648   	6.939   	-1.85813   	13.284   	-7.79486   	-7.10792   	11.5104
   	-23.5869   	-21.272   	-3.6142   	6.36271   	-10.0436   	-12.5848   	-17.1755   	12.2544   	-4.75434   	-4.65873   	-0.848707   	3.03541
   	-5.11227   	3.07767   	1.95747   	-1.00992   	19.2664   	1.85111   	4.64095   	-7.00616   	-11.3733   	-7.58835   	10.9126   	0.0666636
   	8.03583   	-0.0484708   	17.8868   	-4.45249   	-0.615941   	-1.7805   	11.3782   	-20.4777   	-4.27694   	-3.56985   	-16.5597   	-7.24365

   	7.99577   	4.87941   	9.71205   	1.12486   	-10.9747   	-5.75235   	7.97817   	0.523283   	-10.8576   	-26.4308   	-10.8488   	-2.94374
   	-1.10394   	23.154   	11.4255   	-3.9852   	-6.3607   	14.8171   	-9.53874   	-10.4733   	0.0704452   	-11.7776   	6.50311   	2.94297
   	-3.09511   	-1.75376   	-5.73608   	-2.54856   	-7.24745   	5.29464   	-10.2598   	-1.20995   	1.95859   	-14.7778   	-6.40944   	2.83988
   	-1.86357   	0.248911   	3.03522   	-11.4548   	5.57789   	-16.8484   	6.30429   	7.69826   	-8.23207   	9.46386   	-7.61896   	21.3165
   	-5.63152   	-9.51185   	-13.4433   	-5.02838   	-11.0877   	-7.42704   	12.955   	4.21801   	-3.71352   	1.13166   	-6.69521   	-6.47313
   	-9.49648   	-18.8982   	-7.80437   	-12.0193   	-2.2549   	9.04897   	-1.21843   	6.65579   	10.0854   	0.711609   	6.90119   	6.32814
   	0.416606   	7.86009   	10.4087   	4.3074   	6.94593   	25.1235   	2.59275   	-4.06908   	-9.86814   	3.31181   	9.94526   	-10.3651
   	-1.56257   	8.07831   	11.0509   	-1.09761   	20.1877   	1.64225   	-6.23106   	0.117846   	-4.5359   	9.32759   	9.61426   	8.02932
   	-7.24635   	3.75177   	-1.46029   	-1.60928   	1.68355   	-6.74193   	0.965198   	15.8531   	-9.97245   	-6.36597   	1.81696   	0.915131
   	0.449675   	-7.00452   	-12.587   	-3.25805   	-10.9809   	3.71265   	9.14498   	-27.9155   	1.31156   	-15.5847   	4.42144   	3.0828
   	-2.52811   	0.867357   	-9.14543   	-9.23683   	-8.34834   	19.3494   	-12.9086   	-7.3402   	-16.1038   	-12.1036   	-3.13907   	11.521
   	-20.7313   	5.34226   	-1.47256   	-11.5276   	-5.24159   	-0.462382   	-12.2024   	-7.20686   	21.257   	4.00063   	-6.24241   	-12.2572

   	-14.7497   	-2.86024   	0.942414   	3.84111   	2.20252   	-8.48957   	1.06791   	-11.0405   	-17.1186   	19.6758   	4.95029   	-4.41302
   	0.148533   	1.51556   	-0.842481   	13.0002   	0.0899147   	14.9082   	-10.6333   	-2.76643   	-10.4942   	5.07722   	5.7085   	4.12129
   	-15.9391   	-1.90801   	23.3067   	-1.62306   	-13.441   	-10.3187   	7.15076   	-4.94987   	16.4753   	-19.4843   	-12.3623   	-10.586
   	5.01106   	-0.420341   	-3.35832   	3.05177   	3.32021   	18.173   	19.2637   	10.3042   	18.4736   	6.72968   	1.04845   	-10.1051
   	2.38569   	7.93413   	-10.1735   	-15.9173   	-6.33946   	-5.84124   	-9.12626   	3.1845   	-15.7931   	0.981515   	2.94967   	10.368
   	-0.884271   	0.580563   	11.6884   	7.02243   	-3.39244   	9.66971   	3.17894   	-0.520512   	-22.6801   	13.1241   	15.6132   	-3.0129
   	-18.8946   	-17.4479   	0.903783   	25.8906   	-1.8499   	17.9512   	11.6521   	5.88348   	0.491782   	-14.2896   	-5.25403   	-4.73641
   	-6.53502   	-14.652   	-0.246134   	-19.123   	0.845609   	12.6698   	11.9854   	18.5057   	-4.28285   	7.56846   	3.88398   	-1.87462
   	6.96045   	-12.2106   	-14.1127   	-4.83649   	2.24368   	-13.3346   	-8.10204   	9.67763   	7.68775   	7.67564   	5.06571   	-7.7819
   	6.3386   	9.93485   	-15.9032   	-4.75361   	9.2435   	13.3474   	-12.205   	-6.32253   	3.58236   	2.50745   	-0.671904   	-2.98856
   	4.13904   	-2.04807   	-3.3628   	-10.2372   	-2.38786   	-1.85026   	10.3784   	-8.49682   	9.91332   	-7.24605   	-5.31007   	-2.71915
   	3.59483   	2.95922   	12.7023   	-8.25632   	16.2526   	-5.38886   	-14.8372   	-16.8047   	-5.1846   	-6.46256   	-2.86404   	-20.9899

   	6.25993   	-0.905001   	13.7454   	-6.10766   	-6.51902   	2.63065   	9.38507   	-7.00599   	-4.80603   	4.89548   	-8.75777   	20.7967
   	-8.3929   	2.3954   	11.6042   	-0.279328   	-0.240916   	5.23225   	-8.98396   	0.131276   	-0.902614   	2.54237   	9.18172   	6.81993
   	-3.42633   	2.98801   	2.7799   	-3.15043   	-7.11334   	5.47348   	-1.77806   	9.3804   	5.96234   	-9.44947   	-7.43527   	9.25262
   	10.6833   	5.67002   	4.5143   	-0.514338   	9.4786   	1.45724   	-15.1153   	-4.41136   	-8.50675   	3.3735   	-16.5649   	0.0422296
   	25.43   	18.6199   	1.33261   	-8.24501   	-13.3449   	-6.54203   	-3.31061   	-5.28202   	5.66024   	20.9942   	12.7921   	13.5625
   	9.46664   	-7.29588   	-11.6317   	-12.0546   	9.93793   	0.677966   	-12.5767   	9.37594   	6.36653   	-2.41994   	12.359   	16.534
   	4.53232   	12.2697   	2.29218   	-4.73814   	2.69174   	5.5909   	-17.5388   	-2.13263   	-6.81033   	-4.5131   	4.84941   	0.302453
   	-2.37801   	-3.05208   	4.7269   	-3.14774   	2.37487   	16.5406   	0.323706   	-4.5084   	-18.8864   	12.2307   	-4.99245   	5.60781
   	-11.1448   	-22.3942   	-8.4018   	-4.85613   	-5.09734   	0.348717   	8.39332   	-5.36476   	-6.18676   	-3.8193   	14.4824   	-5.80926
   	-4.66336   	-4.24379   	-9.95338   	0.0774334   	5.1564   	-0.303439   	-4.32401   	-17.3307   	-14.3164   	-4.80172   	-11.8564   	8.73532
   	-5.09448   	21.3213   	4.96804   	-14.1758   	-3.09224   	-7.27954   	0.894428   	11.5368   	17.1549   	-9.02132   	11.2626   	-6.97403
   	-5.31416   	-0.591043   	2.5917   	2.15164   	3.92312   	5.99389   	-5.54651   	11.9549   	-15.8173   	19.6378   	0.969258   	2.10307

   	-5.73381   	-12.6187   	5.6666   	15.8252   	-2.4969   	1.53754   	1.78336   	-8.50737   	-0.0459934   	9.85862   	-1.79124   	-16.6221
   	-2.30741   	8.59554   	-0.931981   	2.15477   	2.62569   	-6.55519   	-11.8023   	-7.25581   	0.407305   	-12.5642   	0.690516   	-0.137246
   	-12.2187   	-6.14693   	5.37562   	-2.27373   	4.7077   	0.845428   	-0.807478   	-0.305502   	-8.1278   	-13.0763   	6.31656   	-13.7325
   	-2.3244   	-12.2086   	2.10275   	16.4977   	14.8835   	2.30169   	-11.2494   	6.86111   	-9.37863   	-1.92836   	-4.83245   	-2.08441
   	0.126237   	2.8365   	4.30523   	-8.06782   	-18.7319   	-17.8259   	-1.95182   	1.76225   	-4.82078   	10.2298   	17.4981   	1.00237
   	7.94158   	-14.202   	7.66329   	11.247   	-14.6621   	-0.975131   	-1.06336   	-5.91567   	12.6021   	0.427692   	24.5276   	0.272115
   	11.7761   	-2.42979   	-3.91229   	8.38632   	-16.7521   	15.7319   	7.55637   	3.86503   	-3.89696   	-8.23769   	4.69793   	14.6022
   	-3.24142   	9.68214   	3.61422   	2.23482   	-4.36511   	-7.99442   	4.12873   	-6.91254   	-6.29765   	-4.04211   	-4.65908   	7.26831
   	9.78578   	1.38132   	-1.04741   	-1.48362   	3.36085   	8.56597   	1.98768   	6.33819   	1.11318   	-5.26675   	-0.247538   	0.347007
   	-4.56234   	6.60429   	2.95262   	14.452   	2.11992   	0.426492   	3.17804   	3.59331   	-2.45507   	-10.4061   	1.98405   	-5.56302
   	13.9494   	-4.81985   	6.60421   	-1.57646   	0.493863   	15.6771   	-1.85588   	10.7193   	-0.0716936   	-5.6292   	-2.14834   	20.0479
   	11.0697   	-8.95611   	-6.51901   	-4.83109   	-10.058   	0.731989   	-3.93407   	-5.69926   	-14.8261   	10.6031   	-12.8075   	-19.8748

   	-13.7722   	-8.58931   	2.13144   	-9.75364   	-6.25176   	11.16   	-3.75858   	-4.97814   	1.57153   	5.03261   	2.84366   	-28.6007
   	4.6861   	-3.01916   	16.6612   	15.1442   	-3.03914   	-1.01655   	-4.36005   	0.0256681   	-1.37653   	2.6939   	-10.7967   	-16.0589
   	-1.57185   	13.5031   	11.436   	-4.82428   	10.4118   	15.5677   	0.428651   	-7.40792   	15.2957   	10.9969   	13.9316   	-0.806745
   	-3.01005   	3.36993   	1.01995   	8.15907   	-0.76552   	6.70749   	-15.0647   	16.6147   	-0.0730378   	-0.113186   	10.0392   	-27.3981
   	-8.3507   	1.93933   	-2.01486   	-0.934569   	-7.56671   	16.7852   	0.943792   	6.59467   	-2.72685   	-7.24896   	-7.30011   	5.31937
   	-2.18319   	14.4598   	-2.55763   	1.77867   	-3.78422   	0.314757   	-2.07169   	-3.70269   	-15.4554   	-11.0502   	-13.4153   	-11.9972
   	3.76999   	-12.8479   	-18.5059   	9.49663   	1.20398   	-2.50852   	1.3231   	0.43028   	-3.5485   	-5.15729   	0.257974   	8.35119
   	4.81159   	6.78733   	-2.28497   	6.0063   	8.66327   	-9.85843   	-18.3608   	0.446946   	12.0058   	7.82531   	2.89265   	-6.04131
   	-10.207   	-2.89388   	12.8128   	6.79627   	-7.25152   	-9.98649   	-0.456591   	-2.31326   	8.622   	-10.5527   	3.37216   	13.786
   	-4.06724   	-12.7589   	-8.72233   	2.57941   	-3.03851   	-4.88255   	3.26985   	-9.58858   	24.7989   	-19.0968   	-2.19347   	-2.886
   	-4.77778   	-2.5484   	7.23419   	4.59582   	12.0021   	-2.67815   	-6.90359   	4.75889   	-2.9537   	11.1207   	-5.27347   	10.9593
   	-1.81364   	-3.34904   	3.30744   	8.30583   	-4.82657   	8.64916   	-8.60693   	11.5836   	11.3023   	-3.49198   	-4.65494   	14.4525

   	5.76293   	0.507907   	2.42781   	-9.03294   	-2.33811   	-2.46803   	6.11225   	0.30862   	5.46877   	-12.4182   	-2.79792   	4.94021
   	-8.28772   	6.88169   	14.3031   	6.90216   	-10.5143   	14.163   	-7.33308   	2.10311   	10.0778   	-0.656205   	2.83302   	5.41947
   	-7.83296   	-1.17979   	-0.80613   	16.1987   	-12.5801   	-15.011   	-1.53441   	-3.6892   	-5.49852   	-3.51729   	-18.5884   	-1.16868
   	5.50835   	-0.0286946   	1.04608   	7.01043   	8.70513   	7.72074   	-6.27195   	-6.52947   	-3.84303   	1.50154   	-10.5886   	5.75571
   	2.64122   	29.2576   	-13.2988   	4.6929   	-4.06198   	-6.21464   	-10.5252   	-2.77233   	-9.31403   	3.67289   	4.08955   	9.30988
   	-8.06832   	-8.48805   	0.590281   	1.98633   	2.2079   	9.28166   	-5.2951   	6.80099   	11.8782   	-9.32762   	-1.63855   	-10.2333
   	2.46166   	-10.0692   	2.49445   	4.8755   	4.66153   	-14.8146   	-12.87   	-13.8919   	-10.1343   	2.36943   	10.1985   	-1.47398
   	0.790487   	-3.65057   	-5.58561   	5.52968   	-11.629   	2.45262   	-0.205157   	-17.4822   	-9.10652   	16.1195   	3.60254   	4.95984
   	-5.76487   	-4.79939   	-13.5373   	-19.0408   	-7.03062   	14.3106   	9.80873   	7.38129   	-16.2151   	1.5648   	-12.3434   	-22.0752
   	-8.04007   	-4.50125   	1.20799   	-2.45834   	-9.76472   	11.3948   	-23.2457   	3.58326   	9.13114   	12.811   	14.1877   	-5.54601
   	-0.039776   	0.236261   	3.40015   	9.15525   	2.93632   	1.53334   	-20.0138   	7.85616   	-4.37482   	-12.3312   	10.6403   	4.95554
   	0.529831   	-7.1459   	5.8302   	-5.1068   	-13.818   	-3.96616   	-0.314829   	-7.40646   	21.3047   	-6.06621   	-0.507945   	-10.2318

   	-8.28807   	6.31665   	-1.23783   	-8.5268   	4.22282   	9.84836   	1.16989   	-7.83826   	-7.72079   	4.7855   	11.7794   	-5.71685
   	2.26933   	4.31092   	-10.7063   	1.15139   	5.50116   	4.63016   	-16.1874   	-3.36432   	-7.26654   	-8.01284   	-0.0823865   	0.503559
   	-1.34562   	-3.6105   	3.03642   	-12.2081   	15.8736   	1.60739   	-4.95489   	-14.2487   	17.371   	-14.6872   	-2.49522   	0.208584
   	-9.90253   	-7.37487   	10.6209   	-9.04747   	-0.597142   	1.94509   	15.7641   	7.95125   	1.98271   	-17.8374   	7.59023   	9.97762
   	2.1098   	-3.56769   	-4.62291   	9.02216   	-5.34614   	-2.38413   	-1.75361   	0.666923   	0.371106   	-4.29935   	-7.65005   	7.5029
   	0.205527   	-0.620776   	15.3654   	1.34327   	-9.34631   	-9.8042   	12.0252   	-22.0246   	10.7702   	4.3726   	-3.52247   	-10.724
   	13.5579   	-0.303396   	-1.32383   	-1.61722   	-1.67173   	1.56142   	5.59268   	3.76931   	6.85324   	4.52422   	9.46155   	-19.3571
   	-2.42042   	0.928286   	6.14967   	15.5729   	-9.13562   	4.18356   	17.656   	-12.3649   	6.22165   	9.17576   	-15.1586   	-14.88
   	-12.0984   	11.3099   	8.84074   	16.4776   	-5.53704   	-8.48398   	-10.0719   	5.89883   	3.9964   	2.31127   	8.14358   	-19.7854
   	2.05526   	-2.12335   	14.4069   	-9.25581   	-1.46132   	4.96022   	-12.4892   	-5.24563   	-5.23191   	-0.916166   	-14.215   	3.58615
   	3.62821   	-5.46347   	9.01927   	-8.64677   	6.58562   	6.76688   	-6.84193   	-8.72791   	-0.851773   	9.80739   	-2.46277   	7.60108
   	2.41373   	2.19802   	8.76369   	10.4732   	0.496092   	-2.44516   	-12.1777   	2.03152   	8.96997   	-8.70031   	-13.1835   	8.01843

   	3.9471   	14.9092   	14.052   	-3.47429   	5.19084   	18.0667   	-11.3696   	10.4234   	-13.758   	-9.3935   	-0.252497   	10.2178
   	18.5192   	-6.77353   	13.529   	-22.6724   	5.42256   	5.6308   	-3.86769   	2.8443   	0.798681   	9.96586   	4.99299   	9.91394
   	1.84721   	1.71838   	-11.1774   	6.18196   	-13.1295   	-2.86668   	7.73736   	1.87305   	7.1718   	-11.7219   	11.4911   	-0.107715
   	-0.779335   	18.1327   	2.17544   	-34.5035   	-13.2653   	-14.3815   	10.7542   	-8.90284   	-7.30376   	5.19677   	12.9953   	-7.96046
   	6.4095   	8.11819   	-1.77325   	-10.5196   	-4.86349   	-9.43665   	7.71035   	-7.89026   	0.755771   	0.753186   	-7.15958   	-8.5584
   	4.30453   	-0.525954   	-0.0599907   	-5.58371   	-0.200691   	13.4051   	-0.470349   	8.63951   	9.86473   	-15.086   	3.22419   	5.34059
   	-2.13465   	0.404146   	-3.04564   	-15.4263   	-6.08446   	8.79224   	0.85093   	10.1107   	-13.6319   	-3.27857   	-14.8486   	4.27306
   	-3.14017   	-8.81625   	2.15866   	-18.7405   	10.6139   	-0.531599   	-4.44913   	-0.15202   	-5.64568   	-10.2992   	-1.68466   	4.55146
   	7.5187   	-8.3192   	9.33155   	-1.99577   	-3.34254   	5.06374   	-1.23429   	6.61868   	-12.6921   	-9.18922   	-17.7602   	10.316
   	15.7529   	-0.499091   	-1.74233   	1.69736   	-3.82395   	26.2167   	5.52216   	15.3324   	3.9513   	-3.60322   	-0.757739   	7.39967
   	-15.0463   	-1.16076   	-7.14504   	-14.188   	-3.2546   	5.25783   	4.95007   	-0.855733   	9.52426   	2.31683   	8.47193   	8.77694
   	-3.864   	1.82363   	2.65001   	-7.40126   	-12.7306   	1.93566   	-7.51698   	-1.53701   	3.07206   	-6.44172   	-15.0671   	4.85804

   	-3.03498   	-11.2307   	11.7285   	7.2261   	-3.27327   	12.3883   	2.71674   	-6.46091   	-18.1727   	13.3288   	6.56279   	-3.19053
   	4.36644   	0.088656   	-10.2867   	-0.438206   	-7.05909   	-9.90622   	9.67281   	-6.37607   	-1.2154   	14.2187   	7.56596   	-10.4503
   	-14.2823   	-2.24408   	19.7525   	-6.73781   	11.1409   	17.844   	3.40027   	0.882894   	-1.34914   	-6.9487   	-10.2375   	4.84907
   	-1.17758   	13.5278   	23.1432   	-1.47706   	14.8023   	8.84327   	3.25096   	-4.49521   	-0.977795   	14.9366   	-8.59925   	-2.30834
   	11.4796   	-11.4175   	16.6481   	0.456197   	-7.63217   	21.5488   	-13.3421   	-0.777318   	3.24783   	19.8836   	-5.17472   	12.1109
   	1.40087   	6.4483   	23.1568   	8.4037   	1.83249   	-2.01647   	-1.80708   	-8.11684   	4.74628   	7.01106   	23.3003   	-13.1924
   	-7.62774   	-9.1218   	7.5311   	-6.82846   	-2.95056   	-3.5319   	12.8591   	3.82992   	-3.61749   	-9.60006   	-0.749519   	2.90101
   	-3.84843   	8.89823   	-7.65996   	13.9341   	-12.0651   	-1.90598   	11.7771   	-13.9573   	18.9019   	-3.81244   	15.3834   	10.5506
   	-0.811023   	6.31913   	-0.283309   	3.56678   	-6.35038   	-15.368   	-11.235   	-13.9557   	-3.66566   	4.05864   	-0.840966   	12.4767
   	2.38362   	-0.211284   	16.9939   	0.13219   	2.56746   	-5.56662   	-9.07942   	10.0712   	3.93575   	2.89435   	-12.073   	-4.14642
   	-5.9824   	-0.855309   	10.759   	8.49986   	0.633481   	21.7894   	-16.633   	7.71098   	-1.14993   	1.3142   	1.41899   	-11.4289
   	7.08964   	-5.01537   	0.88543   	-11.2275   	0.153825   	-4.66313   	-1.38996   	-10.2077   	-1.91065   	-0.977966   	-0.835386   	-19.3568

   	8.97014   	-12.3809   	15.1722   	11.7037   	1.61508   	-16.8013   	-7.09049   	-26.1399   	15.9735   	6.63984   	-5.87371   	-0.0412461
   	-17.0373   	-15.0837   	-3.87442   	-1.07458   	-16.9086   	13.7896   	-7.61798   	-6.77721   	0.7284   	10.6679   	-13.0551   	-18.6987
   	9.06166   	4.56382   	-8.14719   	3.19809   	18.7191   	4.453   	-6.60408   	-16.6259   	-8.51041   	6.21576   	18.0465   	23.2783
   	-3.65543   	-8.99766   	17.414   	8.21773   	-7.52829   	-3.15341   	-27.0525   	-13.7122   	3.05439   	-13.5871   	-8.69318   	-4.68342
   	-12.8785   	8.67104   	-3.41772   	-7.38948   	-6.72624   	5.33613   	1.23234   	-9.89154   	6.65412   	-8.98711   	12.327   	-8.41578
   	8.81239   	7.47086   	0.497713   	17.2231   	14.4903   	-14.135   	2.6636   	-10.773   	4.17102   	7.92099   	4.56954   	-8.08699
   	0.414901   	17.1101   	-6.98039   	2.60245   	2.54399   	2.59339   	-10.0122   	-0.793805   	1.22554   	-2.4052   	16.3081   	-12.6474
   	5.06013   	9.74377   	-21.8937   	-6.15797   	-8.1582   	-6.91118   	-7.95825   	4.29919   	-2.35795   	12.5998   	1.86813   	-11.5502
   	4.40008   	-3.9829   	20.8204   	0.903808   	4.80805   	-9.79606   	21.6098   	5.86495   	0.834921   	-2.28987   	9.36609   	11.6296
   	-2.48861   	-10.2906   	2.07527   	11.8655   	-8.87589   	11.9565   	10.9721   	-18.4064   	6.09536   	14.8112   	5.70766   	19.9966
   	-3.1874   	-2.48777   	14.0986   	8.52082   	12.6485   	-16.2755   	-3.41968   	3.30552   	-10.4244   	10.3955   	-0.665629   	11.6744
   	11.2641   	-14.4709   	-6.29609   	19.1986   	-3.54737   	-0.918635   	-3.5182   	-16.2277   	6.39173   	-4.50768   	10.0346   	6.23819

