12 12 12
   	1.13555   	2.64206   	0.419198   	-0.0589924   	-0.0443514   	-0.116878   	-0.496333   	-0.412775   	-0.237595   	-0.38523   	-0.512198   	-0.175501
   	1.86606   	3.29524   	0.433835   	-0.125438   	-0.146466   	-0.439613   	-0.848807   	-0.537574   	-0.207946   	-0.264559   	-0.289491   	0.0784937
   	2.67296   	3.02811   	0.513091   	-0.0558517   	-0.15324   	-0.324696   	-0.244   	-0.0516192   	-0.0691137   	-0.12563   	-0.0411004   	0.392176
   	1.13159   	1.10923   	0.245245   	-0.0237951   	-0.175312   	-0.235799   	0.119401   	0.183353   	-0.0301243   	-0.242422   	-0.250022   	0.031322
   	0.0641153   	0.0868445   	-0.0672974   	-0.100198   	-0.279763   	-0.388936   	-0.0838872   	0.0167903   	-0.196685   	-0.547115   	-0.559203   	-0.424219
   	0.0885299   	-0.0728543   	-0.126246   	-0.144683   	-0.286678   	-0.280073   	0.0338732   	0.198142   	0.0229824   	-0.187938   	-0.130528   	-0.0240711
   	0.447259   	0.0183769   	-0.00572688   	0.00881232   	-0.0737566   	0.0232893   	0.460448   	0.766901   	0.358323   	0.0222356   	0.0453692   	0.376362
   	0.421114   	0.106648   	0.124288   	0.129905   	0.0654912   	0.27955   	1.09933   	1.38026   	0.464887   	-0.0183542   	-0.116116   	0.147618
   	-0.048718   	0.0748763   	0.112778   	0.0756158   	0.00344473   	0.0770716   	0.349625   	0.262114   	-0.172503   	-0.301372   	-0.360979   	-0.266038
   	-0.0314107   	0.110101   	0.0936798   	-0.00540644   	-0.144318   	-0.408662   	-0.762476   	-0.751477   	-0.66823   	-0.472735   	-0.347752   	-0.214058
   	0.0895309   	0.261256   	0.0977881   	-0.0300371   	-0.134468   	-0.312105   	-0.428944   	-0.350941   	-0.469552   	-0.45285   	-0.3539   	-0.168738
   	0.451842   	0.933933   	0.178134   	-0.00975414   	-0.0243582   	-0.100058   	-0.190359   	-0.144754   	-0.266021   	-0.453328   	-0.501182   	-0.198922

   	1.15551   	2.06467   	0.480239   	-0.0199851   	-0.234908   	-0.583323   	-1.40158   	-0.993743   	-0.53619   	-0.527437   	-0.354897   	0.0706641
   	1.54548   	3.06646   	0.794635   	0.00917991   	-0.346366   	-0.811089   	-1.09552   	-0.406851   	-0.201723   	-0.366172   	-0.266472   	0.151093
   	1.90038   	2.75887   	0.711201   	-0.0391477   	-0.296161   	-0.41147   	-0.167529   	0.175163   	-0.00748357   	-0.18218   	-0.0948306   	0.248291
   	0.968574   	1.06708   	0.316442   	-0.0364465   	-0.169271   	-0.108586   	0.166056   	0.203783   	-0.0304878   	-0.0956242   	0.0743545   	0.256279
   	0.213399   	0.163681   	0.0198464   	-0.0866577   	-0.240124   	-0.193784   	0.0282594   	0.0173736   	-0.204186   	-0.175018   	0.0706839   	0.140682
   	0.334109   	0.0450441   	-0.0374887   	-0.132873   	-0.309676   	-0.149998   	0.146485   	0.188298   	-0.0410996   	-0.0940523   	0.109505   	0.41202
   	2.56825   	0.266889   	0.0185653   	0.00224064   	0.0135078   	0.305793   	0.864778   	1.07493   	0.424448   	0.0371787   	0.307391   	2.11772
   	2.11841   	0.283251   	0.0961235   	0.122272   	0.332514   	1.20573   	2.7287   	2.44114   	0.667258   	-0.0555929   	-0.0951113   	1.18882
   	-0.0551416   	0.0621526   	0.106738   	0.0892725   	0.203255   	0.804762   	1.71776   	1.11277   	-0.160174   	-0.554116   	-0.569625   	-0.33797
   	-0.0825227   	0.139122   	0.165966   	0.0299381   	-0.0810894   	-0.179278   	-0.298523   	-0.626362   	-1.21757   	-1.05057   	-0.574235   	-0.258661
   	-0.0149982   	0.170032   	0.167614   	0.0262226   	-0.0968936   	-0.179678   	-0.287866   	-0.884618   	-1.53615   	-1.10318   	-0.487517   	-0.175405
   	0.278016   	0.409772   	0.134097   	0.029344   	-0.0539805   	-0.170226   	-0.419996   	-0.839258   	-1.03599   	-0.858675   	-0.478354   	-0.114029

   	0.21651   	0.410446   	0.217546   	-0.318676   	-1.00902   	-1.73091   	-3.25845   	-2.24895   	-0.907604   	-0.519377   	-0.255183   	-0.000343509
   	0.406239   	0.785898   	0.372142   	-0.259691   	-0.957235   	-1.46717   	-1.61373   	-0.648022   	-0.338966   	-0.348863   	-0.195239   	0.06264
   	0.830435   	1.00247   	0.270593   	-0.284717   	-0.532845   	-0.514436   	-0.21485   	0.07273   	-0.0810294   	-0.151961   	-0.0145825   	0.238841
   	0.910622   	0.658853   	0.0556964   	-0.177583   	-0.157593   	-0.0803177   	0.0682586   	0.0840381   	-0.0221645   	0.0561554   	0.305085   	0.558639
   	0.357171   	0.0957208   	-0.180545   	-0.136292   	-0.231076   	-0.204541   	-0.0636113   	-0.0481731   	-0.0940689   	0.0273547   	0.269594   	0.408444
   	0.305736   	-0.0524938   	-0.095824   	-0.0915255   	-0.245561   	-0.11513   	0.0471917   	0.02796   	-0.0912106   	-0.100989   	0.0872721   	0.326882
   	2.71138   	0.222208   	-0.015393   	0.0306145   	0.108784   	0.426729   	0.651478   	0.511021   	0.0974732   	-0.0798787   	0.22448   	1.83431
   	1.94283   	0.347286   	0.036845   	0.102233   	0.653852   	2.09524   	3.0967   	1.72976   	0.2959   	-0.122474   	0.0152875   	1.14512
   	0.241385   	0.139288   	0.0234592   	-0.00278492   	0.496829   	2.05828   	3.08565   	1.33514   	-0.11581   	-0.516435   	-0.361706   	-0.0375827
   	-0.0425697   	0.139063   	0.135513   	-0.0310273   	-0.0136704   	0.237623   	0.294995   	-0.361436   	-1.23044   	-1.09611   	-0.432579   	-0.143046
   	-0.243104   	0.0139394   	0.20544   	0.0423891   	-0.0931283   	-0.165824   	-0.476274   	-1.69282   	-2.15349   	-1.21114   	-0.390124   	-0.203945
   	-0.171486   	-0.0610495   	0.123164   	-0.0174305   	-0.25571   	-0.561685   	-1.62592   	-2.73748   	-1.83658   	-0.94743   	-0.407672   	-0.187076

   	-0.00709569   	0.0761781   	0.154065   	-0.197791   	-0.565449   	-0.907744   	-1.68677   	-1.05834   	-0.335448   	-0.185063   	-0.116411   	-0.0445594
   	0.169698   	0.155648   	0.0771011   	-0.233943   	-0.649362   	-1.00232   	-0.950303   	-0.318323   	-0.207204   	-0.196297   	-0.0624145   	0.0815356
   	0.538594   	0.268516   	-0.0207081   	-0.268291   	-0.464745   	-0.502865   	-0.205869   	0.0149688   	-0.0824232   	-0.0621443   	0.208496   	0.443469
   	0.835117   	0.287737   	-0.0219343   	-0.165402   	-0.219588   	-0.165968   	-0.0533163   	0.0168765   	0.0154725   	0.199222   	0.720043   	0.987779
   	0.314777   	-0.178446   	-0.308334   	-0.222285   	-0.307077   	-0.221171   	-0.11381   	-0.0637375   	-0.0591757   	0.10585   	0.513459   	0.599956
   	-0.329998   	-0.768798   	-0.36792   	-0.11808   	-0.195526   	-0.1062   	-0.0337784   	-0.0414242   	-0.0906721   	-0.0719357   	0.0304572   	-0.0107864
   	-0.17885   	-0.603675   	-0.244413   	0.00557251   	0.0867465   	0.196493   	0.231392   	0.154071   	0.0154696   	-0.0346155   	-0.0637855   	-0.0272795
   	0.178981   	-0.126166   	-0.101921   	-0.0164407   	0.41551   	1.15788   	1.46368   	0.807942   	0.168133   	-0.0322129   	-0.00521519   	0.126618
   	0.0908427   	-0.0270832   	-0.140173   	-0.300179   	0.100393   	1.17165   	1.84363   	1.03309   	0.0180953   	-0.289234   	-0.174019   	-0.0208202
   	-0.231222   	-0.11341   	-0.0337819   	-0.191256   	-0.134435   	0.118141   	0.364817   	0.155426   	-0.566953   	-0.645884   	-0.307535   	-0.215309
   	-0.528243   	-0.244132   	0.101324   	0.0469689   	-0.0845051   	-0.180388   	-0.423666   	-0.792003   	-0.850319   	-0.567892   	-0.255631   	-0.320477
   	-0.320903   	-0.19327   	0.151073   	0.0592369   	-0.157828   	-0.477078   	-1.26323   	-1.36167   	-0.631691   	-0.335043   	-0.209252   	-0.215295

   	-0.0372826   	0.00170972   	0.0487396   	0.0326881   	0.0174666   	-0.0858424   	-0.168126   	0.00145855   	-0.10008   	-0.107331   	-0.0442707   	-0.0436266
   	0.0726055   	0.049642   	0.03957   	-0.0255114   	-0.103326   	-0.159309   	-0.0647211   	-0.024949   	-0.230592   	-0.172079   	-0.00498197   	0.0541901
   	0.260917   	0.0981852   	0.0264724   	-0.151613   	-0.136075   	-0.00568023   	0.0786069   	0.0360137   	-0.143877   	-0.0616994   	0.245793   	0.33019
   	0.418463   	0.0676836   	-0.120696   	-0.971379   	-0.533486   	0.0983069   	0.150123   	0.117679   	0.02043   	0.216337   	0.783845   	0.74594
   	0.0710024   	-0.756638   	-1.19408   	-1.4665   	-0.696077   	-0.0298776   	0.108355   	0.0619676   	-0.00424221   	0.180319   	0.615538   	0.504222
   	-0.596325   	-1.77025   	-1.30393   	-0.585549   	-0.201072   	-0.0130492   	0.0269974   	0.000655472   	-0.0280222   	0.0959983   	0.142645   	0.00432125
   	-0.412168   	-1.09987   	-0.89651   	-0.391781   	-0.0865655   	0.0149174   	0.0399855   	0.0625414   	0.0998405   	0.235803   	-0.0245943   	-0.0729907
   	-0.00573142   	-0.290601   	-0.514787   	-0.467684   	-0.125787   	0.172369   	0.273669   	0.299568   	0.230299   	0.117242   	-0.0237808   	0.0175208
   	-0.0154203   	-0.0977645   	-0.217052   	-0.480072   	-0.222184   	0.175308   	0.392139   	0.530428   	0.231895   	-0.0199696   	-0.0923982   	-0.0537887
   	-0.17602   	-0.154793   	-0.115075   	-0.182837   	-0.0784615   	0.0199456   	0.216819   	0.601192   	0.206545   	-0.125898   	-0.204342   	-0.203194
   	-0.259197   	-0.196957   	-0.0479343   	0.0767469   	0.0880396   	0.0296046   	0.161252   	0.615117   	0.490033   	0.0441902   	-0.182301   	-0.252352
   	-0.152959   	-0.107877   	0.00947033   	0.123502   	0.10821   	0.0266072   	0.0690398   	0.330682   	0.295851   	0.107698   	-0.0581936   	-0.135234

   	-0.030049   	0.000975175   	0.0620743   	0.171021   	0.357931   	0.416377   	0.219152   	-0.0839417   	-0.190286   	-0.0281447   	-0.00229392   	-0.0348808
   	0.0201664   	0.0304754   	0.0363185   	0.0236759   	0.149308   	0.254472   	0.125675   	-0.290015   	-0.392803   	-0.145316   	-0.0086529   	-0.000155084
   	0.0935371   	0.0485278   	-0.0160182   	-0.553594   	-0.196538   	0.24854   	0.16887   	-0.105752   	-0.255693   	-0.076274   	0.122865   	0.114489
   	0.120792   	-0.0601074   	-0.75332   	-6.83458   	-2.54866   	0.384872   	0.388445   	0.170891   	0.0171603   	0.178198   	0.437714   	0.287261
   	-0.141122   	-1.08752   	-2.59278   	-5.09896   	-1.44252   	0.200038   	0.294116   	0.132965   	0.0269555   	0.129516   	0.312201   	0.185604
   	-0.400388   	-1.8586   	-1.83941   	-0.877024   	-0.158635   	0.0577843   	0.0785444   	0.0162382   	-0.0282225   	0.136012   	0.111973   	-0.00332293
   	-0.376755   	-1.24256   	-1.1501   	-0.469092   	-0.125174   	-0.0120438   	0.0204061   	0.0276784   	0.0823465   	0.227168   	-0.0398227   	-0.0837731
   	-0.121835   	-0.359797   	-0.56988   	-0.499761   	-0.244787   	-0.0345614   	0.0241753   	0.0721712   	0.129669   	0.0339644   	-0.140343   	-0.0842659
   	-0.0460067   	-0.0824054   	-0.142501   	-0.293547   	-0.152398   	0.0394779   	0.0579304   	0.110706   	0.17204   	0.0348987   	-0.0860017   	-0.0782844
   	-0.0681426   	-0.0560049   	0.00542066   	0.0122519   	0.118371   	0.184842   	0.185653   	0.38629   	0.607616   	0.246656   	-0.0932625   	-0.115997
   	-0.0839566   	-0.0632973   	0.0466489   	0.226413   	0.373128   	0.371492   	0.464407   	1.18673   	2.76765   	1.50625   	0.0215078   	-0.11905
   	-0.0584258   	-0.0306653   	0.0609234   	0.254808   	0.417743   	0.422152   	0.35596   	0.508852   	1.44844   	1.157   	0.156123   	-0.0509123

   	-0.0254856   	-0.039835   	0.0249188   	0.13603   	0.275964   	0.367937   	-0.171712   	-0.679861   	-0.127828   	0.118881   	-0.0103674   	-0.0355129
   	-0.00764367   	-0.012354   	1.88079e-005   	-0.0496549   	-0.0152042   	0.0909133   	-0.333879   	-0.903506   	-0.490025   	-0.103705   	-0.0372885   	-0.0302708
   	-0.0105777   	-0.0190672   	-0.0953388   	-0.983137   	-0.845636   	0.0111494   	-0.0680051   	-0.348092   	-0.280322   	-0.112655   	-0.0217943   	-0.0213824
   	-0.164959   	-0.141339   	-0.464857   	-7.83214   	-4.90873   	0.0755334   	0.277672   	0.0836634   	0.0111462   	0.0396219   	0.0648502   	-0.0479917
   	-0.536265   	-0.651924   	-0.58912   	-2.48946   	-1.65115   	0.0687095   	0.214225   	0.0882286   	0.0325517   	0.0301846   	-0.0357627   	-0.167744
   	-0.557787   	-0.969492   	-0.627911   	-0.253339   	-0.121568   	0.0495432   	0.0684888   	0.0212173   	-0.0250501   	0.0418233   	-0.0302383   	-0.159703
   	-0.396092   	-0.711296   	-0.532094   	-0.208431   	-0.09487   	0.00188182   	0.0214289   	-0.0284212   	-0.039811   	0.0596787   	-0.0249346   	-0.11077
   	-0.185377   	-0.251215   	-0.233088   	-0.217183   	-0.152062   	-0.0446812   	-0.0291314   	-0.0320772   	0.0152248   	0.000843918   	-0.0805237   	-0.0873166
   	-0.0679367   	-0.0672376   	-0.0404812   	-0.0622646   	-0.0246246   	0.0175105   	-0.0320227   	-0.0235675   	0.081523   	0.0361248   	-0.0573959   	-0.0581632
   	-0.0437132   	-0.0432303   	0.0100517   	0.0831103   	0.176833   	0.15935   	0.0373118   	0.1397   	0.857905   	0.62362   	0.00287079   	-0.0437684
   	-0.0524341   	-0.0597455   	0.00257707   	0.175601   	0.342872   	0.297205   	0.126804   	0.842886   	5.87681   	3.45958   	0.25826   	-0.0193169
   	-0.034235   	-0.0582426   	0.00849642   	0.201643   	0.376801   	0.356763   	-0.00616848   	0.277488   	2.91927   	2.13465   	0.281295   	0.00329329

   	-0.063155   	-0.217211   	-0.228067   	-0.113825   	-0.0162873   	0.0953606   	-0.216229   	-0.67598   	-0.19555   	0.00552911   	-0.079226   	-0.0559072
   	-0.0571752   	-0.112626   	-0.0691076   	-0.155444   	-0.12508   	0.000619659   	-0.260262   	-0.611422   	-0.348232   	-0.0928336   	-0.0471718   	-0.0419104
   	-0.0601939   	-0.0623088   	-0.107516   	-0.996277   	-0.991022   	-0.0011714   	-0.0399651   	-0.226384   	-0.203173   	-0.10786   	-0.016262   	-0.0267288
   	-0.183922   	-0.11332   	-0.277334   	-3.66378   	-4.00649   	-0.190907   	0.153832   	-0.0115036   	-0.059305   	0.00202727   	0.0531655   	-0.0835901
   	-0.280838   	-0.172952   	-0.120057   	-1.13209   	-1.48111   	-0.102488   	0.122574   	0.0262004   	-0.00721995   	0.115131   	0.0652105   	-0.120486
   	-0.19525   	-0.292786   	-0.222044   	-0.215281   	-0.211397   	0.027202   	0.0880402   	0.0207902   	0.0623986   	0.251876   	0.196053   	0.0152886
   	-0.108678   	-0.292218   	-0.252664   	-0.166591   	-0.092975   	0.0470452   	0.0602418   	-0.0150348   	0.0394142   	0.221326   	0.210198   	0.0591743
   	-0.0665353   	-0.14249   	-0.131555   	-0.110338   	-0.083984   	-0.0198845   	-0.0234604   	-0.0404817   	0.00506699   	0.0638232   	0.0459598   	-0.000423454
   	-0.0129795   	-0.0758007   	-0.112735   	-0.083684   	-0.0404278   	-0.0354003   	-0.0639484   	-0.0637389   	-0.0121264   	0.00805361   	-0.0154379   	-0.00794245
   	-0.000189332   	-0.0972526   	-0.199907   	-0.124993   	0.00707304   	0.0147863   	-0.0520196   	-0.0394141   	0.150474   	0.150166   	-0.00955166   	0.00395066
   	-0.0209811   	-0.178252   	-0.321777   	-0.191416   	0.0140251   	0.0428103   	-0.0536701   	0.0560923   	1.0293   	0.757515   	0.074925   	0.0184738
   	-0.0368249   	-0.241102   	-0.356079   	-0.184033   	0.0174661   	0.0919466   	-0.120652   	-0.171175   	0.632478   	0.499953   	0.0447522   	0.00403539

   	-0.339993   	-0.850457   	-0.82053   	-0.358979   	-0.137005   	-0.0905658   	-0.0777796   	-0.386734   	-0.24416   	-0.0673709   	-0.10573   	-0.163787
   	-0.343238   	-0.533533   	-0.31393   	0.00987454   	0.303048   	0.147343   	0.017707   	-0.352948   	-0.385809   	-0.134713   	-0.0593707   	-0.147671
   	-0.197092   	-0.229285   	-0.144859   	-0.0193027   	0.279275   	0.335249   	0.0782203   	-0.188858   	-0.227366   	-0.0461938   	0.128102   	0.0303702
   	-0.124356   	-0.077044   	-0.132379   	-0.851291   	-1.29526   	-0.00928715   	0.112186   	-0.058599   	-0.0708593   	0.169884   	0.38679   	0.11796
   	-0.064224   	-0.033139   	-0.115315   	-0.638135   	-0.932801   	-0.167648   	0.0742858   	0.0195086   	0.102535   	0.45973   	0.488351   	0.0678176
   	0.0120844   	-0.146564   	-0.253168   	-0.363312   	-0.295317   	-0.0124993   	0.0884179   	0.0719104   	0.241398   	0.623109   	0.615027   	0.232576
   	-0.0689819   	-0.233679   	-0.257309   	-0.21625   	-0.107221   	0.0488886   	0.0653579   	0.049436   	0.169256   	0.414314   	0.399785   	0.100307
   	-0.0923422   	-0.180584   	-0.200145   	-0.152412   	-0.0917659   	-0.0198262   	-0.00795827   	-0.011952   	0.0313906   	0.0789117   	0.0349169   	-0.0564068
   	-0.0110605   	-0.134473   	-0.289774   	-0.229332   	-0.110222   	-0.0528226   	-0.0452889   	-0.0533636   	-0.0473987   	-0.050673   	-0.0603592   	-0.0423704
   	0.0127147   	-0.198631   	-0.494009   	-0.382632   	-0.141303   	-0.044825   	-0.0318637   	-0.0358733   	-0.0467036   	-0.0575444   	-0.0484682   	-0.00400593
   	-0.0402635   	-0.4147   	-0.800862   	-0.566   	-0.220825   	-0.0463642   	-0.0120091   	-0.0055639   	0.0643923   	0.0466109   	-0.0022641   	0.0148867
   	-0.154261   	-0.703615   	-0.993117   	-0.562216   	-0.220406   	-0.0492984   	-0.0581401   	-0.134377   	-0.0018162   	-0.000521954   	-0.0552237   	-0.0419267

   	-0.774443   	-1.41413   	-0.896139   	-0.196553   	-0.075648   	-0.179398   	-0.178315   	-0.551081   	-0.474356   	-0.174221   	-0.200763   	-0.409488
   	-0.945636   	-1.25592   	-0.642521   	0.055019   	0.316067   	0.0993223   	-0.0738799   	-0.612334   	-0.681096   	-0.257823   	-0.167579   	-0.435603
   	-0.803099   	-0.981938   	-0.6933   	0.0383741   	0.310524   	0.210433   	0.0190995   	-0.317804   	-0.316229   	0.00120423   	0.1878   	-0.194517
   	-0.613744   	-0.62358   	-0.509686   	-0.271607   	-0.362284   	-0.00168324   	0.117199   	-0.0414663   	-0.0237966   	0.268622   	0.480772   	-0.23657
   	-0.248923   	-0.229559   	-0.23923   	-0.447978   	-0.58217   	-0.180778   	0.0700445   	0.0550613   	0.137034   	0.433211   	0.290884   	-0.323298
   	-0.148387   	-0.312312   	-0.287625   	-0.370784   	-0.312446   	-0.0676372   	0.0540968   	0.0757971   	0.192274   	0.43293   	0.350201   	-7.3195e-005
   	-0.387991   	-0.500516   	-0.291917   	-0.181538   	-0.106166   	0.00206697   	0.0268972   	0.0343573   	0.118944   	0.261734   	0.176792   	-0.168122
   	-0.347926   	-0.387793   	-0.246693   	-0.136281   	-0.0762781   	-0.0292172   	-0.0222971   	-0.0198375   	0.0164663   	0.0152362   	-0.0758759   	-0.225896
   	-0.0697401   	-0.132712   	-0.235412   	-0.192583   	-0.102709   	-0.0459245   	-0.0452219   	-0.0638706   	-0.0613147   	-0.0902979   	-0.10775   	-0.100468
   	0.0388396   	-0.0811343   	-0.322515   	-0.301696   	-0.149562   	-0.0442675   	-0.0309884   	-0.0470314   	-0.0593211   	-0.0684475   	-0.0451576   	-0.00521372
   	-0.0224866   	-0.331982   	-0.616371   	-0.441651   	-0.214979   	-0.0470226   	-0.025491   	-0.0525814   	-0.0228309   	-0.00493811   	0.00472348   	0.0158174
   	-0.295549   	-0.866081   	-0.88828   	-0.384207   	-0.189782   	-0.078701   	-0.0989981   	-0.192583   	-0.113198   	-0.0602576   	-0.0911927   	-0.124709

   	-0.610921   	-0.652429   	-0.294794   	-0.111144   	-0.0943382   	-0.0411425   	-0.0721253   	-0.417409   	-0.438068   	-0.203448   	-0.322345   	-0.455192
   	-0.720775   	-0.736931   	-0.384156   	-0.206062   	-0.115884   	-0.0375487   	-0.231168   	-0.774808   	-0.722933   	-0.260031   	-0.184202   	-0.376678
   	-0.962346   	-0.980413   	-0.67415   	-0.336188   	-0.169245   	0.0483784   	-0.0148258   	-0.396557   	-0.376327   	-0.0765275   	-0.030193   	-0.520966
   	-1.47841   	-1.26341   	-0.793947   	-0.36762   	-0.241901   	0.0406174   	0.182943   	-0.0192159   	-0.111453   	-0.0996399   	-0.495297   	-1.48837
   	-0.838709   	-0.81505   	-0.419156   	-0.287506   	-0.38975   	-0.191393   	0.0216639   	0.0045092   	-0.034408   	-0.103702   	-0.628612   	-1.18873
   	-0.585174   	-0.636597   	-0.246749   	-0.19904   	-0.291494   	-0.150188   	-0.0142802   	0.0122021   	0.0192704   	0.00330864   	-0.173061   	-0.444791
   	-0.581725   	-0.582166   	-0.200701   	-0.0565332   	-0.0710389   	-0.0360626   	0.00199437   	0.0273118   	0.049643   	0.0318757   	-0.0945874   	-0.350381
   	-0.296705   	-0.31795   	-0.119971   	0.00123703   	-0.00790464   	-0.00837595   	-0.00816103   	0.0085335   	0.0236389   	-0.0339524   	-0.11765   	-0.207308
   	-0.0390072   	-0.0444641   	-0.0239601   	-0.0195648   	-0.0256703   	-0.00777216   	-0.0406152   	-0.0795382   	-0.0735411   	-0.0955812   	-0.104903   	-0.0790559
   	0.0441419   	0.0330286   	-0.0363503   	-0.0921058   	-0.0811195   	-0.0371226   	-0.0659111   	-0.0863214   	-0.0594033   	-0.0520008   	-0.0299221   	0.00288958
   	0.0111826   	-0.0684782   	-0.153216   	-0.15513   	-0.119742   	-0.0487657   	-0.0702656   	-0.0718334   	-0.017662   	-0.00498984   	-0.0133401   	-0.00212428
   	-0.212232   	-0.329435   	-0.249666   	-0.112679   	-0.0799223   	-0.0145274   	-0.0266562   	-0.0823178   	-0.0619637   	-0.081374   	-0.184251   	-0.186279

   	-0.0486236   	0.326013   	0.0268832   	-0.0819641   	-0.0424992   	-0.0494662   	-0.243654   	-0.356952   	-0.213531   	-0.22542   	-0.459255   	-0.32067
   	0.191915   	0.437116   	-0.0882512   	-0.203626   	-0.12618   	-0.17136   	-0.52625   	-0.765697   	-0.433163   	-0.212035   	-0.243888   	-0.16258
   	0.339055   	0.389204   	-0.144843   	-0.223621   	-0.160026   	-0.0526206   	-0.110784   	-0.303095   	-0.231865   	-0.119286   	-0.145352   	-0.230854
   	-0.587145   	-0.339524   	-0.354055   	-0.227428   	-0.202066   	-0.038047   	0.21388   	0.115875   	-0.0762399   	-0.344631   	-0.841733   	-1.27321
   	-0.800413   	-0.617011   	-0.372443   	-0.210578   	-0.375524   	-0.30399   	0.0110955   	0.0490312   	-0.143048   	-0.546111   	-0.997206   	-1.24459
   	-0.452449   	-0.488231   	-0.258287   	-0.172458   	-0.32659   	-0.231684   	-0.0103437   	0.0429404   	-0.0261707   	-0.123071   	-0.175778   	-0.361083
   	-0.218102   	-0.251326   	-0.0780932   	0.00317244   	-0.0504454   	-0.0229401   	0.106764   	0.177756   	0.106491   	-0.00169892   	-0.0557168   	-0.11244
   	-0.0342631   	-0.0533502   	0.0367095   	0.0861853   	0.036068   	0.0625144   	0.202015   	0.230642   	0.0713548   	-0.0546659   	-0.103041   	-0.0649308
   	-0.0200459   	0.027688   	0.0602622   	0.0561984   	0.0122871   	0.00282894   	-0.0522909   	-0.173562   	-0.203781   	-0.178879   	-0.169584   	-0.102916
   	0.0138951   	0.0551733   	0.0397519   	-0.0100666   	-0.0656256   	-0.15484   	-0.338742   	-0.371499   	-0.252229   	-0.15341   	-0.110192   	-0.0613414
   	0.0280883   	0.0663835   	0.0106074   	-0.0439645   	-0.0909595   	-0.165319   	-0.251507   	-0.155132   	-0.0630509   	-0.0912149   	-0.137618   	-0.0795294
   	0.00919464   	0.133203   	0.0222585   	-0.0226057   	-0.0335863   	-0.0545798   	-0.0969709   	-0.0306671   	-0.0106799   	-0.189654   	-0.360779   	-0.203899

