12 12 12
   	0.894208   	1.34379   	0.566174   	0.0694448   	-0.154619   	-0.50386   	-0.890205   	-0.650752   	-0.313305   	-0.335124   	-0.237206   	0.093402
   	0.938405   	1.62163   	0.725738   	0.0103803   	-0.40867   	-0.873509   	-1.0955   	-0.58936   	-0.192455   	-0.187548   	-0.123513   	0.117113
   	0.397512   	0.745784   	0.36714   	-0.0954359   	-0.440944   	-0.602289   	-0.510238   	-0.238584   	-0.0976127   	-0.0924759   	-0.048448   	0.0554795
   	0.0684849   	0.0934736   	-0.00222203   	-0.153518   	-0.286302   	-0.251042   	-0.145839   	-0.0831354   	-0.0855401   	-0.0757977   	-0.0276203   	0.0158468
   	-0.0866009   	-0.17218   	-0.160445   	-0.165439   	-0.171233   	-0.0876501   	-0.0240612   	-0.0621006   	-0.1309   	-0.107647   	-0.0339973   	-0.0157867
   	-0.000175266   	-0.182887   	-0.175788   	-0.128707   	-0.0688276   	0.0414189   	0.0967786   	0.0164072   	-0.0810838   	-0.0736187   	0.0116699   	0.0695391
   	0.340766   	0.0275341   	-0.0691983   	-0.0405884   	0.0454368   	0.199228   	0.281397   	0.173808   	0.0365693   	-0.0179764   	0.0521494   	0.214732
   	0.23487   	0.0978416   	0.020013   	0.0301267   	0.112269   	0.287565   	0.394155   	0.251372   	0.0464471   	-0.0909139   	-0.0934802   	0.0292112
   	0.0244202   	0.0498673   	0.0411362   	0.0419325   	0.069957   	0.147588   	0.203203   	0.0982183   	-0.0937627   	-0.236909   	-0.228668   	-0.130792
   	-0.0133057   	0.043327   	0.0466315   	0.0269523   	0.00978025   	0.00975938   	0.0155573   	-0.0521715   	-0.215235   	-0.328663   	-0.26357   	-0.144923
   	0.0250704   	0.10496   	0.0775173   	0.0263472   	-0.0102926   	-0.0370334   	-0.0547481   	-0.124516   	-0.28655   	-0.394826   	-0.294164   	-0.13424
   	0.256138   	0.408588   	0.205313   	0.0483868   	-0.029056   	-0.136986   	-0.273725   	-0.319939   	-0.347219   	-0.423455   	-0.307704   	-0.0751739

   	0.738765   	1.07055   	0.473513   	0.0243139   	-0.309855   	-1.08019   	-2.31954   	-1.86336   	-0.958273   	-0.7509   	-0.359307   	0.0668625
   	0.789281   	1.28932   	0.561047   	-0.117972   	-0.668108   	-1.44251   	-1.878   	-0.932577   	-0.405197   	-0.433663   	-0.211393   	0.104135
   	0.341624   	0.586328   	0.215092   	-0.249041   	-0.576148   	-0.716432   	-0.574733   	-0.250696   	-0.21428   	-0.231924   	-0.0834831   	0.0630169
   	0.105254   	0.119012   	-0.0273633   	-0.198778   	-0.27698   	-0.223648   	-0.145735   	-0.143634   	-0.202912   	-0.132274   	-0.0128291   	0.0522922
   	0.100254   	0.0019239   	-0.0822204   	-0.13743   	-0.13301   	-0.0505059   	-0.0219014   	-0.140964   	-0.223081   	-0.107073   	0.0264604   	0.0955077
   	0.549527   	0.114932   	-0.0654493   	-0.0915533   	-0.0210418   	0.151285   	0.21694   	0.0186673   	-0.126277   	-0.0537191   	0.140477   	0.40498
   	1.6728   	0.423462   	0.0108835   	-0.00775649   	0.18254   	0.613945   	0.800597   	0.391955   	0.063075   	0.0122418   	0.293425   	0.988176
   	0.907962   	0.297324   	0.0562709   	0.0835693   	0.396003   	1.16199   	1.47075   	0.69687   	0.121568   	-0.0819123   	0.0236024   	0.447395
   	0.114517   	0.087016   	0.0621357   	0.0867831   	0.240726   	0.647955   	0.825605   	0.34832   	-0.0903894   	-0.27445   	-0.21961   	-0.0593577
   	-0.0511468   	0.0105278   	0.0438239   	0.0365525   	0.0312607   	0.0789424   	0.094517   	-0.111844   	-0.407094   	-0.476512   	-0.291196   	-0.148882
   	-0.0752069   	-0.00590174   	0.0362742   	0.0207527   	-0.019334   	-0.0669384   	-0.176947   	-0.467638   	-0.784468   	-0.726122   	-0.360243   	-0.157951
   	0.12487   	0.233855   	0.143113   	0.0368024   	-0.0696701   	-0.325027   	-0.898864   	-1.28024   	-1.19861   	-0.949434   	-0.447561   	-0.115694

   	0.198432   	0.27912   	0.160213   	-0.0362722   	-0.305066   	-1.16956   	-2.96441   	-2.77673   	-1.59447   	-0.984447   	-0.371098   	-0.0103931
   	0.236818   	0.356133   	0.129922   	-0.188883   	-0.504197   	-1.01304   	-1.44658   	-0.947629   	-0.696437   	-0.600854   	-0.235067   	0.0324212
   	0.0900453   	0.116982   	-0.0444562   	-0.245382   	-0.339282   	-0.314476   	-0.216922   	-0.177092   	-0.326319   	-0.278717   	-0.0667024   	0.046052
   	0.00995364   	-0.0331161   	-0.0862137   	-0.136987   	-0.129432   	-0.0531878   	-0.014806   	-0.113401   	-0.215765   	-0.0997153   	0.0249194   	0.0498406
   	0.00517482   	-0.101745   	-0.109873   	-0.108283   	-0.0869676   	-0.0110979   	0.00561829   	-0.122848   	-0.189255   	-0.0671912   	0.0349639   	0.0540559
   	0.386227   	-0.0345637   	-0.139244   	-0.110416   	-0.0172247   	0.163229   	0.222085   	0.0184888   	-0.110751   	-0.046828   	0.104153   	0.299911
   	1.49459   	0.309861   	-0.0524411   	-0.0156902   	0.277547   	0.872067   	1.06005   	0.449818   	0.0489475   	-0.00222905   	0.258629   	0.897389
   	0.907952   	0.270672   	0.0365629   	0.131133   	0.760554   	2.25423   	2.6387   	0.999476   	0.127378   	-0.0614756   	0.0793396   	0.521988
   	0.148592   	0.0464987   	0.0194491   	0.101533   	0.485752   	1.43235   	1.70703   	0.577325   	-0.0797795   	-0.210259   	-0.114421   	0.0440455
   	-0.131965   	-0.163784   	-0.0940968   	-0.0205444   	0.0466359   	0.191213   	0.210789   	-0.168732   	-0.480207   	-0.424256   	-0.192932   	-0.103345
   	-0.286492   	-0.390948   	-0.205342   	-0.0456474   	-0.0328817   	-0.116339   	-0.389371   	-0.855895   	-1.08555   	-0.744536   	-0.26894   	-0.146257
   	-0.17385   	-0.254845   	-0.0993989   	-0.0160459   	-0.0969177   	-0.508928   	-1.62231   	-2.35105   	-1.91928   	-1.14406   	-0.405113   	-0.124345

   	0.0172104   	-0.00961164   	-0.0014606   	-0.0331633   	-0.106144   	-0.444319   	-1.11342   	-1.07498   	-0.712398   	-0.450438   	-0.168036   	-0.00245157
   	0.0646139   	0.0629188   	-0.00676725   	-0.105998   	-0.164432   	-0.275671   	-0.457184   	-0.456708   	-0.429199   	-0.305278   	-0.0978498   	0.0270339
   	0.0264254   	-0.00915868   	-0.062855   	-0.135638   	-0.139691   	-0.0768931   	-0.0580384   	-0.130628   	-0.196108   	-0.0995289   	0.0202044   	0.0554328
   	-0.0216477   	-0.0948699   	-0.0909807   	-0.120206   	-0.118953   	-0.0448348   	-0.00728505   	-0.0551766   	-0.0722287   	0.0230393   	0.080005   	0.054263
   	-0.173522   	-0.389192   	-0.344073   	-0.25896   	-0.183952   	-0.0806311   	-0.0249194   	-0.0513107   	-0.0600262   	0.00698742   	0.040125   	-0.00944597
   	-0.283285   	-0.758619   	-0.65838   	-0.361327   	-0.151033   	0.00344121   	0.0607539   	0.00209859   	-0.0455556   	-0.0245279   	0.00929632   	-0.000416782
   	0.112699   	-0.417576   	-0.469777   	-0.227143   	0.0950771   	0.425221   	0.502363   	0.236632   	0.0374849   	-0.0036227   	0.0695342   	0.227095
   	0.251174   	-0.0516219   	-0.184622   	-0.0220268   	0.491666   	1.3241   	1.51582   	0.631162   	0.10149   	-0.0100288   	0.0522406   	0.222449
   	0.0208235   	-0.118073   	-0.161368   	-0.00563464   	0.339179   	0.95683   	1.21448   	0.456016   	-0.0218233   	-0.0945539   	-0.0417237   	0.0325557
   	-0.2635   	-0.456389   	-0.365422   	-0.126586   	0.0102302   	0.138865   	0.231131   	-0.015639   	-0.212528   	-0.202017   	-0.114525   	-0.111883
   	-0.480508   	-0.888575   	-0.570963   	-0.143075   	-0.0406716   	-0.0963403   	-0.21484   	-0.28558   	-0.350752   	-0.294772   	-0.142546   	-0.15067
   	-0.309864   	-0.582462   	-0.313193   	-0.0611765   	-0.0583882   	-0.303614   	-0.786089   	-0.857691   	-0.684925   	-0.463317   	-0.181114   	-0.0870427

   	-0.0121579   	-0.0400441   	-0.0284351   	-0.010658   	0.0226337   	0.00838107   	-0.0418866   	-0.0216381   	-0.0479012   	-0.0693387   	-0.0289951   	0.00735314
   	0.0239271   	0.00900598   	-0.0241052   	-0.0665675   	-0.0391301   	-0.000646073   	-0.0309746   	-0.0784082   	-0.097035   	-0.0606315   	-0.00529495   	0.023277
   	0.0159253   	-0.0104557   	-0.0613028   	-0.173224   	-0.14837   	-0.0217089   	0.0206037   	-0.0112751   	-0.0234205   	0.0192452   	0.0482957   	0.0383818
   	-0.0404683   	-0.129346   	-0.230082   	-0.411242   	-0.341207   	-0.105882   	0.012955   	0.0280667   	0.0317044   	0.0670887   	0.0729612   	0.0278825
   	-0.311281   	-0.749782   	-0.937774   	-0.823876   	-0.481998   	-0.17204   	-0.0237622   	0.0166781   	0.0207856   	0.0408536   	0.0325945   	-0.0496229
   	-0.649353   	-1.57186   	-1.61953   	-0.910606   	-0.370463   	-0.118122   	-0.0154706   	0.0149328   	0.0113761   	0.00906225   	-0.0132546   	-0.106595
   	-0.320193   	-0.929137   	-1.08116   	-0.6022   	-0.163146   	0.0401136   	0.109426   	0.0975821   	0.0520769   	0.0218406   	0.0133282   	0.0190905
   	0.010766   	-0.21214   	-0.425405   	-0.265344   	0.0526465   	0.285924   	0.373612   	0.245195   	0.0957691   	0.0340704   	0.0332826   	0.0862235
   	-0.0692019   	-0.160634   	-0.234624   	-0.11371   	0.0713599   	0.240651   	0.383358   	0.233832   	0.0572649   	0.00235753   	-0.0146233   	-0.00730039
   	-0.291028   	-0.417232   	-0.32659   	-0.12166   	0.00402992   	0.0995055   	0.266053   	0.23706   	0.114829   	0.0175789   	-0.0558266   	-0.119128
   	-0.402016   	-0.64226   	-0.399206   	-0.102508   	0.0189543   	0.100187   	0.292718   	0.494623   	0.370365   	0.0949169   	-0.0446731   	-0.132957
   	-0.226866   	-0.360705   	-0.194477   	-0.0309705   	0.0369529   	0.0727837   	0.192077   	0.362488   	0.223511   	0.0176355   	-0.035673   	-0.0621213

   	-0.0091667   	-0.0196676   	-0.0111523   	0.00718334   	0.0568068   	0.103973   	0.129407   	0.129896   	0.107233   	0.0458035   	0.0221546   	0.017619
   	0.00754475   	0.000449049   	-0.0265112   	-0.0762689   	-0.0404169   	0.0345417   	0.0356412   	-0.00624792   	-0.015178   	-0.00569353   	0.00749175   	0.0120395
   	-0.00181051   	-0.0133758   	-0.106766   	-0.342578   	-0.296544   	-0.0403876   	0.0429612   	0.0260279   	0.0132869   	0.0222329   	0.0219332   	0.00653578
   	-0.07462   	-0.150978   	-0.397262   	-0.938387   	-0.813265   	-0.20726   	0.030283   	0.0679498   	0.0570115   	0.0532636   	0.0337358   	-0.0143647
   	-0.34628   	-0.737447   	-1.04864   	-1.18267   	-0.784024   	-0.233566   	0.00597072   	0.0751618   	0.0667253   	0.0498139   	0.0111618   	-0.0799954
   	-0.615295   	-1.37734   	-1.44764   	-0.837023   	-0.356928   	-0.11474   	-0.00286742   	0.0516589   	0.0574581   	0.0372412   	-0.0133543   	-0.116742
   	-0.326739   	-0.798462   	-0.929057   	-0.518257   	-0.175665   	-0.0408714   	0.0165022   	0.0570537   	0.0669932   	0.0467409   	0.00858725   	-0.0245296
   	-0.0526001   	-0.177479   	-0.323696   	-0.238248   	-0.0682424   	0.016977   	0.0548749   	0.0743395   	0.0757722   	0.059518   	0.0305011   	0.0339387
   	-0.0811432   	-0.0816876   	-0.100731   	-0.0682012   	0.0024122   	0.0464649   	0.0773176   	0.0723083   	0.0865575   	0.0811454   	0.0247912   	-0.0064185
   	-0.204316   	-0.197649   	-0.103706   	-0.0229117   	0.0470457   	0.11704   	0.202935   	0.270232   	0.329579   	0.217121   	0.0409461   	-0.0586793
   	-0.217558   	-0.244744   	-0.112337   	-0.00259703   	0.098997   	0.232574   	0.449275   	0.740705   	0.755191   	0.367387   	0.0729858   	-0.0488078
   	-0.113311   	-0.129573   	-0.0538445   	0.0220649   	0.115253   	0.238492   	0.408847   	0.549362   	0.465173   	0.204549   	0.0478669   	-0.016101

   	-0.0235198   	-0.0624498   	-0.0513553   	-0.00857137   	0.0202905   	0.0199411   	-0.012852   	0.0190236   	0.0553774   	0.0429613   	0.0287765   	0.0231116
   	-0.00635047   	-0.0205575   	-0.0260709   	-0.0720639   	-0.0902805   	-0.0413473   	-0.0728777   	-0.135535   	-0.0836892   	-0.0304132   	-0.00365311   	0.00834026
   	-0.00461019   	-0.00270153   	-0.0796154   	-0.458092   	-0.598123   	-0.187542   	-0.0238597   	-0.0250122   	-0.0196875   	-0.00143678   	0.00529973   	1.38744e-005
   	-0.0480705   	-0.05172   	-0.240447   	-1.26839   	-1.71336   	-0.515819   	-0.0179525   	0.0757303   	0.0713946   	0.0582241   	0.0310266   	-0.0145896
   	-0.179067   	-0.269455   	-0.34776   	-0.849784   	-1.07814   	-0.356501   	0.0201629   	0.14048   	0.123323   	0.0855908   	0.0295092   	-0.0502132
   	-0.283151   	-0.547814   	-0.499178   	-0.296079   	-0.210704   	-0.080771   	0.0176686   	0.0826966   	0.103373   	0.0840251   	0.02218   	-0.05681
   	-0.177037   	-0.420894   	-0.472723   	-0.267301   	-0.104313   	-0.038581   	-0.00712269   	0.0348518   	0.0798991   	0.0844763   	0.0389282   	-0.00620463
   	-0.063071   	-0.150222   	-0.213081   	-0.168552   	-0.0818469   	-0.0382895   	-0.0244276   	0.0066645   	0.0657771   	0.0939087   	0.0591691   	0.0268413
   	-0.0715024   	-0.0773557   	-0.0690684   	-0.0567451   	-0.0269765   	-0.0145761   	-0.0209003   	0.012333   	0.114142   	0.150998   	0.0804641   	0.0188516
   	-0.123777   	-0.126225   	-0.072174   	-0.0265716   	0.0187156   	0.0424446   	0.056683   	0.187185   	0.38649   	0.321011   	0.121945   	0.00727123
   	-0.112947   	-0.145007   	-0.097996   	-0.0256928   	0.0564923   	0.118917   	0.216507   	0.530501   	0.712395   	0.423511   	0.139203   	0.0198913
   	-0.0757402   	-0.122915   	-0.0961555   	-0.0152093   	0.0704645   	0.132338   	0.227344   	0.49111   	0.42374   	0.21728   	0.0769223   	0.015959

   	-0.0846311   	-0.209847   	-0.182574   	-0.0616314   	-0.0264981   	-0.0519823   	-0.17033   	-0.25946   	-0.125432   	-0.0267401   	0.00709244   	0.0101298
   	-0.0393599   	-0.105063   	-0.0780572   	-0.0727466   	-0.150769   	-0.129007   	-0.172204   	-0.287992   	-0.201897   	-0.0740797   	-0.00324358   	0.0181582
   	0.0074814   	-0.021122   	-0.0547713   	-0.504599   	-1.0399   	-0.483719   	-0.146873   	-0.112777   	-0.0740164   	0.00188197   	0.0547509   	0.0477379
   	0.00818741   	-0.0050991   	-0.163014   	-1.71976   	-3.40213   	-1.18627   	-0.16442   	0.011308   	0.0543961   	0.11621   	0.12311   	0.053172
   	-0.0401698   	-0.0731201   	-0.171549   	-1.11039   	-2.00744   	-0.691954   	-0.0338405   	0.107783   	0.126782   	0.163724   	0.119518   	0.0207346
   	-0.0861167   	-0.2133   	-0.259126   	-0.328079   	-0.357826   	-0.129089   	0.00791792   	0.0573762   	0.112176   	0.149922   	0.0893542   	0.00210312
   	-0.087432   	-0.259934   	-0.343625   	-0.263207   	-0.137953   	-0.0549348   	-0.0193937   	0.0150444   	0.0837625   	0.123423   	0.0754019   	0.00744099
   	-0.0675702   	-0.177048   	-0.236691   	-0.194862   	-0.11184   	-0.0606734   	-0.0398454   	-0.00901074   	0.0599001   	0.10686   	0.0732804   	0.0130403
   	-0.0718883   	-0.139932   	-0.160187   	-0.125113   	-0.0720734   	-0.0440941   	-0.0354218   	0.00413511   	0.0923699   	0.133505   	0.0813572   	0.0124511
   	-0.0881472   	-0.16869   	-0.181933   	-0.117118   	-0.0446885   	-0.0142998   	0.00257473   	0.0986614   	0.234386   	0.217292   	0.102047   	0.0171324
   	-0.0903237   	-0.211472   	-0.232992   	-0.126318   	-0.0259995   	0.0150659   	0.0588657   	0.230407   	0.346623   	0.233   	0.0975375   	0.0248045
   	-0.11001   	-0.260475   	-0.259305   	-0.111991   	-0.0134316   	0.0148783   	0.0379352   	0.197444   	0.180453   	0.0996824   	0.0443167   	0.00740997

   	-0.263764   	-0.478342   	-0.364106   	-0.11779   	-0.0328325   	-0.0401485   	-0.152758   	-0.297279   	-0.213291   	-0.0749887   	-0.0282208   	-0.060717
   	-0.215758   	-0.377716   	-0.273609   	-0.114817   	-0.135742   	-0.158797   	-0.215143   	-0.329786   	-0.252016   	-0.0761987   	0.0103865   	-0.021358
   	-0.0985062   	-0.220313   	-0.180427   	-0.364436   	-0.843788   	-0.546928   	-0.259652   	-0.185254   	-0.0830069   	0.0914871   	0.17936   	0.0819071
   	-0.0385616   	-0.108782   	-0.216237   	-1.49505   	-3.03369   	-1.19848   	-0.247377   	-0.0303728   	0.106102   	0.288862   	0.298399   	0.103484
   	-0.0481319   	-0.09609   	-0.301772   	-1.51737   	-2.28518   	-0.773477   	-0.0817361   	0.09814   	0.216408   	0.324099   	0.230348   	0.0353273
   	-0.0985647   	-0.21055   	-0.395466   	-0.72224   	-0.627231   	-0.20184   	-0.00753685   	0.0760484   	0.17477   	0.229394   	0.125184   	-0.022854
   	-0.156591   	-0.316756   	-0.437198   	-0.422312   	-0.238691   	-0.0859627   	-0.0215271   	0.0235004   	0.0936559   	0.128125   	0.0562273   	-0.0603609
   	-0.142051   	-0.264304   	-0.326526   	-0.266662   	-0.148508   	-0.0699972   	-0.0345407   	-0.00904019   	0.0329106   	0.0581704   	0.0187957   	-0.0640785
   	-0.0912633   	-0.187722   	-0.237954   	-0.184194   	-0.0984329   	-0.0468221   	-0.0261112   	-0.00869574   	0.0212652   	0.0387906   	0.0149835   	-0.034908
   	-0.0648127   	-0.180332   	-0.239249   	-0.165477   	-0.0698385   	-0.019311   	0.00325419   	0.0354645   	0.068932   	0.0668773   	0.0346862   	-0.0018759
   	-0.0933221   	-0.2574   	-0.298636   	-0.16532   	-0.0506399   	0.0016109   	0.0283041   	0.0683674   	0.0905332   	0.0656338   	0.033456   	0.0013647
   	-0.196469   	-0.411696   	-0.373032   	-0.155342   	-0.0399104   	-0.00750694   	-0.0202744   	-0.0230368   	-0.00966785   	-0.000164477   	-0.00220811   	-0.0374788

   	-0.436467   	-0.580557   	-0.38839   	-0.125196   	-0.0158481   	-0.0153635   	-0.119857   	-0.26056   	-0.206508   	-0.0874833   	-0.0875148   	-0.177987
   	-0.538416   	-0.70937   	-0.479186   	-0.182631   	-0.083788   	-0.109747   	-0.203799   	-0.305205   	-0.214709   	-0.048698   	-0.0295456   	-0.171931
   	-0.514951   	-0.709926   	-0.494808   	-0.248437   	-0.269051   	-0.246706   	-0.197234   	-0.156352   	-0.020372   	0.161612   	0.158002   	-0.0986691
   	-0.474101   	-0.563479   	-0.38596   	-0.532278   	-0.807822   	-0.391517   	-0.101838   	0.0293517   	0.19008   	0.345399   	0.227872   	-0.137601
   	-0.448917   	-0.402091   	-0.325013   	-0.792857   	-0.894538   	-0.311001   	-0.0159543   	0.116661   	0.248123   	0.295741   	0.0853951   	-0.249472
   	-0.475014   	-0.478671   	-0.465887   	-0.643039   	-0.44832   	-0.135272   	-0.00110584   	0.0738817   	0.154991   	0.151395   	-0.029376   	-0.300628
   	-0.481574   	-0.57021   	-0.523088   	-0.4293   	-0.222189   	-0.0761252   	-0.0181903   	0.0178718   	0.0588718   	0.0473595   	-0.0775283   	-0.299334
   	-0.305061   	-0.369251   	-0.341243   	-0.244548   	-0.127534   	-0.0578929   	-0.0301736   	-0.018935   	-0.0105056   	-0.0261348   	-0.0948052   	-0.218219
   	-0.108853   	-0.156772   	-0.186271   	-0.146959   	-0.0790195   	-0.0365802   	-0.0261287   	-0.0319385   	-0.0410068   	-0.0490689   	-0.0651468   	-0.0957416
   	-0.0270739   	-0.0936017   	-0.14947   	-0.116815   	-0.0522909   	-0.0125957   	-0.00506885   	-0.0117887   	-0.0212456   	-0.0201332   	-0.0168468   	-0.0171812
   	-0.0654782   	-0.162825   	-0.1906   	-0.108738   	-0.0312982   	0.00603402   	0.00938667   	-0.00378797   	-0.0120518   	-0.00801468   	-0.0098822   	-0.0189073
   	-0.222492   	-0.348215   	-0.277163   	-0.107767   	-0.0220529   	-0.00173369   	-0.0299125   	-0.0768939   	-0.0689361   	-0.0390521   	-0.0456031   	-0.0877809

   	-0.251427   	-0.226816   	-0.151804   	-0.0740686   	-0.0320052   	-0.0460529   	-0.129941   	-0.214089   	-0.150443   	-0.0944015   	-0.134402   	-0.178294
   	-0.412595   	-0.419974   	-0.284506   	-0.172898   	-0.118535   	-0.135224   	-0.222995   	-0.271263   	-0.154192   	-0.0492456   	-0.0792171   	-0.197393
   	-0.629306   	-0.727798   	-0.479817   	-0.266937   	-0.172453   	-0.128693   	-0.133545   	-0.114095   	-0.00804349   	0.0789791   	0.00647509   	-0.23863
   	-0.861755   	-0.917382   	-0.489498   	-0.272379   	-0.21144   	-0.0810069   	-0.00764373   	0.034622   	0.108344   	0.135054   	-0.0291784   	-0.393876
   	-1.05176   	-0.922093   	-0.389635   	-0.312443   	-0.264409   	-0.0807353   	0.0173183   	0.0572963   	0.0912122   	0.0436626   	-0.184444   	-0.600611
   	-1.06031   	-0.931965   	-0.46033   	-0.335511   	-0.199523   	-0.0536049   	0.00699373   	0.0268221   	0.0354345   	-0.0275844   	-0.237185   	-0.639417
   	-0.775784   	-0.743812   	-0.432414   	-0.245165   	-0.110096   	-0.0286981   	0.00254043   	0.0119573   	0.0096905   	-0.0454407   	-0.204346   	-0.504293
   	-0.354565   	-0.324504   	-0.208022   	-0.117062   	-0.0539715   	-0.0171294   	-0.00151017   	-0.00482315   	-0.0277113   	-0.0849361   	-0.181182   	-0.310089
   	-0.0952995   	-0.0762987   	-0.0686804   	-0.056154   	-0.0319969   	-0.0119995   	-0.00935626   	-0.0274959   	-0.063845   	-0.105521   	-0.131342   	-0.138153
   	-0.00830793   	-0.0138146   	-0.0409123   	-0.0436445   	-0.0230353   	-0.00498814   	-0.00560061   	-0.024166   	-0.0536025   	-0.0724375   	-0.0689973   	-0.0450077
   	-0.0288206   	-0.0421299   	-0.0575568   	-0.0387932   	-0.0119474   	0.00283224   	-0.000273295   	-0.0193024   	-0.0383758   	-0.0515917   	-0.0610874   	-0.0462301
   	-0.118726   	-0.11642   	-0.0883374   	-0.0378507   	-0.00814413   	-0.00712572   	-0.0314636   	-0.0651715   	-0.0615032   	-0.0645946   	-0.0945532   	-0.102613

   	0.202168   	0.387186   	0.16864   	-0.00712492   	-0.0770215   	-0.177634   	-0.298643   	-0.272984   	-0.142997   	-0.142527   	-0.154285   	-0.0506213
   	0.14181   	0.39828   	0.17349   	-0.0809391   	-0.218595   	-0.349019   	-0.456138   	-0.34369   	-0.134291   	-0.0768773   	-0.0826596   	-0.0514708
   	-0.151377   	-0.0383358   	-0.0474512   	-0.164156   	-0.251787   	-0.259307   	-0.237035   	-0.147671   	-0.0395701   	-0.00592785   	-0.0375373   	-0.108514
   	-0.45222   	-0.466961   	-0.251103   	-0.181085   	-0.18421   	-0.0988961   	-0.0342758   	-0.00895197   	0.00384689   	-0.0103741   	-0.0754088   	-0.224251
   	-0.745029   	-0.746206   	-0.350707   	-0.1974   	-0.146896   	-0.0436018   	0.0124327   	0.00149719   	-0.0357467   	-0.0820881   	-0.166534   	-0.387606
   	-0.754418   	-0.770641   	-0.38185   	-0.188601   	-0.091891   	-0.00458461   	0.0297652   	0.00717926   	-0.0363114   	-0.0849093   	-0.16712   	-0.396244
   	-0.417655   	-0.454416   	-0.249062   	-0.103254   	-0.0233891   	0.0354995   	0.062667   	0.0460993   	0.00549002   	-0.0510496   	-0.126936   	-0.269619
   	-0.141236   	-0.124901   	-0.0669803   	-0.0190657   	0.012676   	0.0498914   	0.0757687   	0.0519024   	-0.0144502   	-0.0988737   	-0.163812   	-0.198608
   	-0.0413458   	-0.00477046   	0.00546616   	0.00491556   	0.00892894   	0.0246638   	0.0322896   	-0.00411596   	-0.0848998   	-0.165183   	-0.180981   	-0.141018
   	-0.00705881   	0.0213475   	0.0141921   	0.000152521   	-0.00416854   	-0.00142016   	-0.00223218   	-0.0297882   	-0.0994246   	-0.162073   	-0.150864   	-0.0905726
   	0.00081056   	0.0364052   	0.0197774   	0.000672563   	-0.00620068   	-0.00994987   	-0.0100074   	-0.0287038   	-0.0884172   	-0.152921   	-0.150672   	-0.083066
   	0.0456112   	0.118996   	0.0589744   	0.00668957   	-0.0135056   	-0.0422369   	-0.0733912   	-0.0895865   	-0.101091   	-0.153489   	-0.163328   	-0.0814351

